# [source_locations] Mi 27. Mai 09:43:34 CEST 2020
# [source_locations] marcuspe-home:./source_locations.sh
# [source_locations] seed               = 2876234
# [source_locations] L                  = 64
# [source_locations] T                  = 128
# [source_locations] config file        = conf_tmp
# [source_locations] # base sources     = 16
# [source_locations] # coherent sources = 1
# [source_locations] dt                 = 8
# [source_locations] 
# [source_locations] inputFile          =  
# [source_locations] 
# [source_locations] using table layout conf 0 1 2 3
a     0  15   1   5  49
a     0  98  24  49  52
a     0 120   5  28  13
a     0  90  60   6  23
a     0  89  28  18  14
a     0  56  21  20  58
a     0 103  17  41  10
a     0  71  47  25  13
a     0 123  35  14  50
a     0  96   9  24  62
a     0  85   7  13  30
a     0  24  32  56  62
a     0   9  62  31  15
a     0  25  15  28  56
a     0  54  24  13  39
a     0  69   2  62  16
a     4  85  12   9  60
a     4  40  54  11  53
a     4  41  28  14  15
a     4  51  42  46  39
a     4  32  45  59  51
a     4   3  62  30   0
a     4 108  51  42  30
a     4  94  57   9  46
a     4  14  35  21  13
a     4  76  59  52  28
a     4  68  45  44  11
a     4 101  56  48  33
a     4  16  11  60  56
a     4  31  41  56  11
a     4  80   7   3  53
a     4  90  52  23   1
a     8 107  34  12  39
a     8  76  32  26  35
a     8  22  12   2  36
a     8   1  23  22  39
a     8  48  23  40  47
a     8  11  14  46  20
a     8  62  62   4  15
a     8  61  11  17  38
a     8  74  48  42   4
a     8  31  63  60   0
a     8  57  61  45  34
a     8  83  18  37  61
a     8  41   5   6  24
a     8 123  51  33  20
a     8 108  18  20  15
a     8  75  12  51  36
a    12  98  63  11   3
a    12  81  27  11  18
a    12  14  61  25  35
a    12  49  61   7  10
a    12  91  17  26  12
a    12  94  41  56  33
a    12  43  30  48  55
a    12  59  21  20  34
a    12  88  19  22   4
a    12  71  44  24  60
a    12   5  48  19   9
a    12  54   5  43  21
a    12  28  14   6  62
a    12  17  49   8   2
a    12 104   6  48  52
a    12  59  11  24  31
a    16  44   8  59  52
a    16  98  40   4  49
a    16  10  48  31   0
a    16 105   7  23  41
a    16 117  21  16  23
a    16  80  25  38  16
a    16  23  41  62  32
a    16  79  19  43   6
a    16 120  35  58  54
a    16 109  49  20  17
a    16  88  57   9   3
a    16  11  35  43  62
a    16 101  63   4  10
a    16 102  46   9  41
a    16  89  63   0  31
a    16  64   4  27  39
a    20  57  12  24  34
a    20  29  21  55  20
a    20  32  21  24  53
a    20 106   5  57  58
a    20  15  63  14  15
a    20  80  54  20  26
a    20   8  30  30  26
a    20  48  41  19  28
a    20  29  23  43   5
a    20  66  32  22  19
a    20  88  57  63  47
a    20  90  21  12  48
a    20 103   9  38   5
a    20 100   1  26  13
a    20  85  36  37  56
a    20  65  48  31  56
a    24  68  63   4  42
a    24  81  62  17  15
a    24  88  23  28  58
a    24  36  51  50  34
a    24  97  12   4  41
a    24 125   1  18   8
a    24  88  60  61  29
a    24  37  11  54  31
a    24  51  29  40  11
a    24  29  45  32  54
a    24  42  10  40  48
a    24 109  57   1  40
a    24  96   9  49   6
a    24  24   0  61  28
a    24  75  40  27  47
a    24  59  32  19  63
a    28  33  22  42  33
a    28  26  55  39  54
a    28 106  38  31  30
a    28  79  39  55  28
a    28 106  63  23  25
a    28 124  60  41  28
a    28  85   4   5  38
a    28   3  36  11  52
a    28 115  30  49  48
a    28 106   6  35  48
a    28  55  15  29  24
a    28  65  44  33   0
a    28   4  16   4  41
a    28  90  44  14  15
a    28  83  53  23  33
a    28  98  49  25  32
a    32  26  63  57   5
a    32  28  26  26   5
a    32 119  14  11  61
a    32  59   3  46   1
a    32   4  32  52  49
a    32  87  38  36   5
a    32  78  55  14  33
a    32  93  48   7  50
a    32  96  44  32  21
a    32  36  43   5   7
a    32  80  53  20  10
a    32 114  52   9  33
a    32  94  44  52  50
a    32 115  56   6  48
a    32 109  33  14  49
a    32  90  39  22  61
a    36  78  60  36  30
a    36  38  19  23  26
a    36  55  26  37  44
a    36  21  50  39  52
a    36 117  13  20  63
a    36  39  39  63  24
a    36  73   3  15  23
a    36  15  55  38  28
a    36  38  22  11   6
a    36 107  42   4  33
a    36  99   1  54  50
a    36  15  18  60   6
a    36  82  37   2  30
a    36  82  52   3  13
a    36  97  48  63  41
a    36  36   9   6   1
a    40  52  37  25  28
a    40  16  50   2  56
a    40  31   2  31  34
a    40  39  40  52   8
a    40 120   9  63  33
a    40  19  44  63   2
a    40  94  49   3  57
a    40  30  15   2   1
a    40  29  38  46  22
a    40  80  41  11  47
a    40 100  36  49  42
a    40   3  16   4  30
a    40 126  13  62   8
a    40  20  39  50  14
a    40  58  53  20  28
a    40  76  31  54  26
a    44  12  13  19  45
a    44 106  40  50  30
a    44  27  61   4  51
a    44  91  32   6   3
a    44  45  26  50  40
a    44 100  45  51  37
a    44  83  22  16  30
a    44  76   0  37  24
a    44  82   2  39  22
a    44 102  61  25  54
a    44  93  12   5  35
a    44  84  24  27  29
a    44  58  53  49  49
a    44 104  53  56  49
a    44   9  50  49  13
a    44  21   2  13  48
a    48  69   3  51  57
a    48  32   6  31  61
a    48  10  44  19  37
a    48  37  49  10  43
a    48  54  50  10  62
a    48  23   4  52   9
a    48 100  14  16  55
a    48   1  22  49  13
a    48  42  23  19  46
a    48  18  61   7  50
a    48  24  40  49  54
a    48  15  37  53  23
a    48  74  16  60   5
a    48   2  33   5  34
a    48  12   4   3  39
a    48  70  55  14  26
a    52  81  17  62  46
a    52  70  51  15  48
a    52 103  10  24  29
a    52 107  19  32  53
a    52   3  26   6  35
a    52 101  12   6  55
a    52  35  44  48   2
a    52  50  34  14   6
a    52  20  45   5  63
a    52   0  50  20  49
a    52  67  40  16  50
a    52   9  16   4  13
a    52  62  53  23  38
a    52  49  56  18  61
a    52  60  45  40  18
a    52 122  56   4  12
a    56 110  58  19  26
a    56  79  60  60   6
a    56 123   3  11   4
a    56  93  35  43  21
a    56  29  17  39  33
a    56 109  47  14  30
a    56  77  25  30   9
a    56  84  31  31  51
a    56  66  41  56  44
a    56  84  25  17  22
a    56  94  54  43  12
a    56  78  39  10  41
a    56  20  19  33   2
a    56  42  44  13  39
a    56  86  53  38  17
a    56 113   7  41  17
a    60  27   2  48  10
a    60  68  16  12  63
a    60  73  31  19  29
a    60  72  58  31   5
a    60  31  45   3  48
a    60  25  61  37  10
a    60  34  54   0  14
a    60  93  13  24  45
a    60 110  17  63  21
a    60 100  48  35  19
a    60  35  39  33  30
a    60  15  12  59  12
a    60  56  50  47  47
a    60  17  59   2   9
a    60  50  40   5  42
a    60  93  61  29  22
a    64  13  47   6  26
a    64  22  41  15  59
a    64   7  34  25  13
a    64  88  36  28   8
a    64  74   7  61  59
a    64  77  37  12  25
a    64  76  30  19  23
a    64  75  35  58  63
a    64  22   6  31  26
a    64  27  56  46  43
a    64  81  46  60  58
a    64  64  11  43  15
a    64  36  58  59  36
a    64  39  12  62   0
a    64  27  38  57  56
a    64  16  20   9  60
a    68  77  35  41  51
a    68 112  13  10  43
a    68 101   5  52  54
a    68  73   9   1  28
a    68 113  42  18   1
a    68  22  45  25  10
a    68 114  63  21  60
a    68  37  19  12  45
a    68  49   1  31  58
a    68  23   5  54  59
a    68   0  31   2  34
a    68  22  45  42  31
a    68  59   0  36  55
a    68  62  48  53  41
a    68  13  29  12  42
a    68  54  40  16  56
a    72  95  31  25  60
a    72  16  22  19  61
a    72  67  32  33  56
a    72 124   1  50  24
a    72  61  38  36  47
a    72 117  28  27  51
a    72  23  22  32  45
a    72  38  42  19  10
a    72  50  38  28  50
a    72 112   2  56  53
a    72  33  48   2  14
a    72  23  32  60   4
a    72   8  45  38   4
a    72 115  42   8   5
a    72  20  39   1  41
a    72  47  12  44  23
a    76  66  52  45  45
a    76 112  61  42  22
a    76  23  26  12  56
a    76  37  62  13  62
a    76 122  25  25  12
a    76  97  49  45  14
a    76 118   8   7   1
a    76  40  23  11  48
a    76  71  41   9  43
a    76  53   0  48  55
a    76  38  23  12  60
a    76  55  32  49  46
a    76 127  15  55  55
a    76  10   4  39   9
a    76  79   3  38   4
a    76  86  28  28  59
a    80 123  46  45  24
a    80   7  51   5  45
a    80  15   0  13  35
a    80 109  44  10  52
a    80 108  27  49  12
a    80 119  29  29  28
a    80 107  41   4  27
a    80 111  61  18  38
a    80 114  19  58  28
a    80 110  15  42  45
a    80  52  58  12  11
a    80  62  54  57   2
a    80  78  55  16  31
a    80 108  42  18  30
a    80   0   0  43  30
a    80  77  58  58  26
a    84 116  31  62  18
a    84 114  25  58  38
a    84  55  26  27   8
a    84  66  36  28  19
a    84  83  38  22   4
a    84   8  16  52  54
a    84  97  19  14  17
a    84  31  33  14  61
a    84  57  20  45   5
a    84 116  49   2  62
a    84  61  20  20  31
a    84   0  60  63  34
a    84 101  40  12  27
a    84  80  35  27  55
a    84  69   0  57  62
a    84 115  58  15  35
a    88  79   4  54  44
a    88  57  46  55  36
a    88 127  49  54  31
a    88  16  54  46  59
a    88  48  34  36  53
a    88 115  39  43  14
a    88   1  44  49  55
a    88  41  57  43  12
a    88  69   7  51  30
a    88  75  12  40  24
a    88  98  45  34  13
a    88 105  23  24  57
a    88 118  53  44  24
a    88  18  49  52  29
a    88  83  54  21  51
a    88  73   5  31  48
a    92  81  57  49   8
a    92   1  39  13  36
a    92  95  46  48  48
a    92  66  55  38  36
a    92  47   6  35  50
a    92  25  62  50  61
a    92  37  21  27  63
a    92  75   0  45   0
a    92 102  24   4  15
a    92  75   8  17  15
a    92 120  34  38  53
a    92 107  44  21  55
a    92  94  42  36  14
a    92 112  46   9  30
a    92  72  25  13  14
a    92  99  45   3  23
a    96 119  48  48  25
a    96  44  10  58  53
a    96  83  14  57  15
a    96  18   8  16  31
a    96  10  18  34   7
a    96 111  35  16   5
a    96   2  54  18  37
a    96  18  29  50  60
a    96  70  47   3   5
a    96  93   0   2  55
a    96  74  21  30  25
a    96  67  24  54  19
a    96  43  28  30  27
a    96  24  11  50  10
a    96  73  37  16  45
a    96  91  41  22  62
a   100 112   5  17  46
a   100 107  32  42  48
a   100  57   1  61  32
a   100 124   1  55  18
a   100  27  60  28  23
a   100   7  15  18  12
a   100  39  36  45   3
a   100  79  42  31  39
a   100  32  41  26   0
a   100  46  23   9  49
a   100  37  50   0   8
a   100  57  35  56  48
a   100  91  46  23  41
a   100 109  55   1  55
a   100  61  28  29  44
a   100 109  11  10  27
a   104  58  33  54  47
a   104 108  36  32  58
a   104  76   6  17  45
a   104  22  16   1  42
a   104  15  52  28  22
a   104  84  24  41  43
a   104  40  44  29  40
a   104  46  61  63   6
a   104  52  46  50  18
a   104  26  58   6  29
a   104 106  49  38  58
a   104  90  38  14  17
a   104  30  51  27  52
a   104  19  46  29  37
a   104 102  48  50  62
a   104  13  40  10  25
a   108  68  59  54  53
a   108 126  60  20  40
a   108  68   7  48  22
a   108  84   3  40  22
a   108 117  36  43   5
a   108  57  56  29  10
a   108  92   0  61  43
a   108  81  55  60  55
a   108 124  45  57  19
a   108  45   9   7  49
a   108 108  54  24  57
a   108  67  35  46  52
a   108  52  33   1   3
a   108  37   7  57  20
a   108  67  29  29  44
a   108 124  27  11  19
a   112  64  29  61  59
a   112  56   2  50  34
a   112  64  29  62  28
a   112  29  51  40  40
a   112  15   9  36   4
a   112 105  17  52   9
a   112  23   0  36  44
a   112 115   0  37  10
a   112  84  61  39  42
a   112  72   4  45  26
a   112 118  41  54  32
a   112  57  29  48  35
a   112  96  29  10  33
a   112  20  49  20  14
a   112 102  23  22  52
a   112  65  54  40   4
a   116  39  41  24  10
a   116  29  63  56  33
a   116  91  62  51  16
a   116 118  26  24  57
a   116 120  49  39  46
a   116  86  19  35  28
a   116   1   2  44  28
a   116  12  61  48   9
a   116 102  30  15  62
a   116  97  27  27  53
a   116  53  40  41  53
a   116  29  50  55   7
a   116   6  22  36  45
a   116   0  22  10  24
a   116   2   3  32  39
a   116  15   6  41  61
a   120 126  48  21  39
a   120  76  51  55  61
a   120  88  23   8  28
a   120  39  30  49  59
a   120  73  50  16  48
a   120  10  42  16  40
a   120 122  48  61  40
a   120  66  10  49  42
a   120  86  33   8  55
a   120  77  21  27   6
a   120  38  12  17  52
a   120 126  63  63  57
a   120 103  40  17  52
a   120  47  26   0  36
a   120  82  25  55  43
a   120 113  28  56  10
a   124  36  61  59  47
a   124  39  12  25  27
a   124  51  16  54  21
a   124  44   6  63  31
a   124  25  62  62  32
a   124  44  23   1  14
a   124  46  15  41  63
a   124   6  16  34  63
a   124  38  47   1  58
a   124  60  52  58   6
a   124 102  42  52  42
a   124  56   0  13  58
a   124 125   1  30  13
a   124  11  40  14  54
a   124  25   9  46  20
a   124  10  58  31   5
a   128  27  18   5  40
a   128  47  48  33   1
a   128 103  16   7  31
a   128  71   2  15  62
a   128  62   5  55  61
a   128  55   2  29  31
a   128  63  32  49   7
a   128  91  29   4  53
a   128  65  14   6  30
a   128  66  26  44  20
a   128  59  44  13  29
a   128  74  45   6  31
a   128 111  51  36  59
a   128 123  52  17  49
a   128  43   5  18  39
a   128  51  50  28  59
a   132  28  63  11  49
a   132  94   5   8  36
a   132 119  62   7  15
a   132 120  37  14  39
a   132   4  56  35  37
a   132  16   8  18  40
a   132  68  34  15  24
a   132  93  23  58  40
a   132  61  17  59  11
a   132  50  28  21  63
a   132   7  51  58  48
a   132   4  21  43  53
a   132  71  24  45  32
a   132  92  32  24   3
a   132  76  48  41  24
a   132   5  23  28   8
a   136   8  17  37  10
a   136  48  29  24  42
a   136  94  35   9  53
a   136 113  20   4   9
a   136  20  20  48  34
a   136  51  19  55   6
a   136  31  35  17   6
a   136  61  36  48  45
a   136  30  42   4  34
a   136 110  18  40  35
a   136  83  53  62  31
a   136 124  52  51  59
a   136  85   9  51  27
a   136  93  21  41  27
a   136 101  44   8  49
a   136  71  62  17   1
a   140 108  41  30  27
a   140  38  37  53  50
a   140 113  16  22   7
a   140 100  35  13  14
a   140  38  57  61  37
a   140  56   8  60  13
a   140  95  61   7  58
a   140  96  48  18  10
a   140 117  12  16  42
a   140  96   3  18  19
a   140  79   4  28  13
a   140  16  24   9  30
a   140  99  26   5  34
a   140  48  16  25  22
a   140 119  43  58   5
a   140  20  29  36  14
a   144  67  17  35  12
a   144  18   6  50  25
a   144  84  46  60  52
a   144  24  28   3   1
a   144  66  46  49  24
a   144  13  34  45  50
a   144   7  24  27  43
a   144  19  19  18  55
a   144  22  56  43  56
a   144  33  52  17  42
a   144  61   9  47  20
a   144  80  63  16  15
a   144 115  42  42   3
a   144  11  21  31   4
a   144 121  32  29  27
a   144 119  36  30  44
a   148  83  46   3  24
a   148 117   2  56  33
a   148  31  61  62  10
a   148  68  32  17  47
a   148  14  25  36  42
a   148  96  12  58  61
a   148  37  49  28  30
a   148  99  33  43   1
a   148  50   4  44  27
a   148  12   2  14   3
a   148  35  60  23  60
a   148  89   5  13  61
a   148  77  29  53  36
a   148  62  12  56  26
a   148  16   0  19   9
a   148  69  62  40  48
a   152  93  56   7  31
a   152  13  19  58  16
a   152  61  60  52  61
a   152  46  39  63  56
a   152  95  18  46  12
a   152  20  26  62  22
a   152  81  54  23  54
a   152 114  34  33  27
a   152  84   8  59  57
a   152  77  32  13  59
a   152  66  13  17   7
a   152  76  23  63  46
a   152  28   0  21  62
a   152  35  54  60  22
a   152  33  45  18  53
a   152  31  21  43  16
a   156  44  63  29  44
a   156 117  58  57  41
a   156  42   2  34   7
a   156  17  52  53  57
a   156  10  10  34  46
a   156  92  31   6  57
a   156 109  11  63   2
a   156  61  60  37  28
a   156  41  47  60  47
a   156  89  24  10  43
a   156  91  24  10  30
a   156  73   3  36   8
a   156 100  40  51  38
a   156  61  54  19  39
a   156 105  21   8  44
a   156  58   3  51  41
a   160  53  13   6  15
a   160 110  63   9  35
a   160 117  14  48  63
a   160  18  24   0  57
a   160  96   8   4   0
a   160  34  27   5  35
a   160 109  34  61  21
a   160 117  26   2   3
a   160  86  10  52  24
a   160  20  59  23  50
a   160  36  58  11  47
a   160  47  59  15   4
a   160  27  11  37  27
a   160  21  58  22  28
a   160  36  60  25  35
a   160  91  20  39   5
a   164 109  35  49  30
a   164   4  47  20  40
a   164 114  12  47  12
a   164  31  24  46  16
a   164  64  15  14  31
a   164  54  26   0  44
a   164  25  40  61   8
a   164  57  27   0  50
a   164 102  60  16  61
a   164  41  15  12  42
a   164   1   4  41  35
a   164 110   8   9  24
a   164  40  56  57  29
a   164 102  26  59  56
a   164 121  48  31  13
a   164  54  30  10  63
a   168  43  54  35  43
a   168  77  61  61  42
a   168 109  43  45  44
a   168  65  18  45  19
a   168  44  63  52  51
a   168  18  52  35   6
a   168  98  16  61  56
a   168 117  20   9  46
a   168  37  29  21  20
a   168  27  42  49  41
a   168   5  52  56   4
a   168 123  50  57  39
a   168  85  58  51  45
a   168  64   5  11  46
a   168  84  46  43  60
a   168 125  25  20  12
a   176  14  32  37  16
a   176 117  56  12  10
a   176  35   3  36  47
a   176 102  17  49  16
a   176  24  38  59  29
a   176  81  19  49  54
a   176  98  51  52  48
a   176  30  31   0  45
a   176  68  27  33  31
a   176 118   2   2  41
a   176 127  60   8  28
a   176  81  40   3   8
a   176  72  43  51  43
a   176 119  60  43  44
a   176  25  13  58  61
a   176  32  27  37  28
a   180  16  34  27  44
a   180  98  27  27  49
a   180  97   5  43  48
a   180  28   7  39  20
a   180  42  28  44  37
a   180 101  32  47  32
a   180  10  46  54  41
a   180  83  26   3  47
a   180 112   0  61   2
a   180   0  52   0  23
a   180  75  44  57   3
a   180  77  23  15  21
a   180  77   0  59  62
a   180 119   0   8  10
a   180  34  52   1  41
a   180  42  18  40  43
a   184  74  29  28  63
a   184  36  56  31  54
a   184  93  13  29   7
a   184  88  31  58  39
a   184  55  34  34  30
a   184  19  53  41  63
a   184  37  19  46  42
a   184  73  21   2  61
a   184  34  34   8  56
a   184  79  36  42   8
a   184  58  34  22  29
a   184  51  60  44   3
a   184  74  59  53   7
a   184 124  21   0  61
a   184 106   4  27  57
a   184 101  63  32  33
a   188 118  27  28  13
a   188 127  30  27   7
a   188  88  12  37  52
a   188 100  39  56  63
a   188   1  21  56   6
a   188  26  61  35  18
a   188  47  43  26   6
a   188 119  54  42  44
a   188  11  11  27  24
a   188  54  57  20  55
a   188  20   0  49  21
a   188  50  39  59  17
a   188 110  43  35  26
a   188 101  17  51  54
a   188 124  23  59  23
a   188   6  57  60  36
a   192  74   8   7  11
a   192  16  37   1  43
a   192  25  15  20  39
a   192 109  42  44  59
a   192  94  34   3  51
a   192 125  28  13  53
a   192  70   7   9  10
a   192  87  48  38  48
a   192 101  39  10  62
a   192  47  34  54  13
a   192  86  42  54  25
a   192  29  59  47  16
a   192  16  62  35  51
a   192   0  62  53  34
a   192 123   1  56   3
a   192 105  21  42  32
a   196  61  30   1  13
a   196  66  57  43  62
a   196  64  10  39  60
a   196  72  51  23  48
a   196  93   1   7  30
a   196  23  33  36  28
a   196 106  56  61  31
a   196  51   5   5  41
a   196   2   6  37  26
a   196  77  16  54  45
a   196  83  19   0  33
a   196  53  36  62  35
a   196   1  10  63  19
a   196  74  52  57  23
a   196  79   6  23  62
a   196 120  28  54  10
a   200   5  48  31  11
a   200  32   5   7  27
a   200  67  25  34   1
a   200 119  24  51  45
a   200  49  10  43  18
a   200  81  15  23  40
a   200 100  41  24  14
a   200   0  35  43  28
a   200  11  21  21  29
a   200 125  54  31  25
a   200  30   2   3  52
a   200   5   9  16   8
a   200  96  47  31   8
a   200  20  49   8  48
a   200  72  39  53  20
a   200 108   4  33  46
a   204  70  34  62   1
a   204  58   8  19  63
a   204  71  61  26  37
a   204  93  56  57  37
a   204  67   0   5  45
a   204  89   3  58  14
a   204  45  21  42  15
a   204  44  18  36  36
a   204   2  38   2  29
a   204  36  62  36  50
a   204   8  21   8  11
a   204  26  41  52  40
a   204  29  47  43  48
a   204  75  39  25  18
a   204  25  53  59  21
a   204   4  16  25  52
a   208 102  11   5   2
a   208  67  28  22  55
a   208   5  23  24  49
a   208 126  61  48  31
a   208  54  11  52  41
a   208  72  29  25  53
a   208   1   9   9  13
a   208  14  17  38  29
a   208  46  36   0  52
a   208  40   7  35  49
a   208  77   8   1  23
a   208  85  57  14  46
a   208  53  21  25  37
a   208  54  32  14  34
a   208  99   9   5  44
a   208  18  54  54   1
a   212  87  45   4  32
a   212  72  33  35  11
a   212   9  12  16  39
a   212  89  59  43  50
a   212  74  23  19  25
a   212  92  63  20  62
a   212  83  55  53   5
a   212  85   2   2  34
a   212  48  57   3  47
a   212  79  27  54  63
a   212  36  15  41  37
a   212  53   2  18  10
a   212  56  18  56  27
a   212  40  51   0  40
a   212  76  36  38  35
a   212 121  62  39  22
a   216  34  40  35   3
a   216  76  43  12   2
a   216   5   6  30   5
a   216  90  44  28  39
a   216  52   9  16  61
a   216  42  26  39  40
a   216  64  61  43  13
a   216  35  16  31  42
a   216  48  15   5  13
a   216  59   0  42  58
a   216  27  47   2  60
a   216 121   4  11  57
a   216  63  39   5  49
a   216  81  11   6   5
a   216 123  41   7  37
a   216 121  37  21  55
a   220 115  53  16   5
a   220   0   0  32   5
a   220  90  11  60  50
a   220  71  39  58  61
a   220 107  11  38   1
a   220 104  38  18  47
a   220  62  51  40   0
a   220  49  43  45  28
a   220  35  62  16  45
a   220 127   2  39  26
a   220   1  61  26  59
a   220 102   5  13  47
a   220  55  52  44  63
a   220  24  41  35  15
a   220  39  55   5  52
a   220 100  45  46   8
a   224  21  47  24  52
a   224  93  52  40  12
a   224   5  27  36   7
a   224  42  57   7  20
a   224  93   5  11  37
a   224  18   9  28   2
a   224  45  38  22   9
a   224  45  33  36  19
a   224  71  50  31  15
a   224  70   7  30  63
a   224  50  33   8   1
a   224   5  45  60  36
a   224  62  50  37   9
a   224  15  48  51  42
a   224  53  22  50   6
a   224  76  27  30  17
a   228 114   3  35  54
a   228  61  41  60  46
a   228  10  10  56  12
a   228  10  23  55  42
a   228  84  57  22  38
a   228  81   5  55   0
a   228  33  15  54  17
a   228  14  52   3  31
a   228 116  13  31  59
a   228  18  59   4   6
a   228  86  12  35  19
a   228  40  26  54  40
a   228  33  18  40  45
a   228  79  11   0  51
a   228  62   0  22  34
a   228  28  16  12  36
a   232  70  22  43  51
a   232  73  10  27  22
a   232  94  20  34  47
a   232  88   5  60  41
a   232  44  56  23  35
a   232  23  39  11   6
a   232  24  20  13  31
a   232 122  13  40  26
a   232 119  25  22  47
a   232  36   3   4  31
a   232  40   6  62   4
a   232  80  28  39  51
a   232  67  59  34   9
a   232  78   1  15  52
a   232  71  11   5  24
a   232  82  27  18  61
a   236 107  38  12  36
a   236 121  55  38  56
a   236  76  41  31  52
a   236  68  16  26   7
a   236  34  23  12  23
a   236  11  63  62  54
a   236  69   9  17  35
a   236 103  54  58  58
a   236  44  28  20  42
a   236  93  48  12  54
a   236  11  20  19   6
a   236 100  16  16  12
a   236  66  29  50  30
a   236  41  24  62  23
a   236  76  16  22  43
a   236  67  28  47  23
a   240  92  21  38  53
a   240  99  15  30  30
a   240 127   0  61   3
a   240   5  41  63  30
a   240  67  16  14   9
a   240  65   6   6   7
a   240  82  22  21   3
a   240 127  12  56   2
a   240  89  35  16  57
a   240  84  53   9  33
a   240  16  35  25  49
a   240 116  59  38  18
a   240   5  10  19  25
a   240  41  63  24  34
a   240  12  54  12  32
a   240  15  57  26  45
a   244  83  35  15  25
a   244  45   5  63  40
a   244  19  49  47  19
a   244  61   7  29  53
a   244  34  62  27  45
a   244 113  48   0  62
a   244  92  51   0  49
a   244  80  29   0  10
a   244  63  44  27   9
a   244  21  43  28  12
a   244  35  45  13   6
a   244  68  25   2  12
a   244  80  57  42  27
a   244  31  59   6  19
a   244  81  47  56  37
a   244  38  22  46  13
a   248 122  59   2  21
a   248   1  21  51  14
a   248   3   4  47  59
a   248   3  25  55  18
a   248  70  23   3  31
a   248  14  25  54  17
a   248  56  21  22  13
a   248  93  15  24  24
a   248  66  35  34  13
a   248  34  40  33   0
a   248 100  52  39  18
a   248  14  31   9  32
a   248 123  59  58  25
a   248 126  41  37  22
a   248  17  52  45   5
a   248  57  59  31  45
a   252 112  48  23  21
a   252  10  48  62  60
a   252  84  55   6  20
a   252  55  36  51  16
a   252  20  61  19  23
a   252  34  58  33  43
a   252  77  20  13  15
a   252  33  61   4  57
a   252 117  15  42   7
a   252  68  10  49   6
a   252  88  23  53  19
a   252  22  44  46  15
a   252 107  42   1  45
a   252 102  32  17  37
a   252   5  61   1   9
a   252  75  57   4  12
a   256 104  30  50   9
a   256  16  16  42   7
a   256  11  29  13  29
a   256  83   1  57  38
a   256 117   2  16  63
a   256 118  54  35  37
a   256  91  39  40  34
a   256  82  19  19  50
a   256  93  63  18  22
a   256  24  46   3  20
a   256  83  40  28  26
a   256 108  52  22  29
a   256 106  20  42  41
a   256  66  46   1  62
a   256  85  20  38  36
a   256  16  11  60   9
a   260  84   8  32  35
a   260  94  44  59  20
a   260 109  14   5   4
a   260 104  18  32   0
a   260  20  27  51  32
a   260  85  52   5  44
a   260  76  29  24  38
a   260  94  18  37  25
a   260   0  14  16  60
a   260  35  19  10  54
a   260  81   0   3  28
a   260  39  55  32  51
a   260  78  57  37  61
a   260  44  36  18  61
a   260  92  31  44  47
a   260  91  52  16  25
a   264  96  62  57  20
a   264  21  15  12   7
a   264 113  16  61  25
a   264  88  56  36  31
a   264  59  29  38  57
a   264  60  36  62  46
a   264 119  32  53  21
a   264  18  37  60   4
a   264  55  49  42  46
a   264  90  47  57  29
a   264  94   0  51   4
a   264  13  17  56   8
a   264 105  30  46   7
a   264 113  44   0   5
a   264  78  39  35  51
a   264  17  29  62  17
a   268  20   4  14  26
a   268 117  53   0   4
a   268  87  35  11   3
a   268  48  29  12  45
a   268   2  57  50  33
a   268  88  42  10  42
a   268  33  12  26  46
a   268  16  11   8   4
a   268  92  54  28  35
a   268  93   4  19  52
a   268  29   5  62  46
a   268 119  48  25  13
a   268  21   2  17  49
a   268  51   5  24   0
a   268  57  17  63  21
a   268  83   8  38  42
a   272 124  23  61  50
a   272  37  40   9  20
a   272 100  26  17  27
a   272  49  63  62  38
a   272  47  52  11  30
a   272  33  22  58  51
a   272  56  59  10  32
a   272  51  58  25  49
a   272 127  22  12  58
a   272 109  36  59   4
a   272  48  22   0  52
a   272   0  14  15  62
a   272  71  28  24  61
a   272  31  29  22  62
a   272  83  38  26  55
a   272  17  30  61  28
a   276 101  16  12  55
a   276  60  54  49   3
a   276  36   8  23   0
a   276  74  12  49  23
a   276  73  52   0  42
a   276  89  22  41  40
a   276  72  61  49  51
a   276  64  49  61   8
a   276  67  63  30  31
a   276  29   7  17  37
a   276  77  24  31   9
a   276  80  51  35  26
a   276 111  63   5  18
a   276  14  18  58   9
a   276  69  51  56  40
a   276  61   1  63  37
a   280 104  12  55  19
a   280  34  51   5  42
a   280  44  17  45  43
a   280  93  46  31   6
a   280 111  50  25  35
a   280  14  35  33  16
a   280  68  58   4  56
a   280 100  42  35  46
a   280  60  39  62   8
a   280 124  44  16  35
a   280  56  11  28  35
a   280  41  22  16  49
a   280  61  18  31  47
a   280  57  42  36  23
a   280   7  46  41  12
a   280  75   2  29  60
a   284 127  21  39  17
a   284  53  41  42   3
a   284  73   1  19  21
a   284   5  33  13  60
a   284  81  19  61  40
a   284  74  55  28  24
a   284  40  11  16  33
a   284  98  31  56  24
a   284 123   0   0  28
a   284  93  34  39  51
a   284  40   4  42   9
a   284  67  11  15  33
a   284  55  33  31  23
a   284  68   5  41  61
a   284  34  44  17  50
a   284  42  30   2  28
a   288  38  31   8  20
a   288  13  10  20  56
a   288   8  61  36  60
a   288  54  47  18  60
a   288  82  53  49  63
a   288  84   0  21  48
a   288 117   5  58  48
a   288  87  59  15  32
a   288  86  16  31  50
a   288 114   2  52   5
a   288  34  17  11  61
a   288 113  43  23  23
a   288 117  26  23   4
a   288  38  33   5  21
a   288  68  63  51   3
a   288   9  12  56  37
a   292  24  61  38   3
a   292  53  63  29  11
a   292 122   6  50  45
a   292  77  17  33  11
a   292 118  51  41  57
a   292  75   1  56  63
a   292  66  23  46  40
a   292 119  33  31  25
a   292  10  19   2  54
a   292  51  23  55  58
a   292  68   0  55  21
a   292  63  14  31  16
a   292 105  48  60   7
a   292   3  12  27  10
a   292 111   6  56  18
a   292  91   7  61  10
a   296 101  14  42  12
a   296 101  17  26  54
a   296  83  35  38  15
a   296 108  47  63  26
a   296  47  49  56  59
a   296  39  20  32  33
a   296  58  57  34  51
a   296 112  48  30  55
a   296  78  55  10  27
a   296  46  52   8  38
a   296  64  60   4  14
a   296  11  52   9  30
a   296  27  42  53   7
a   296  50  12  27  49
a   296  39  53  49  45
a   296 112  44  36  56
a   300 101  29  35  30
a   300 113   4  44  49
a   300 127  52  36  11
a   300  11  44  63  45
a   300   3   6  36   3
a   300  96  18   8  41
a   300 118  36  62  43
a   300  51  33  10  60
a   300  55   2  36   3
a   300  30   2   4   3
a   300  55  56  31   3
a   300  92  15  29  38
a   300  81  25  38   6
a   300  92  61  47  14
a   300  75  38   9  47
a   300   3  20  51  27
a   304  32  27   0  42
a   304  16  28  52  36
a   304   8   1  52  59
a   304  64  33   4  10
a   304  58  53  38  56
a   304  85  33  22   5
a   304  12  44  49  12
a   304  29  41   9  56
a   304  44  25  16  48
a   304  42  63  28  54
a   304  68  22  63   8
a   304 121  34  38  61
a   304  40  15  24   8
a   304  69  49  39  13
a   304  11   7  49  27
a   304  17  61   6  25
a   308  82  61  40  41
a   308  77   2  33  10
a   308  96  20   8  37
a   308 122  44  20   0
a   308 105  53  51  40
a   308 106  20  47  30
a   308  59   9  26  30
a   308  88  24   8  50
a   308 102  28  15  14
a   308  47  59  25  51
a   308 121  14  53  62
a   308  27  35  48  56
a   308  39  63  15  21
a   308  93  50  43  62
a   308  70  17  29  11
a   308  53  33  13  23
a   312  10  39   8  42
a   312  64  31  29  19
a   312  42  39  34  18
a   312  38  32  29  61
a   312  31  35  21  32
a   312  53  27   0   4
a   312  82  51  16  30
a   312  86  35   5  36
a   312 103  29  49  22
a   312   0  31  57  21
a   312  90  58  35   5
a   312 119  24   0  32
a   312  97  40  44  55
a   312  69  30  18  52
a   312  31  59  48   2
a   312  38  40  38  56
a   316 107  20  62  43
a   316  70  42   7  44
a   316  53  51   5  22
a   316  14  17  61  22
a   316   6  22  58  33
a   316  51   3  20  54
a   316 110  11   1  31
a   316  33  14  55  55
a   316  23  20  45  39
a   316  73  56  14  29
a   316 108  54  45  56
a   316  95  15  19  33
a   316  47  40  41  49
a   316  70  40  50  16
a   316 117  51  55  36
a   316 116  43  56  17
a   320  83  58  12   3
a   320  51  25  49   1
a   320  68  23  29  48
a   320  33  41  37  33
a   320  85  37  62  43
a   320  40  42   3  22
a   320  77  34  36  63
a   320 116   6  12  32
a   320  20  44  45  20
a   320  75  30  34  16
a   320  15  63  42  29
a   320  16  42  42  37
a   320  35  38  16   3
a   320  96  56  26  33
a   320 115  24  55  35
a   320  58  18  12  16
a   324 108   6  53  26
a   324  68  54   2   0
a   324  84  54  57  47
a   324  37  41   9  36
a   324  37  40  50  25
a   324 107   5  45  18
a   324   4  29  58   3
a   324  10  42   9  31
a   324  15   1  43  52
a   324  44  19  40  51
a   324 109   4  12  55
a   324  66  63  16  22
a   324  63  26  29  19
a   324  98  59   6  63
a   324  74  48  25  63
a   324  33  44  36  10
a   328 116  47  27  36
a   328 109   1  36  17
a   328 114  59   1  51
a   328  26  33  39  37
a   328 107  39  42  32
a   328 127  33  44  46
a   328  83  52  59  53
a   328  88  47   8  12
a   328  47  17  63  63
a   328  36  40  47   1
a   328   8   9  61  45
a   328 123  14  35  21
a   328  91  13  12  34
a   328  50  34   3  11
a   328  12  28  35  40
a   328  99  40   0  39
a   332  46  27  28  14
a   332  80  41  20  23
a   332  48  28  24  36
a   332  90  44  14  58
a   332  93   1  46  30
a   332  75   7  39  59
a   332  19  51  34  15
a   332  63   9  29  19
a   332 106  10  20  23
a   332  55  45  46  24
a   332  22   4  27  45
a   332  39  32  31   2
a   332  32  36  18  54
a   332  97  47   7  33
a   332 116  22  21  30
a   332  53  23  32  52
a   336  90  31  30   5
a   336 121  47  58  18
a   336 122  26  23  55
a   336  80  11  46  17
a   336 100   9  53   2
a   336  72   4  13   1
a   336 112  49  43  32
a   336 100  38  52  63
a   336  37   3  57  11
a   336  77  34  40  21
a   336 118  60  39  29
a   336  68   8  14  25
a   336  23  36  51  55
a   336  21  23  37   1
a   336  66  24  26  17
a   336  50  43  48  36
a   340  81   5  25  12
a   340  92  51   8  21
a   340 124  40  49  41
a   340   0  17  51  35
a   340 105  50  50  29
a   340 101  10  22  24
a   340  82  38  33  33
a   340  62   5   4  31
a   340 119  22  24  30
a   340  10  28  44  47
a   340 111  44  28  56
a   340  95  43  26  30
a   340  65  28  14  37
a   340  74   0  35  24
a   340  48  11  51  48
a   340  23  43  53  50
a   344 109   3  12  45
a   344   7  18   2  62
a   344  40  45  58  62
a   344  75   8  62  26
a   344  64  42  58  41
a   344  19  47  39  11
a   344  79  59   0   2
a   344  85  58  58  47
a   344  28  52   0  62
a   344  57   0  27  37
a   344  91   9  26  49
a   344  84  15  29  22
a   344  64   8  34  53
a   344  77  38   0  35
a   344 107   9   6  19
a   344  45  34  54  20
a   348  63  18  51  59
a   348  38  47  42  21
a   348  64  46  35  39
a   348  86  22  18  34
a   348  92  17  18  57
a   348  46  22  12  54
a   348 122  60  15  45
a   348  71  22  18  39
a   348  37   2   4  55
a   348  75  43  40  48
a   348  20   3   7  54
a   348 108  48  33  14
a   348  14  39  33  59
a   348  89   6  40  24
a   348  35  54   4  16
a   348  91  47  63  43
a   352 110  11  35  21
a   352  77  26  29  40
a   352  69  37  14  25
a   352  19  46  32  51
a   352  75   0   1  17
a   352  62  10  22  46
a   352   0  48  28  55
a   352 108   9  49  13
a   352  13  63  50  57
a   352   7  39  33  53
a   352 109  48  42  55
a   352  86  41  19  35
a   352 106  33   7  23
a   352  82   6  11  26
a   352  60  39   4   7
a   352 118  18  23  51
a   356   1   0   7  34
a   356  66  12  11   0
a   356  52  35  23  33
a   356  64  42   5   3
a   356  40  32  51  59
a   356  37  60  50  38
a   356  72  21   0  17
a   356  32  20   7  21
a   356  56  43  41   2
a   356  43  47  47  62
a   356  95  57   0   9
a   356  14  53  51  46
a   356 122   8  44   0
a   356  28  62  54  30
a   356 105  41  26  37
a   356   8  31  36  26
a   360  22  14  43  55
a   360  78  54  59   1
a   360  36  61  29  57
a   360 116  49  20  51
a   360   1  11  60  61
a   360 110  52   4  33
a   360   0  59  32  19
a   360  25  45  47  60
a   360 125   7  39  61
a   360  30  17  63  11
a   360  10  11  14  25
a   360  67  14  45  36
a   360  76  20   1   9
a   360  13  38  31  38
a   360  59  29  24   7
a   360 102  15  29  33
a   364  41  62  22  32
a   364  99   0  62  56
a   364  83  18  19  21
a   364  74  33  43  34
a   364 100  37   6  37
a   364  99  29  33  35
a   364  99  43   9  16
a   364  57  35   8  25
a   364  71   5   4  17
a   364   0  59  35  19
a   364  33  41   9  55
a   364  53  55  23   6
a   364  30  20  19  45
a   364  37  13  20   3
a   364  61  13  37  38
a   364  70  39  54   9
a   368  44  14  51  39
a   368   6  34  18  27
a   368  70  28   7   7
a   368  28  14   5  22
a   368  79  19  12  15
a   368 118   1   4  20
a   368  60   4  33  30
a   368   4  63  60  56
a   368   7  47  39  23
a   368  40  62  16  59
a   368  44  58  50  17
a   368  60  31  40  41
a   368 127  28  61   3
a   368  70  13  51  23
a   368  23  48  44  56
a   368 114   4  12  27
a   372  91  40  48  37
a   372  79  40   9  35
a   372  35   7   2  13
a   372 110  59  41  36
a   372  71  11  20  15
a   372  61  29  16   4
a   372 124  46  54   8
a   372 108  60  55  42
a   372   7  39  59  60
a   372  60  59  49  14
a   372   6   7   2  27
a   372  90  49  51  25
a   372  21  51   1  13
a   372  10  56  16  11
a   372   9   9  41  57
a   372  70  17  39  52
a   376  59  35  42  47
a   376   2  11  60  29
a   376   6  30  28  50
a   376  73  11  48  33
a   376  83  38  57  28
a   376  74  18  21  56
a   376   0  25  15  34
a   376 107  58  54  38
a   376  95  48  27  23
a   376  33  28  55  30
a   376 110  45  52  37
a   376 107  16  39   0
a   376  80  58  27  33
a   376   7  12  20   0
a   376 122  14  62  30
a   376  21  42  26  63
a   380 110  19  44  19
a   380  11  48   4  53
a   380  18  34  60  28
a   380 119  11  15  35
a   380  15  20  23  62
a   380  72   0  54  11
a   380 104  34  34  23
a   380  68  53   0  14
a   380  25  50  42  62
a   380  40  11  11  48
a   380 104   6  54  60
a   380  67  11   8  42
a   380  75  29  40  32
a   380  27  25  50  30
a   380 118   0   7   3
a   380  65  40  60  37
a   384  77  51  11   3
a   384 109  63  31  25
a   384 114  40  47  49
a   384 115  41  59  22
a   384  56  24  34  26
a   384 117   5  49   5
a   384 125  38  49  48
a   384  95  49  48  35
a   384  40   7  47  14
a   384 111  62  20  13
a   384  30  54  33   8
a   384  73   7  38  19
a   384 116   2  43   4
a   384  15  18  23  29
a   384  10  56   6  39
a   384 122  50  46  13
a   388  90  54  59   5
a   388  61   7  31  43
a   388 111  55  50  56
a   388 125   9  20  61
a   388  38  55  40  10
a   388  54  35  63  17
a   388  19  44  18  22
a   388 119  25  48   0
a   388  18   2  20  54
a   388  64  58  47  21
a   388 127  11  36  63
a   388  24  35  11  11
a   388 100  32  22  38
a   388  49  56   7  46
a   388 100  13  15  31
a   388  85  27  53   3
a   392  37  50  24  47
a   392 103  32  31  14
a   392 108  17  33  25
a   392 124  52  43  51
a   392  65  54  31  60
a   392  70  63  62   3
a   392 126  51  54  12
a   392  24  62  37  57
a   392  37  36  35  12
a   392  41  46  44  29
a   392 115  17  44  45
a   392 110  14  11  62
a   392  32  47  36  27
a   392  78  12  28   6
a   392  92   2   9  55
a   392  53  60  52  23
a   396 104  30  11  44
a   396  97  29  61  49
a   396  96  30  14  28
a   396 127  43  17   0
a   396  84  21  53  53
a   396  46  61  52  17
a   396 104  54  18   1
a   396 120  57  25  18
a   396  82  40  49  23
a   396  65  49  30   0
a   396 109  10  48  28
a   396  90  48  14  38
a   396  54  14  10  39
a   396 115  35  36  39
a   396 122  52  26  41
a   396  92  55  30   7
a   400  69  60  45   2
a   400  17   9  23  27
a   400  64  21  26   8
a   400  13  11   9  15
a   400 105  34   8  34
a   400  58  56  38  32
a   400  68  20  37  21
a   400 113  27   4  24
a   400   2   6  42  29
a   400  38  62  40  63
a   400  62   6  36  54
a   400   9  55  13  50
a   400  19  55   2  37
a   400  41  61  49  58
a   400  19  31   9  50
a   400  67  48  46  44
a   404  40  45  30  15
a   404   0  10  52  39
a   404  61  51  41  10
a   404  46  18  30  32
a   404 119  36  27  38
a   404  31  10  29  34
a   404 105  33  61  41
a   404  79  27   8  14
a   404   6  60  29  20
a   404  59  55  62  21
a   404 108  52  39  22
a   404 121  28  17  58
a   404  50   3  18  12
a   404  48  29   6  25
a   404   7   4  31  24
a   404  90   1  46   2
a   408  59  62  41  32
a   408 102  42  17  16
a   408 105   3  51   7
a   408 100  33  60  17
a   408  34   8  26  31
a   408  43  43  57   6
a   408  80  62  56   6
a   408 100  15  49   6
a   408  50  32  63  63
a   408 119  54  61  58
a   408  69   0   1  19
a   408  21  21  26  33
a   408  89  63  47  49
a   408 100  45  55  53
a   408   4  17  20  47
a   408 103  55  54   0
a   412  20  45  61  30
a   412  46  46  50  53
a   412   0  11  38  39
a   412   1  32  60  59
a   412 106   8  20  31
a   412   5   0  62  26
a   412  58  41  14  30
a   412  49  40  46  47
a   412   3  55  22  24
a   412  63  36  44  16
a   412  48  26  50  60
a   412  81  21  42  31
a   412  12  63   4  15
a   412  67  23  18  51
a   412  61  59  32  61
a   412 119  29   2   5
a   416   7  47  47  55
a   416  93  60   6  37
a   416  97   6   8  41
a   416  46  20  60  20
a   416  35   9  26  41
a   416  94  11   6  53
a   416 122  46  31  27
a   416  48  55  18  58
a   416  88  63  62  46
a   416  89  20  11  15
a   416  85  28  28  27
a   416  75  40   8   7
a   416  19   8  15  56
a   416  12  56  42  13
a   416  89  52  47   0
a   416 120  55  30  60
a   420  30  54   3   5
a   420  49  18  55  53
a   420 103   0  63  55
a   420  43  55  41  12
a   420  81  57  62  18
a   420  47  55  34  40
a   420  57  17  43  11
a   420   1  63   2   5
a   420 104   2  34  15
a   420  41  55  24   2
a   420  37   4  18   0
a   420  57   1  57  34
a   420 119  42  39  43
a   420 123  60  31  39
a   420   1  25  17  61
a   420  46  54  43  55
a   424  75   4  37  32
a   424  41   9   8  11
a   424  88  39   7  39
a   424  82  40  43  39
a   424  75  10  12  43
a   424 106  40   3  51
a   424 123   2   0  25
a   424  60  23  20  63
a   424 101  54  44  23
a   424  48  33  32  41
a   424  50  43  19  45
a   424  44  18   7  58
a   424 112   4  36  37
a   424  56  62  21  32
a   424 121  19  32  53
a   424  37  21  35  30
a   428  10  55  63   1
a   428  27  57  25   2
a   428  20  46  32  31
a   428 117  46  25  44
a   428  88  60  36  44
a   428  63  11   5  46
a   428 126  20  62  27
a   428  86  13  39  18
a   428  91  21  54  47
a   428  27  26  30  27
a   428 104   2  58  61
a   428 114  33  33  40
a   428  47  60  27  32
a   428  27  37  13  12
a   428  77  59  60   2
a   428  36  46  30  34
a   432   1  49  33  10
a   432  23  48  52   5
a   432  84  49   7   2
a   432 102  23  25  58
a   432  44  25  59   8
a   432  35   9  48  35
a   432  83  33  31  59
a   432  74  26   8  47
a   432  26  35  10   7
a   432  29   7  56   8
a   432 105  52   5   7
a   432  81  53  27  29
a   432  18  29  57  63
a   432  25   0  44  40
a   432  60  41  37  55
a   432   0  16  63  56
a   436  23  22  59  57
a   436 106  52  63  10
a   436  39  63  19   2
a   436  68  28  52  59
a   436 114  23  36  59
a   436  85  13  55  24
a   436 120  35  40  33
a   436   5  38  27  17
a   436  39   1  21  53
a   436  21  38  32   8
a   436  81  33  27  35
a   436  54  58  13  12
a   436  94  25  32  63
a   436 118  39   3   5
a   436 115  39  10  60
a   436   1  63  45  13
a   440  62  21  22  36
a   440   9  10   4  60
a   440  98  58  35  17
a   440  47  52  33  18
a   440   7  54   2  19
a   440 102  39   4  50
a   440  35  30   9   5
a   440  62  31  37  39
a   440  60   8  25   0
a   440  84  43  13  48
a   440  56  27  18  38
a   440  85  19  18  27
a   440   9   2  41   6
a   440  87  58  30  20
a   440  22  59  19  44
a   440 106  62  15  16
a   444 117  29  54  41
a   444  66  52  55  16
a   444  76  56  35  10
a   444 113  56  55  44
a   444  48   2  38  32
a   444  51  21   0  58
a   444  61   9  32   4
a   444 106  21  34  26
a   444  40  62   9  34
a   444  20  54  15  32
a   444  68  52  30  53
a   444  88  50  51  58
a   444 121  15  29  25
a   444 106   0  11  41
a   444   6  24  53  56
a   444 111  10  18  32
a   448  67  53   7  62
a   448  25  58  18  33
a   448  43   0  53  33
a   448  62  58  31   3
a   448  34  38  37  18
a   448  71   6  44  21
a   448   7  20  33  58
a   448 120  25  31   1
a   448 114  18   4   0
a   448  70   1  18  15
a   448  79  51   7  33
a   448  12  27  20  56
a   448  13  17  58  27
a   448  36   2   8  52
a   448  92  25  40   8
a   448  26  63  19  32
a   452  21  61   7   9
a   452  78  48  16  56
a   452  19   9  58   5
a   452  73  46  36   8
a   452  53  18  37   2
a   452 104  34  37  17
a   452  33  20  54  35
a   452  70   3  27  20
a   452  27  48  60   7
a   452 117  48  37  21
a   452  45  47  14  49
a   452 105  29  42   7
a   452  61  61   2   0
a   452 118  15  10  40
a   452  88  41   8  22
a   452  39  12  36  47
a   456  61  32  62  56
a   456  30  25   1  38
a   456  44  48  60  15
a   456 116  35  56  35
a   456  90  47  54  22
a   456  14  57  39   2
a   456  90  21  21  33
a   456  91   0  58  53
a   456 126  43  63  27
a   456 123  27  27  10
a   456   2  11  46  12
a   456  81  29  44   2
a   456  80  63  24  52
a   456  25   4  16  36
a   456   2  57  51  13
a   456  95  38  47  46
a   460  62  33  25  55
a   460  84  42  15  25
a   460  17  49  61  25
a   460  88  63  29  21
a   460 122  48  52  51
a   460  98  48  54  54
a   460   3  56  37  47
a   460  93  33  43  53
a   460   2   4  45  24
a   460  82  59  52  34
a   460   7   1   9  30
a   460  81  21  59   3
a   460  40  62  26  15
a   460 104  31  40  57
a   460  12   8   8  58
a   460 115  21  35  15
a   464 124  45  59  44
a   464  47  26  37   5
a   464 115  27  16  32
a   464  32  23  36   7
a   464 105  11  51  48
a   464  81  17  21  30
a   464  66  31   8  57
a   464  28  28  38  60
a   464  84  41  57  27
a   464  23   6  30   3
a   464  50   0  50  61
a   464 103   9   7   7
a   464  66  11  61  59
a   464  85  15   6  18
a   464  79  50  27   4
a   464  84  16  48   3
a   468   1   0   0  21
a   468  37  29  63  60
a   468 125   5  29  52
a   468   1   7  60  59
a   468  65  31  28  52
a   468  29  22   5  34
a   468  12  19  31  41
a   468  81  58  62  62
a   468  67  10  25  47
a   468 111  26  29   6
a   468  34  13  15   5
a   468  46  28  51  40
a   468  68  19  19  48
a   468  54  33  19  60
a   468 100  14  41  10
a   468  60  50  28  38
a   472 121  58  11   2
a   472  94  16  57   7
a   472  76  40  25  14
a   472  84  63  28  61
a   472  18  62  38  46
a   472  34  50   8  42
a   472  23  25   4   9
a   472 124  49  36  26
a   472  40  31  43   4
a   472  11  30  21  11
a   472  85   6  59   2
a   472 111  11  51  12
a   472 101  15   6  35
a   472   0  16  62   3
a   472  76  49  26  32
a   472 124   7  36  63
a   476 113  27  55  49
a   476 124  62  58  21
a   476 124   6  32  19
a   476  60   9  51  44
a   476  78  57  32  44
a   476  48  10  12  12
a   476   5  34  50  55
a   476  83  51  11  58
a   476  80  51  36   4
a   476  40  25  26   7
a   476  52  34   8  29
a   476  32  12   6   1
a   476  14   8  33  41
a   476  82  42  49  43
a   476 109  61  38   8
a   476  46  11  26  12
a   480 107  25  34  22
a   480  24  14  47  40
a   480  65  47   4  30
a   480  53  50  44  54
a   480  30  30  20  47
a   480  85  23   6  37
a   480  79  29  21  63
a   480  18  48  27   8
a   480  34  41  19  26
a   480  91   6  50   0
a   480  23  56  29  34
a   480 125   2   5  18
a   480  29  51  60  30
a   480 113  60  15  62
a   480  70  38  43  59
a   480  18   8  32   0
a   484  82  36  49  32
a   484 123   1  46  15
a   484 126  49  19  10
a   484  14  59   5  18
a   484 123  53  46   2
a   484  74  28   7  10
a   484   9  21   6  42
a   484  35   9  28  56
a   484 103  36  60  38
a   484  14  52  10  62
a   484  32  13  17  56
a   484  18  54  57  16
a   484  40  15   7  10
a   484  98  24  29  38
a   484  97  42  31  20
a   484  88  29  18  45
a   488 116  44   4   2
a   488  43   9  28  62
a   488 127  32  43  51
a   488  74  25   8  42
a   488  22  13   4  54
a   488  71  52  55   3
a   488  65  57  16  40
a   488 118  24  28  60
a   488 115  21  20  25
a   488   7  41  26  57
a   488  85  43  24  27
a   488  95  12  40   6
a   488  20  25  38   5
a   488  82  57  15  17
a   488  76   9  37  63
a   488   2   6  17  19
a   492  87  18  10  36
a   492  66  26  62  12
a   492  40  15  38  33
a   492  28  42   8   2
a   492 107  44  40  21
a   492  99  49  59  13
a   492  59  52  47  10
a   492  86  32   8  23
a   492 122   6  46  34
a   492  78  14   0  30
a   492 127   7  20  37
a   492 110  50  36  48
a   492  28  40  30  40
a   492  46  21   7  37
a   492 116   8  38  35
a   492 102  48  50  20
a   496  93  63  32  27
a   496  83  29  31  61
a   496  24  29   5  53
a   496  93  62   8  55
a   496   2  23  24  41
a   496 107   8  48   5
a   496 101  57  46  63
a   496  13   2  51  53
a   496   5  57  57  30
a   496 117  25  57  36
a   496  44  40   0   7
a   496  67  19   8  46
a   496  56  48  11  53
a   496  11  43  53   9
a   496  85  49  41  62
a   496  27  59  26  20
a   500  13  35  50   2
a   500  28  37  36  33
a   500  13  23  45  48
a   500  55  17  41  37
a   500   1  45  38  49
a   500  97  26  31   1
a   500  37  51  32  25
a   500 125  41  38  42
a   500  94  59  10  21
a   500  75  60   5  19
a   500  20  50  32  48
a   500  75  38   5  63
a   500  99  52  48  32
a   500  49  34  11  40
a   500  33  17   3  35
a   500  19  50  36  32
a   504  59  52  12  45
a   504  14   8  26  25
a   504  74  56  17  41
a   504  57  48  42  20
a   504  52  29   7   5
a   504  70  40  60  11
a   504  38  53  40  25
a   504  37  34  12  19
a   504  42  23  39  59
a   504  58  28  55  39
a   504  90  10   4   1
a   504  69  51  44  63
a   504  64   5  51  55
a   504  66   5  10  10
a   504  52  23  33  37
a   504  65  24  12  59
a   508  87  29  32  17
a   508  40  12  48  42
a   508 103  58  33  12
a   508  11  37  42  40
a   508  52  61   1  49
a   508  47  44  61  11
a   508  56  18  20   7
a   508  10   4  59  11
a   508 105   1  56  15
a   508  93   5  27  25
a   508  22  32  61  28
a   508 104  55   8  29
a   508  55  60  17   9
a   508 107  18  15  13
a   508  67  58   0  23
a   508  70  57  36  42
a   512  72  30  42   9
a   512  14  60  12  52
a   512 115   4  21   1
a   512  90  23   6  46
a   512 123  16  23  57
a   512 122  44  30   2
a   512  37  45   3   4
a   512  91  45  13   7
a   512  71   3   2  57
a   512  92   5  51   7
a   512  23   6  14  19
a   512  40  31  30  26
a   512  17  61  62  24
a   512  46  13  28  40
a   512  21  15  38   5
a   512  84  59  26  56
a   516   7   0  33  25
a   516  52  26  50  31
a   516  58  36  38  11
a   516  94  12  13  47
a   516  33  21  39  56
a   516  39   2  10  14
a   516 118  23  53  21
a   516  81   7  13  39
a   516   8  37  11  11
a   516 115  48  14  45
a   516  78  48  14  11
a   516  16  42  20  22
a   516  32  60  47  16
a   516   4  15  61  59
a   516   4  61  14  46
a   516  28   1   5   8
a   520  23  15  34  14
a   520  84  16  31   3
a   520  32  31   5  56
a   520  15  38  17  27
a   520  29  11  40   1
a   520  61  12  27  10
a   520 102  55  45  48
a   520  99  60  49  50
a   520 125   0  36  40
a   520 109  53  39  31
a   520  38  24  48  57
a   520  83   6  30  14
a   520  26  63  36  15
a   520  99  49  23  56
a   520  40  49  36  63
a   520  16  25  14  53
a   524  27  40  38  56
a   524  83  20  19  62
a   524  63  45  29  36
a   524  68  28  10  55
a   524  27  27  20  37
a   524  86  52  60  27
a   524 103  35  58  54
a   524 122  50  20   1
a   524  61  25  26   9
a   524  74  28   8  33
a   524  77  60  61  54
a   524  26  26  40  10
a   524 120  17  33   0
a   524   3  26  20  44
a   524 105  20  35  41
a   524  25  23  22  20
a   528  80  12  60  56
a   528 100  27  60  35
a   528  46  51  12  37
a   528  82  37  56   8
a   528  95   4  17   2
a   528  79  51  62  33
a   528 102  44  50  32
a   528  91  41  29  51
a   528  92  13  17  13
a   528  37  63  61  61
a   528  67   1  54  39
a   528   3   7  33  26
a   528  86  60  17  50
a   528 113   2  36  13
a   528  24  16  38  50
a   528  70   7  24  44
a   532  91  62  10  31
a   532  87  16  53  29
a   532   9  44  35  43
a   532 100   7   0   9
a   532   6  50  42  52
a   532  85   5  20  25
a   532  92  15   3   4
a   532  55  54   8  46
a   532  53  12  29  25
a   532  10  12  33  18
a   532  70  18   9  29
a   532  48  62  23  42
a   532  63  34  15  60
a   532  48  60  56  21
a   532  18  33   8  38
a   532  19  49  26  45
a   536  48  62  45  48
a   536 101  15  42  31
a   536  22  51  50  29
a   536  27  50   1  11
a   536  20   0  36  55
a   536  55  57  41  57
a   536  17  39  40  39
a   536 101  48  63   5
a   536  19  32   3  29
a   536  70  10  14  13
a   536 104  11   2  59
a   536  21  56  23  12
a   536  92  25  37  49
a   536  15  60  35  51
a   536  41  55  33   4
a   536  31  30   3  14
a   540 120  12  53  61
a   540  10   5  58  27
a   540  34  44  27  16
a   540  38  47   6  37
a   540  82  15  55  26
a   540  25   4  15  41
a   540  75  17  12  60
a   540   2  48  58  44
a   540  55  36  54  50
a   540 123  19   8  24
a   540  49  27  54   5
a   540  55  41  56  61
a   540  31  13  58  39
a   540  55  46  51  42
a   540  85  48  24   2
a   540  32  18  23  25
a   544  56   3  11  34
a   544  37   1  27  37
a   544 116   3   8  58
a   544 116  52  31  25
a   544  68  45  30  43
a   544  46  52  21  55
a   544 127   0  63  47
a   544  48  18  49  59
a   544  76   1  11  56
a   544  51  41  20  44
a   544 121  11  27  36
a   544 108  13  52  57
a   544  66  44   0  15
a   544   7   1  43  56
a   544  93  41  42  43
a   544   2  27   7  40
a   548 115  35  35  58
a   548  82  51  20  37
a   548  65  58  22  38
a   548  84  34  29  63
a   548  48  44  20   9
a   548  92  34   1  25
a   548  36  41  55  21
a   548  38  19   6   1
a   548  16  57  63   1
a   548 110  61  20  46
a   548  11  59  49  53
a   548   8  47  61  45
a   548 120  59  32  26
a   548 106  63  62  42
a   548 105  37   4   2
a   548  94  47  47  30
a   552  96  53  45   4
a   552  82  53  48  55
a   552  28  30  16  46
a   552 100  36  13  28
a   552 124  44   0  16
a   552  51  36   2  11
a   552   9  30  42  18
a   552  23  12   3  16
a   552  20  49   3  19
a   552  84  36  50   7
a   552  26  12  45   4
a   552 124   4   9  41
a   552  86  31  16  49
a   552  83  60  25  23
a   552 111   0  63  30
a   552  49  11  48  26
a   556  44  36  16  55
a   556  39  50  37  20
a   556  64  14  12  46
a   556  53  63  56  30
a   556  20  43  55  18
a   556  51  62  54  41
a   556  32  30  20  53
a   556  32  44  30   7
a   556  51   1  12   8
a   556  20  51  42  34
a   556  42  50   4  19
a   556  89  31  39  46
a   556  22  16  51  12
a   556  27  49  32   0
a   556  24  21  58   0
a   556  84  53  40  23
a   560  18  31  50  30
a   560  54   6  54  49
a   560  52  44  27  26
a   560  17  12  18  40
a   560  69  54   2  50
a   560  35   8  53   3
a   560  29  15  59  23
a   560  19  14  32  37
a   560  70  20  61  46
a   560  34  14  56   5
a   560   0  34  17  12
a   560  94  51  27  34
a   560 115  58  43  16
a   560  57  30   9  29
a   560  69  40  38  57
a   560  99  40  54  49
a   564 105  24  13  18
a   564  45  56  32   5
a   564  88  23  27  51
a   564  33  25  28  20
a   564  36   1  40   4
a   564  65  61  28  19
a   564  76  42   2  26
a   564  51  11   6   2
a   564  37  22  26   9
a   564  68   2  27   2
a   564  25  54   0  45
a   564  19  52   9  15
a   564  10  60  21  60
a   564  26  37  38  17
a   564   6  27  63  25
a   564  87  33  29  28
a   568 125  10  30  33
a   568  68  35  16  27
a   568 106   6  14   5
a   568  19  62  36  61
a   568  18  37  14  19
a   568  35  21  39  14
a   568 106   5  26  54
a   568  40  19  11  40
a   568 111  26  51   2
a   568   5  60  43  57
a   568  46  48  45  37
a   568  67  63   6  53
a   568  85   0  46  44
a   568  85   3  12   5
a   568  14  53  49  41
a   568 115  11  60  55
a   572  53  30  40  18
a   572 100  10   7  19
a   572   9  43  45   8
a   572  98  22  21  33
a   572  23  27  44  19
a   572  54  10  13  23
a   572  30  47  18  45
a   572 111  38  34  16
a   572  13  48  54   2
a   572  57  26   3  39
a   572 106   2  28  37
a   572  20  34  50  37
a   572 100  43  44  53
a   572 113  29  60  26
a   572 112  37  46   4
a   572 122  52   3  44
a   576  17  27  42  60
a   576  23  16  28  12
a   576 120  58  12  51
a   576  46  40  52  37
a   576  49  58  49  46
a   576 112  37   1  61
a   576  74  14  60  48
a   576  16  33  45  10
a   576  53  14   0  35
a   576  37  26  42  35
a   576  31  14  13  39
a   576  50  30   2  24
a   576 116  28   3  11
a   576  44  30  19   2
a   576  61   3  40  38
a   576   1   7   0  10
a   580  78  55  52  20
a   580 114   5  27  12
a   580 119  17  20  54
a   580 124  53  44  60
a   580 108  36  48  41
a   580  82  10  63  18
a   580  92   4   4  18
a   580  95  34  40  29
a   580 123  27  57  11
a   580   8  29  54   9
a   580  56  49  34  16
a   580  77  26   6  33
a   580  54  26  57   9
a   580  84  59  20  41
a   580 110  27  25  62
a   580  86   6   0  53
a   584  74   5  39  63
a   584  31  52   2  38
a   584  67   3  13  34
a   584  79  46  28  52
a   584  43  13  16   2
a   584  38  30  48  25
a   584  15  42  30  62
a   584  34   0  17   5
a   584  87  57   8  57
a   584   3  62   0   6
a   584 118  20   2  52
a   584  55  14  45  13
a   584   9   5  61  34
a   584 122  16  50   9
a   584  85  57  54   6
a   584  10   1  56  60
a   588  66   7  55   8
a   588  57  42  25   8
a   588  60  32  52  45
a   588  90  53  25  39
a   588 122  46  21  55
a   588  83  21  35  47
a   588 120  21  32  44
a   588  25  25  13  43
a   588  15  26  53  38
a   588   6  22  32  41
a   588  83  38  36  58
a   588  68  33  52  11
a   588  38  13  26  29
a   588 123  30   5  21
a   588   7   3   0  43
a   588  40  38  15  59
a   592  32  18  37  61
a   592  51  27  14  17
a   592  47  59  56  26
a   592  66   0  19  59
a   592  20  32  32   1
a   592  82  26  49  50
a   592  55  44  51  22
a   592 114   4  18   9
a   592  95   7  10  55
a   592  89   7  53  45
a   592   0  63  10  21
a   592 116  52   4  25
a   592  76   7  32  26
a   592  42  47   5  40
a   592  66  48  43  51
a   592  30  19   1  54
a   596  32  50  50   0
a   596  33  24  46  45
a   596  61  32  61  15
a   596  73  38  27  24
a   596 123  21  58  54
a   596 109  36   1  54
a   596 111  11  60   7
a   596  54  57  43  51
a   596  12  36   9  48
a   596 105  45  18  13
a   596  99  61  58   9
a   596  83  59  25  52
a   596   2  24  42  25
a   596  36   9  40  34
a   596  23  18  42   8
a   596  21  36  23  42
a   600  80   9   2  56
a   600   9   7  45  35
a   600  10  10  41  11
a   600  80   6  47   1
a   600  24  60   9  33
a   600  58   9  11  14
a   600   5  37  30  46
a   600   0  59  45  12
a   600  36  40  31  10
a   600 126  42  47  31
a   600  16  37  20  39
a   600  35  45  21  59
a   600  16  34  18  54
a   600  13  22  51  57
a   600  17  44  15   3
a   600 107   9   0  61
a   604   8  51  48  45
a   604 114  25  20   2
a   604  35  21   9  53
a   604  96  15  58  36
a   604 111   1  12  20
a   604  67  10   6  22
a   604   0  29  62  60
a   604   8  22  44  15
a   604   4  23   7  54
a   604  10  22  29  46
a   604  83  27  12   5
a   604  98  23  57  17
a   604 112  16  39  54
a   604  75  15  30  29
a   604  72  45  36  33
a   604  30  15  21  30
a   608  97  50  49  26
a   608  66  62  48   6
a   608   5  32   5   8
a   608  27  37  13  16
a   608 113   3  47  61
a   608  84  40  35  40
a   608  19  54  46  54
a   608 116   4  54  35
a   608  72  46  28  32
a   608  94  13  46  47
a   608  63  12  55  53
a   608  49  50  53  47
a   608  39   1   7   4
a   608  63  52  26  14
a   608  68  14  43  30
a   608   6  50  63  21
a   612  23  48  46  30
a   612 116  38  61  57
a   612  27  45  43  13
a   612 112   2  16  22
a   612 124  46  37  27
a   612 109   6   4  51
a   612 115  23  57  56
a   612  55  28   5  33
a   612  49  36  22  30
a   612  40  55   0  14
a   612  72  42  59  16
a   612  72  42  33  15
a   612  74  49  62  35
a   612  94  13  36  55
a   612  63  36  55  37
a   612 118  12  62  20
a   616 109   5  45  46
a   616  53   6  53   3
a   616  45  14  57  48
a   616  23   7  40  44
a   616  82  21  35  13
a   616  92  38  10  40
a   616  15  41  11  32
a   616  45  50   6  25
a   616 114  12  13  43
a   616  71  30  39  35
a   616  91  14  41  32
a   616  86  20  16   8
a   616 105  63   7   2
a   616 107  53  48  24
a   616  19   1  52  63
a   616  46   0  62  62
a   620  88   8   5   5
a   620 112  25  36  53
a   620  41  48  17  21
a   620  28  36   9  43
a   620  79  15  52  61
a   620 116  33  18  60
a   620  87  20  12  41
a   620 119  59  29  54
a   620  34  18  53   8
a   620  71  44  22  42
a   620  62   5  36  27
a   620  17  43  56  41
a   620  37  50   7  37
a   620  71  17   3  59
a   620  38  47   6  36
a   620  65   4  35  40
a   624 110  19   4  15
a   624 127  25  36  60
a   624   5  16  23  57
a   624  83  12  35   3
a   624 103   5  61  62
a   624 107  48   5  30
a   624  46  22  56  28
a   624  88   8   0  26
a   624  75  23  32  60
a   624  89  40   9   6
a   624  70  22  13  56
a   624  97   5  26  47
a   624   0  24  21   5
a   624  65   4   4  53
a   624  73  58  62  28
a   624 126  16  21  54
a   628  86  53  50  17
a   628   8  24  41  59
a   628  90  24  49  57
a   628  13  22  18  41
a   628 120  45   6  42
a   628  11  54  45   7
a   628  34  32  36  15
a   628  80   2   5  44
a   628   1  36  29  39
a   628  35  63  33   1
a   628 116  24  40  31
a   628  12   7  15  12
a   628  75  60  20  56
a   628 104  41  36  18
a   628  28   0   0  53
a   628  21  63  41  20
a   632 100   8  39  16
a   632 118  24  11   9
a   632  90  13  32  44
a   632  16  36  52  51
a   632  24  11  45   9
a   632 119  41  25  38
a   632   3  63  23   0
a   632 117  27  49  59
a   632  46  50  53   0
a   632  28  18   2  30
a   632  86   7   7  45
a   632 109  31  59  60
a   632  78  55  48  53
a   632  14   5  19   6
a   632 111  53  45  50
a   632  90  51  49   1
a   636   1  31   8  42
a   636   8  43  42   5
a   636  20  56  44  46
a   636 123  17  37   3
a   636  57  57  29  16
a   636  71  25  11  12
a   636  88  40   6  44
a   636  39  42  61  28
a   636 117  32  55  25
a   636  83  63  28  31
a   636  64  31  42  44
a   636  32  46  22  32
a   636  26  32   7  21
a   636  76  25  13  40
a   636  30  40  43  61
a   636  77   0  19  20
a   640  24  40  57  15
a   640   3  49  52  37
a   640  68  59  34  62
a   640  50  31   3  61
a   640 111   0  58  63
a   640  36   4  15  31
a   640   0  32  42  49
a   640  70  42  61  32
a   640 114  59  11  61
a   640  96  19  33  15
a   640  24  27  21  19
a   640  18   6   4  15
a   640  51  18  14  12
a   640 111  52   0  47
a   640   5  22  17  27
a   640  88  29  44   6
a   644  34  47  47  47
a   644  14  54   7  61
a   644 100  37  16  10
a   644  65  30   3  12
a   644 107   4  39  54
a   644  39  62  24  22
a   644  50  48  12  44
a   644   5  18  28  48
a   644 120   2  51  11
a   644  78  58  29   6
a   644 105  37  62  32
a   644  22  51  20  59
a   644  46   6   6  57
a   644 119   2  59  20
a   644  84  56  15  19
a   644  49  23  20  27
a   648  46   8   2  35
a   648 114  54  50   0
a   648  44  36  26   7
a   648 109  34  14  21
a   648  86   6  52   2
a   648  41  47  14  19
a   648  97  27  13  53
a   648  36  35  60  43
a   648  16  28  55  24
a   648  81  20  29   0
a   648  56  24  41  35
a   648  48  37  33  26
a   648  79  22  63  49
a   648  28  51  17   6
a   648  77  19  33  17
a   648 110  55  49  32
a   652 125  33  37  45
a   652 115  53   4   7
a   652   1  26  12  30
a   652  56   3  53  43
a   652  71  20  15  45
a   652 101  46  62   9
a   652  54   2  45  43
a   652  33  25   1  15
a   652  22  10  25  15
a   652   3  11  31  33
a   652  21  57  23  25
a   652  74  28   6  36
a   652   1   3  42  52
a   652  99  21  56  10
a   652  24  59  35  37
a   652  27  58  16  45
a   656 112  62  44   8
a   656 115  54  13  45
a   656  78  25  11   5
a   656  53  17  51  29
a   656  69  41  30   4
a   656  56  43  52  50
a   656   7   0  23  62
a   656  12  30  63  15
a   656  10  45  21  14
a   656  88  34  45   5
a   656  66  15   8   7
a   656  34  27  53  28
a   656   7   9  19  54
a   656 107  14  13  43
a   656 118   9  12  42
a   656 117   7  54  34
a   660  88   6  18  63
a   660  92  56  61  46
a   660   9  10   8  53
a   660  81  58   9  61
a   660  42  18  30  53
a   660  75  17  32   9
a   660  70  59  46  39
a   660   1  10  14   8
a   660   6  48   8  58
a   660   3  13  44  53
a   660  19  44  54  32
a   660  69  11  62  59
a   660 117   9  59   4
a   660  52  19  20   9
a   660  73  22  51   9
a   660  36  44  62  12
a   664  58  32   3  27
a   664  62   1  33  35
a   664   3   6  63  45
a   664  30  29  25   2
a   664  86  37  14   5
a   664  56  47  32  13
a   664 111   3  40  11
a   664  28  49  28  38
a   664  35  17   3  16
a   664  78  19  26  38
a   664  90  24  36  54
a   664   5  49  12  25
a   664  18  34  34  63
a   664  45  35   8  15
a   664  55   4  51  18
a   664  63  13  45  26
a   668 106  23  61   3
a   668  57   5  16   0
a   668  10   9  38  29
a   668  29  29  15   5
a   668  65  22  10  40
a   668  38  14   3  11
a   668 105   7   0  55
a   668 110  63  15   7
a   668  32  15  57   9
a   668  81   8  29  48
a   668 117  53  36  50
a   668  58   5  31  37
a   668  96   1  53  14
a   668  97  61  57  11
a   668  31  48  14  62
a   668   3   3  10  32
a   672  73  59  34  43
a   672  40  18  16  20
a   672   8  44  12  40
a   672 116   2  56  60
a   672  53  28  26  51
a   672 101  36  53  38
a   672  17  63   4  35
a   672  33  34  63  60
a   672  48  37   6  29
a   672 121  37  51  26
a   672  79   8  36  27
a   672  20  24  32  63
a   672  54  22   1  46
a   672  45  63  14  48
a   672 114  21  53  21
a   672  74  16  35  55
a   676  95   5  28  47
a   676 117  30  35   5
a   676  80  37   4  46
a   676  33  48  10  45
a   676  12   3   1  54
a   676 101  34  63  41
a   676  76  24  63  55
a   676  44  20  35  62
a   676  90  27  57  39
a   676 122  56  22  24
a   676 115  41  46  13
a   676  87  40  33  25
a   676  29  43   8  52
a   676  77   9  17  28
a   676  94  56  32  63
a   676  55  23  10  46
a   680  37  32   6  60
a   680  67  42  26  34
a   680  60  51   2  45
a   680 104  45  38   3
a   680 125  11  22  24
a   680  39   5  46   6
a   680 119  48  28   0
a   680  20  27  27   1
a   680  28  45  20  15
a   680  56  45  51  10
a   680 119  29  59   5
a   680  21  52  56  23
a   680 117   8  58  36
a   680  80  14   6  38
a   680   8  62  30  35
a   680  20  47  23  32
a   684  57  13  53  38
a   684  83  11  21  61
a   684  83  22  61  34
a   684 115   5   8  36
a   684 107  50  30  50
a   684  94   5  47  55
a   684  62   2  32  28
a   684  59   0  34   0
a   684  67  49  57  20
a   684 105  62  43   7
a   684  56  17  28  28
a   684  17  50   1   2
a   684  98  22  29  63
a   684  33  56  28  29
a   684   0  24  34  23
a   684  61  16  15  52
a   688  38  53  14   4
a   688 112  12  27  59
a   688 126  46  38   4
a   688  98   7  44  55
a   688  26  19  19   9
a   688  11  34   4  50
a   688  50  38  35  56
a   688  94  54  50  36
a   688  67   7  41  39
a   688  86  17  10  44
a   688  30  53  49   0
a   688   1  32  40  14
a   688  70  34  42  18
a   688  70   6  51  24
a   688  24   0  59   1
a   688  35  28  54  11
a   692  79  52  31  48
a   692  72   3  19  31
a   692  96  29  37  60
a   692   1   2  45  17
a   692  39  41   9  11
a   692 123  45  24   1
a   692  34  36  21  47
a   692 121  45  17  56
a   692   6  13  44  23
a   692  50   1  49   5
a   692   7  14   1  57
a   692 126  57  58  18
a   692  68  61  61  21
a   692  61   4  30  22
a   692  64  43  32  44
a   692  95  18  16  63
a   696  38  19  27  12
a   696 121  37  36  39
a   696  33  32   3  39
a   696 123  10   5  30
a   696 118   8  62  13
a   696  42  19  58  41
a   696   5  16  54  12
a   696  55  10   3   4
a   696  54  60  40  17
a   696  63  58  30  20
a   696   0  35  48  37
a   696  85  33  62  29
a   696  54  11  55   6
a   696  44  47  43  15
a   696 111  46  58   5
a   696 125  48  41  14
a   700   5  36  14  31
a   700  17  18  10  31
a   700  88  55  34  12
a   700 103  45  22  47
a   700  16   7  29  32
a   700  49  19  10  56
a   700  50  49  50  37
a   700  27  16  40  39
a   700  49  54  48  17
a   700  87  50   9  51
a   700 126  41  10  18
a   700  94  10  41  36
a   700  41  23  58   2
a   700  91  44  29  27
a   700  17  24  46   0
a   700  12  36  13   0
a   704 125  34  29  13
a   704  85  17  33  23
a   704   0  19  12  22
a   704  92  22  15   0
a   704  98  22  27   4
a   704  72  37  51   3
a   704  92  10  38  34
a   704  98  45   5  21
a   704 111  18  44  38
a   704  82  59  39  23
a   704 106  31   2  63
a   704  15  23   9  13
a   704  32  61  13  56
a   704 122  40  47  21
a   704 104   3   7   4
a   704  39  21  59  51
a   708  31  40  33  14
a   708  34  49  56   7
a   708  75  37  50  25
a   708  78  21   1  58
a   708  50  62  36   8
a   708  28  32  16  30
a   708  24   0  29  54
a   708  19  24  29  36
a   708 109   5  37  12
a   708  89  16  27  23
a   708  26  51  50  30
a   708  53  21   3  37
a   708  92  47  36  62
a   708  75   2  18  12
a   708  73  39  17  43
a   708  58  42  44  52
a   712  38  21  23  19
a   712  34  16   8   0
a   712  68  51  47   3
a   712  69   5  12  44
a   712 112  35  42  55
a   712  15  15  42  63
a   712  29   0  42  17
a   712 112  31  17  63
a   712 113   9  12  42
a   712  81  15   6  53
a   712  74  55  23   8
a   712  37  45  61  25
a   712  14   5  57   3
a   712  52  51  57  40
a   712  82  21   9   1
a   712 111  11  16   2
a   716 118  50  31  46
a   716  52  59  57  13
a   716  65  39  12   5
a   716 118  24  25  55
a   716  88   0  42  12
a   716 119  45   2  18
a   716 120  47   9  51
a   716  10  50  48   7
a   716  69  24  15  60
a   716 114  46   3  44
a   716  68  55   1  41
a   716 109  59  21  11
a   716  58  59  11  29
a   716  98  16  40  16
a   716  85  19  50  26
a   716  90  34  43  29
a   720  57  13  21  15
a   720  96   3  11   4
a   720 100  28  12  16
a   720 107  19  30  35
a   720  72   2  21  32
a   720   7   9  44  43
a   720   8  61  32  44
a   720 125   6  13  45
a   720  37  50   0  21
a   720 113  61  20  18
a   720  16  36  50  46
a   720  41  26  41   2
a   720  89  10  10  27
a   720  12  23  13  41
a   720 109   9  30   6
a   720  53   4  42   0
a   724  70  28  10  22
a   724  79  50  58  40
a   724  14  23  34  15
a   724   4  10  14  15
a   724  90  58   0   4
a   724  12  36   5   0
a   724  92  45   8   3
a   724 116   6  35  32
a   724  41   8  33  46
a   724  96  24  45  20
a   724  11  62  33  23
a   724  61   2  30   0
a   724  66  39  50  18
a   724 105   3  14  58
a   724  86  51  55   9
a   724 107  61   1  40
a   728  75  61   6  57
a   728  98  46  59   0
a   728  76  19  33  46
a   728  31  30  57  38
a   728   3  61  26  24
a   728  21  57   7  40
a   728 114  31  24  21
a   728 114  57   0  11
a   728 117  51  53  53
a   728  76  59   4   4
a   728 124  46  12   9
a   728  54  34  62  31
a   728 120   5  20  44
a   728  50  44  49  62
a   728  18  49  15  60
a   728  27  21  41  37
