profile	1.0.0	v0.9.0-3385-g9d3d0d85d-dirty-sm_60	cpu_arch=x86_64,gpu_arch=sm_60,cuda_version=10.2.89	# Last updated Wed May 26 03:29:38 2021

  total time	  percentage	       calls	 time / call	          volume	name	aux	comment
     78.0095	     24.7456	      264604	 0.000294816	        8x12x4x4	N4quda12DslashCoarseIfssLi4ELi2ELi24ELi1ELb1ELb0ELb0ELNS_10DslashTypeE2EEE	policy_kernel,GPU-offline,vol=1536,stride=1536,precision=4,order=2,Ns=2,Nc=24,TwistFlavour=1,comm=0011,full,halo=00001111	# 767.75 Gflop/s, 402.13 GB/s, tuning took 1.272420 seconds at Wed May 26 03:01:49 2021
     31.7825	     10.0818	        5214	  0.00609562	16x12x4x4,24x48x24x24	N4quda14RestrictLaunchIfsLi4ELi3ELi2ELi24ELi4EEE	GPU-offline,vol=3072,stride=1536,precision=4,order=2,Ns=2,Nc=24,TwistFlavour=1,vol=663552,stride=663552,precision=4,order=2,Ns=4,Nc=3,TwistFlavour=1	# 250.81 Gflop/s, 136.48 GB/s, tuning took 74.154852 seconds at Wed May 26 03:11:24 2021
     24.3551	     7.72575	       27628	 0.000881536	     24x48x24x24	N4quda27TwistedCloverPreconditionedINS_16TwistedCloverArgIsLi3ELi4EL21QudaReconstructType_s18EEEEE	policy_kernel=interior,comm=0011,commDim=0011,xpay	# 1356.41 Gflop/s, 604.44 GB/s, tuning took 4.251269 seconds at Wed May 26 02:49:43 2021
      23.359	     7.40977	       27628	 0.000845482	     24x48x24x24	N4quda27TwistedCloverPreconditionedINS_16TwistedCloverArgIsLi3ELi4EL21QudaReconstructType_s18EEEEE	policy_kernel=interior,comm=0011,commDim=0011	# 1376.58 Gflop/s, 630.21 GB/s, tuning took 4.104283 seconds at Wed May 26 02:49:16 2021
     16.0949	      5.1055	       10664	  0.00150927	     24x48x24x24	N4quda27TwistedCloverPreconditionedINS_16TwistedCloverArgIfLi3ELi4EL21QudaReconstructType_s18EEEEE	policy_kernel=interior,comm=0011,commDim=0011,xpay	# 792.25 Gflop/s, 673.55 GB/s, tuning took 6.779900 seconds at Wed May 26 02:47:00 2021
     15.1895	      4.8183	       10662	  0.00142464	     24x48x24x24	N4quda27TwistedCloverPreconditionedINS_16TwistedCloverArgIfLi3ELi4EL21QudaReconstructType_s18EEEEE	policy_kernel=interior,comm=0011,commDim=0011	# 816.96 Gflop/s, 713.56 GB/s, tuning took 6.423450 seconds at Wed May 26 02:46:19 2021
     12.2488	     3.88548	       41902	  0.00029232	        8x12x4x4	N4quda12DslashCoarseIfssLi4ELi2ELi24ELi1ELb1ELb0ELb1ELNS_10DslashTypeE2EEE	policy_kernel,GPU-offline,vol=1536,stride=1536,precision=4,order=2,Ns=2,Nc=24,TwistFlavour=1,comm=0011,full,halo=00001111	# 774.31 Gflop/s, 405.56 GB/s, tuning took 1.276562 seconds at Wed May 26 03:07:11 2021
     10.0938	     3.20189	        5214	   0.0019359	24x48x24x24,16x12x4x4	N4quda16ProlongateLaunchIfsLi4ELi3ELi2ELi24ELi1EEE	vol=663552,stride=663552,precision=4,order=2,Ns=4,Nc=3,TwistFlavour=1,vol=3072,stride=1536,precision=4,order=2,Ns=2,Nc=24,TwistFlavour=1	# 789.72 Gflop/s, 429.75 GB/s, tuning took 1.286190 seconds at Wed May 26 03:11:28 2021
     6.68247	     2.11977	      318334	  2.0992e-05	         4x4x2x2	N4quda12DslashCoarseIfssLi4ELi2ELi24ELi1ELb1ELb0ELb0ELNS_10DslashTypeE2EEE	policy_kernel,GPU-offline,vol=64,stride=64,precision=4,order=2,Ns=2,Nc=24,TwistFlavour=1,comm=0011,full,halo=00001111	# 449.27 Gflop/s, 235.32 GB/s, tuning took 0.128292 seconds at Wed May 26 03:08:18 2021
     5.72751	     1.81684	        6772	 0.000845763	     24x48x24x24	N4quda27TwistedCloverPreconditionedINS_16TwistedCloverArgIsLi3ELi4EL21QudaReconstructType_s18EEEEE	policy_kernel=interior,comm=0011,commDim=0011,dagger	# 1376.12 Gflop/s, 630.00 GB/s, tuning took 4.103247 seconds at Wed May 26 02:50:10 2021
     4.89788	     1.55367	        5214	 0.000939371	     24x48x24x24	45N4quda4blas9multiCdotIdfEE	policy_kernel,vol=663552,stride=663552,precision=2,order=4,Ns=4,Nc=3,TwistFlavour=1,nParity=1	# 1356.25 Gflop/s, 847.66 GB/s, tuning took 3.628280 seconds at Wed May 26 03:11:48 2021
     4.72209	     1.49791	        6772	 0.000697296	     24x48x24x24	N4quda6WilsonINS_9WilsonArgIsLi3ELi4EL21QudaReconstructType_s18EEEEE	policy_kernel=interior,comm=0011,commDim=0011,xpay,dagger	# 1277.06 Gflop/s, 643.60 GB/s, tuning took 4.035518 seconds at Wed May 26 02:50:36 2021
     3.77247	     1.19668	        6441	 0.000585696	     24x48x24x24	N4quda4blas15tripleCGUpdate_IfEE	vol=663552,stride=663552,precision=2,order=4,Ns=4,Nc=3,TwistFlavour=1,vol=663552,stride=663552,precision=4,order=4,Ns=4,Nc=3,TwistFlavour=1	# 163.14 Gflop/s, 489.43 GB/s, tuning took 0.029306 seconds at Wed May 26 02:51:08 2021
     3.68704	     1.16958	       10637	 0.000346624	     24x48x24x24	N4quda4blas7axpbyz_IfEE	vol=663552,stride=663552,precision=4,order=4,Ns=4,Nc=3,TwistFlavour=1	# 137.83 Gflop/s, 551.33 GB/s, tuning took 0.047957 seconds at Wed May 26 02:51:08 2021
     3.62903	     1.15118	      306506	   1.184e-05	        8x12x4x4	N4quda24GenericPackGhostLauncherIfLb1ELi2ELi2ELi24ELi2ENS_12PackGhostArgINS_11colorspinor12FieldOrderCBIfLi2ELi24ELi1EL16QudaFieldOrder_s2EfsLb0ELb0EEEEEEE	GPU-offline,vol=1536,stride=1536,precision=4,order=2,Ns=2,Nc=24,TwistFlavour=1,halo_prec=2,comm=0011,topo=1124,order=0,dest=00001111	# 0.00 Gflop/s, 37.36 GB/s, tuning took 0.036214 seconds at Wed May 26 03:01:48 2021
     3.24624	     1.02975	         128	   0.0253612	 bytes=254803968	cudaMemcpyDefault	loadSpinorField,cuda_color_spinor_field.cpp,427	# 0.00 Gflop/s, 10.05 GB/s, tuning took 0.050838 seconds at Wed May 26 03:08:23 2021
     2.81912	    0.894261	       27628	 0.000102038	     24x48x24x24	N4quda27TwistedCloverPreconditionedINS_16TwistedCloverArgIsLi3ELi4EL21QudaReconstructType_s18EEEEE	policy_kernel=exterior_all,commDim=0011,xpay	# 819.37 Gflop/s, 344.66 GB/s, tuning took 0.508122 seconds at Wed May 26 02:49:44 2021
     2.70861	    0.859207	        5214	 0.000519488	     24x48x24x24	41N4quda4blas11multicaxpy_IfEE	vol=663552,stride=663552,precision=2,order=4,Ns=4,Nc=3,TwistFlavour=1,vol=663552,stride=663552,precision=4,order=4,Ns=4,Nc=3,TwistFlavour=1	# 490.49 Gflop/s, 490.49 GB/s, tuning took 0.053811 seconds at Wed May 26 03:11:56 2021
     2.62669	     0.83322	        5214	 0.000503776	     24x48x24x24	N4quda4blas13cabxpyzaxnormIdfEE	vol=663552,stride=663552,precision=4,order=4,Ns=4,Nc=3,TwistFlavour=1,nParity=1	# 316.12 Gflop/s, 505.79 GB/s, tuning took 11.924352 seconds at Wed May 26 03:12:16 2021
     2.59026	    0.821666	        6772	 0.000382496	     24x48x24x24	N4quda11TwistCloverIsLi3EEE	vol=663552,stride=663552,precision=2,order=4,Ns=4,Nc=3,TwistFlavour=1,inverse	# 1831.94 Gflop/s, 444.11 GB/s, tuning took 0.165342 seconds at Wed May 26 02:50:06 2021
     2.58775	    0.820868	       10452	 0.000247584	     24x48x24x24	N4quda15CopyColorSpinorILi4ENS_18CopyColorSpinorArgIffLi4ELi3ENS_11colorspinor11FloatNOrderIfLi4ELi3ELi4ELb0ELb0EEES4_EEEE	out_stride=663552,in_stride=663552,PreserveBasis	# 0.00 Gflop/s, 514.58 GB/s, tuning took 0.016851 seconds at Wed May 26 02:49:12 2021
     2.56762	    0.814483	         128	   0.0200595	 bytes=254803968	cudaMemcpyDefault	saveSpinorField,cuda_color_spinor_field.cpp,481	# 0.00 Gflop/s, 12.70 GB/s, tuning took 0.041236 seconds at Wed May 26 03:15:13 2021
     2.26798	    0.719432	         734	  0.00308988	     24x48x24x24	N4quda27TwistedCloverPreconditionedINS_16TwistedCloverArgIdLi3ELi4EL21QudaReconstructType_s18EEEEE	policy_kernel=interior,comm=0011,commDim=0011,xpay	# 386.98 Gflop/s, 657.99 GB/s, tuning took 10.450672 seconds at Wed May 26 03:13:57 2021
     2.13816	    0.678254	         734	  0.00291303	     24x48x24x24	N4quda27TwistedCloverPreconditionedINS_16TwistedCloverArgIdLi3ELi4EL21QudaReconstructType_s18EEEEE	policy_kernel=interior,comm=0011,commDim=0011	# 399.54 Gflop/s, 697.94 GB/s, tuning took 9.868917 seconds at Wed May 26 03:12:54 2021
     1.97622	    0.626882	      318334	   6.208e-06	         4x4x2x2	N4quda24GenericPackGhostLauncherIfLb1ELi2ELi2ELi24ELi2ENS_12PackGhostArgINS_11colorspinor12FieldOrderCBIfLi2ELi24ELi1EL16QudaFieldOrder_s2EfsLb0ELb0EEEEEEE	GPU-offline,vol=64,stride=64,precision=4,order=2,Ns=2,Nc=24,TwistFlavour=1,halo_prec=2,comm=0011,topo=1124,order=0,dest=00001111	# 0.00 Gflop/s, 5.94 GB/s, tuning took 0.023291 seconds at Wed May 26 03:08:18 2021
     1.54628	    0.490502	       27628	  5.5968e-05	     24x48x24x24	N4quda27TwistedCloverPreconditionedINS_16TwistedCloverArgIsLi3ELi4EL21QudaReconstructType_s18EEEEE	policy_kernel=exterior_z,commDim=0011	# 723.21 Gflop/s, 314.18 GB/s, tuning took 0.274075 seconds at Wed May 26 02:49:17 2021
     1.49337	    0.473718	        2560	 0.000583349	     24x48x24x24	31N4quda4blas11multicaxpy_IfEE	vol=663552,stride=663552,precision=4,order=4,Ns=4,Nc=3,TwistFlavour=1	# 327.60 Gflop/s, 545.99 GB/s, tuning took 0.077356 seconds at Wed May 26 03:12:26 2021
     1.48068	    0.469693	       27628	 5.35936e-05	     24x48x24x24	N4quda27TwistedCloverPreconditionedINS_16TwistedCloverArgIsLi3ELi4EL21QudaReconstructType_s18EEEEE	policy_kernel=exterior_t,commDim=0011	# 755.25 Gflop/s, 328.10 GB/s, tuning took 0.260893 seconds at Wed May 26 02:49:17 2021
     1.30659	    0.414467	        5214	 0.000250592	     24x48x24x24	N4quda15CopyColorSpinorILi4ENS_18CopyColorSpinorArgIffLi4ELi3ENS_11colorspinor11FloatNOrderIfLi4ELi3ELi2ELb0ELb0EEENS3_IfLi4ELi3ELi4ELb0ELb0EEEEEEE	out_stride=663552,in_stride=663552,RelBasis	# 0.00 Gflop/s, 508.40 GB/s, tuning took 0.018029 seconds at Wed May 26 03:10:10 2021
     1.29641	    0.411238	        5214	  0.00024864	     24x48x24x24	N4quda15CopyColorSpinorILi4ENS_18CopyColorSpinorArgIffLi4ELi3ENS_11colorspinor11FloatNOrderIfLi4ELi3ELi4ELb0ELb0EEENS3_IfLi4ELi3ELi2ELb0ELb0EEEEEEE	out_stride=663552,in_stride=663552,NonRelBasis	# 0.00 Gflop/s, 512.40 GB/s, tuning took 0.018859 seconds at Wed May 26 03:11:28 2021
     1.28715	    0.408301	        6772	 0.000190069	     24x48x24x24	N4quda4blas18tripleCGReduction_IdfEE	vol=663552,stride=663552,precision=2,order=4,Ns=4,Nc=3,TwistFlavour=1,nParity=1	# 502.72 Gflop/s, 502.72 GB/s, tuning took 9.101329 seconds at Wed May 26 02:51:08 2021
     1.19393	    0.378732	        1024	  0.00116595	     24x48x24x24	81N4quda4blas11multicaxpy_IfEE	vol=663552,stride=663552,precision=4,order=4,Ns=4,Nc=3,TwistFlavour=1	# 437.07 Gflop/s, 546.34 GB/s, tuning took 0.156028 seconds at Wed May 26 03:12:44 2021
     1.17861	    0.373872	        5214	 0.000226048	     24x48x24x24	N4quda4blas9CdotNormAIdfEE	vol=663552,stride=663552,precision=4,order=4,Ns=4,Nc=3,TwistFlavour=1,nParity=1	# 422.70 Gflop/s, 563.61 GB/s, tuning took 7.879807 seconds at Wed May 26 03:12:04 2021
     1.02639	    0.325585	        1024	  0.00100234	     24x48x24x24	18N4quda4blas9multiCdotIdfEE	policy_kernel,vol=663552,stride=663552,precision=4,order=4,Ns=4,Nc=3,TwistFlavour=1,nParity=1	# 508.42 Gflop/s, 1016.84 GB/s, tuning took 3.856054 seconds at Wed May 26 03:12:44 2021
     1.02507	    0.325166	       17685	 5.79627e-05	8x4x2x2,8x12x4x4	N4quda14RestrictLaunchIfsLi2ELi24ELi2ELi24ELi2EEE	GPU-offline,vol=128,stride=64,precision=4,order=2,Ns=2,Nc=24,TwistFlavour=1,vol=1536,stride=1536,precision=4,order=2,Ns=2,Nc=24,TwistFlavour=1	# 244.22 Gflop/s, 133.24 GB/s, tuning took 0.994307 seconds at Wed May 26 03:11:25 2021
     1.00252	    0.318012	        5423	 0.000184864	     24x48x24x24	N4quda15CopyColorSpinorILi4ENS_18CopyColorSpinorArgIsfLi4ELi3ENS_11colorspinor11FloatNOrderIsLi4ELi3ELi4ELb0ELb0EEENS3_IfLi4ELi3ELi4ELb0ELb0EEEEEEE	out_stride=663552,in_stride=663552,PreserveBasis	# 0.00 Gflop/s, 531.23 GB/s, tuning took 0.013193 seconds at Wed May 26 02:49:12 2021
    0.878475	    0.278664	       10664	 8.23776e-05	     24x48x24x24	N4quda27TwistedCloverPreconditionedINS_16TwistedCloverArgIfLi3ELi4EL21QudaReconstructType_s18EEEEE	policy_kernel=exterior_z,commDim=0011,xpay	# 507.47 Gflop/s, 402.75 GB/s, tuning took 0.337520 seconds at Wed May 26 02:47:00 2021
    0.853796	    0.270835	      194280	 4.39467e-06	        8x12x4x4	N4quda4blas7axpbyz_IfEE	vol=1536,stride=1536,precision=4,order=2,Ns=2,Nc=24,TwistFlavour=1	# 100.66 Gflop/s, 402.64 GB/s, tuning took 0.000985 seconds at Wed May 26 03:07:09 2021
    0.830112	    0.263322	        1024	 0.000810656	     24x48x24x24	31N4quda4blas11multicaxpy_IdEE	vol=663552,stride=663552,precision=4,order=4,Ns=4,Nc=3,TwistFlavour=1,vol=663552,stride=663552,precision=8,order=2,Ns=4,Nc=3,TwistFlavour=1	# 235.74 Gflop/s, 550.06 GB/s, tuning took 0.054040 seconds at Wed May 26 03:12:44 2021
    0.828516	    0.262816	       10664	 7.76928e-05	     24x48x24x24	N4quda27TwistedCloverPreconditionedINS_16TwistedCloverArgIfLi3ELi4EL21QudaReconstructType_s18EEEEE	policy_kernel=exterior_t,commDim=0011,xpay	# 538.07 Gflop/s, 427.04 GB/s, tuning took 0.314887 seconds at Wed May 26 02:47:00 2021
    0.798507	    0.253297	       10662	 7.48928e-05	     24x48x24x24	N4quda27TwistedCloverPreconditionedINS_16TwistedCloverArgIfLi3ELi4EL21QudaReconstructType_s18EEEEE	policy_kernel=exterior_z,commDim=0011	# 540.46 Gflop/s, 443.00 GB/s, tuning took 0.336584 seconds at Wed May 26 02:46:20 2021
    0.775545	    0.246013	       10662	 7.27392e-05	     24x48x24x24	N4quda27TwistedCloverPreconditionedINS_16TwistedCloverArgIfLi3ELi4EL21QudaReconstructType_s18EEEEE	policy_kernel=exterior_t,commDim=0011	# 556.46 Gflop/s, 456.12 GB/s, tuning took 0.322829 seconds at Wed May 26 02:46:19 2021
    0.727821	    0.230874	        1024	 0.000710763	     24x48x24x24	21N4quda4blas11multicaxpy_IdEE	vol=663552,stride=663552,precision=4,order=4,Ns=4,Nc=3,TwistFlavour=1,vol=663552,stride=663552,precision=8,order=2,Ns=4,Nc=3,TwistFlavour=1	# 179.25 Gflop/s, 537.74 GB/s, tuning took 0.047093 seconds at Wed May 26 03:12:44 2021
     0.71964	    0.228279	        1024	 0.000702773	     24x48x24x24	41N4quda4blas11multicaxpy_IfEE	vol=663552,stride=663552,precision=4,order=4,Ns=4,Nc=3,TwistFlavour=1	# 362.57 Gflop/s, 543.85 GB/s, tuning took 0.095470 seconds at Wed May 26 03:12:29 2021
    0.706088	    0.223981	       15716	  4.4928e-05	        8x12x4x4	N4quda12DslashCoarseIfssLi4ELi2ELi24ELi1ELb0ELb1ELb0ELNS_10DslashTypeE2EEE	policy_kernel,GPU-offline,vol=1536,stride=1536,precision=4,order=2,Ns=2,Nc=24,TwistFlavour=1,comm=0011,full,halo=00001111	# 626.87 Gflop/s, 341.33 GB/s, tuning took 0.177216 seconds at Wed May 26 03:01:49 2021
    0.694195	    0.220208	      176850	 3.92533e-06	         4x4x2x2	N4quda4blas7axpbyz_IfEE	vol=64,stride=64,precision=4,order=2,Ns=2,Nc=24,TwistFlavour=1	# 4.70 Gflop/s, 18.78 GB/s, tuning took 0.000893 seconds at Wed May 26 03:11:25 2021
    0.690422	    0.219011	       35370	   1.952e-05	        8x12x4x4	32N4quda4blas9multiCdotIdfEE	policy_kernel,vol=1536,stride=1536,precision=4,order=2,Ns=2,Nc=24,TwistFlavour=1,nParity=1	# 181.30 Gflop/s, 241.73 GB/s, tuning took 0.064804 seconds at Wed May 26 03:11:24 2021
       0.665	    0.210947	        6772	 9.81984e-05	     24x48x24x24	N4quda27TwistedCloverPreconditionedINS_16TwistedCloverArgIsLi3ELi4EL21QudaReconstructType_s18EEEEE	policy_kernel=exterior_all,commDim=0011,dagger	# 824.39 Gflop/s, 358.13 GB/s, tuning took 0.490016 seconds at Wed May 26 02:50:11 2021
    0.659474	    0.209194	         256	  0.00257607	     24x48x24x24	N4quda6WilsonINS_9WilsonArgIdLi3ELi4EL21QudaReconstructType_s18EEEEE	policy_kernel=interior,comm=0011,commDim=0011,xpay	# 345.68 Gflop/s, 665.59 GB/s, tuning took 11.547407 seconds at Wed May 26 03:08:58 2021
    0.654314	    0.207557	       45846	  1.4272e-05	        8x12x4x4	N4quda10CopySpinorIffLi2ELi24ENS_11colorspinor12FieldOrderCBIfLi2ELi24ELi1EL16QudaFieldOrder_s2EffLb0ELb0EEES4_EE	vol=1536,stride=1536,precision=4,order=2,Ns=2,Nc=24,TwistFlavour=1	# 0.00 Gflop/s, 82.65 GB/s, tuning took 0.001385 seconds at Wed May 26 03:07:11 2021
    0.622897	    0.197591	        5474	 0.000113792	  bytes=63700992	cudaMemsetAsync	zero,cuda_color_spinor_field.cpp,332	# 0.00 Gflop/s, 559.80 GB/s, tuning took 0.000540 seconds at Wed May 26 02:45:20 2021
    0.574409	     0.18221	       17685	   3.248e-05	8x12x4x4,8x4x2x2	N4quda16ProlongateLaunchIfsLi2ELi24ELi2ELi24ELi1EEE	vol=1536,stride=1536,precision=4,order=2,Ns=2,Nc=24,TwistFlavour=1,vol=128,stride=64,precision=4,order=2,Ns=2,Nc=24,TwistFlavour=1	# 435.83 Gflop/s, 237.78 GB/s, tuning took 0.038395 seconds at Wed May 26 03:11:26 2021
    0.563464	    0.178738	       55256	 1.01973e-05	     24x48x24x24	N4quda4PackIsLi3ELb1EEE	policy_kernel,vol=663552,stride=663552,precision=2,order=4,Ns=4,Nc=3,TwistFlavour=1,comm=0011,topo=1124,order=0,nFace=1,device-device	# 65.07 Gflop/s, 433.81 GB/s, tuning took 0.344707 seconds at Wed May 26 02:49:12 2021
    0.527689	     0.16739	         734	 0.000718923	     24x48x24x24	N4quda4blas11axpbyzNorm2IddEE	vol=663552,stride=663552,precision=8,order=2,Ns=4,Nc=3,TwistFlavour=1,nParity=1	# 88.61 Gflop/s, 531.64 GB/s, tuning took 18.995482 seconds at Wed May 26 03:15:10 2021
    0.492844	    0.156337	          26	   0.0189555	16x12x4x4,48x48x24x24	N4quda14RestrictLaunchIfsLi4ELi3ELi2ELi24ELi4EEE	GPU-offline,vol=3072,stride=1536,precision=4,order=2,Ns=2,Nc=24,TwistFlavour=1,vol=1327104,stride=663552,precision=4,order=2,Ns=4,Nc=3,TwistFlavour=1	# 161.31 Gflop/s, 87.72 GB/s, tuning took 68.361298 seconds at Wed May 26 03:01:07 2021
     0.48455	    0.153706	       58016	   8.352e-06	        8x12x4x4	21N4quda4blas11multicaxpy_IfEE	vol=1536,stride=1536,precision=4,order=2,Ns=2,Nc=24,TwistFlavour=1	# 141.24 Gflop/s, 282.48 GB/s, tuning took 0.001615 seconds at Wed May 26 03:11:24 2021
    0.472187	    0.149784	        1024	  0.00046112	     24x48x24x24	21N4quda4blas11multicaxpy_IfEE	vol=663552,stride=663552,precision=4,order=4,Ns=4,Nc=3,TwistFlavour=1	# 276.29 Gflop/s, 552.58 GB/s, tuning took 0.062145 seconds at Wed May 26 03:12:22 2021
     0.45755	    0.145141	         512	 0.000893653	     24x48x24x24	17N4quda4blas9multiCdotIdfEE	policy_kernel,vol=663552,stride=663552,precision=4,order=4,Ns=4,Nc=3,TwistFlavour=1,nParity=1	# 498.97 Gflop/s, 997.94 GB/s, tuning took 3.660907 seconds at Wed May 26 03:12:40 2021
    0.453243	    0.143775	         384	  0.00118032	     24x48x24x24	N4quda11TwistCloverIdLi3EEE	vol=663552,stride=663552,precision=8,order=2,Ns=4,Nc=3,TwistFlavour=1,inverse	# 593.66 Gflop/s, 539.69 GB/s, tuning took 0.347258 seconds at Wed May 26 03:08:46 2021
    0.431076	    0.136743	           1	    0.431076	     48x48x24x24	N4quda10BlockOrthoIdssLi4ELi2ELi3ELi2ELi24EEE	GPU-offline,vol=1327104,stride=663552,precision=2,order=2,Ns=4,Nc=72,TwistFlavour=1,block_size=3x4x6x6,n_block_ortho=1	# 163.25 Gflop/s, 47.88 GB/s, tuning took 3.452440 seconds at Wed May 26 02:52:26 2021
    0.425656	    0.135024	       21374	 1.99147e-05	     24x48x24x24	N4quda4PackIfLi3ELb1EEE	policy_kernel,vol=663552,stride=663552,precision=4,order=4,Ns=4,Nc=3,TwistFlavour=1,comm=0011,topo=1124,order=0,nFace=1,device-device	# 33.32 Gflop/s, 399.84 GB/s, tuning took 0.469875 seconds at Wed May 26 02:45:20 2021
    0.407121	    0.129144	         512	 0.000795157	     24x48x24x24	16N4quda4blas9multiCdotIdfEE	policy_kernel,vol=663552,stride=663552,precision=4,order=4,Ns=4,Nc=3,TwistFlavour=1,nParity=1	# 480.67 Gflop/s, 961.33 GB/s, tuning took 3.485591 seconds at Wed May 26 03:12:36 2021
    0.357357	    0.113358	        1024	 0.000348981	     24x48x24x24	11N4quda4blas11multicaxpy_IfEE	vol=663552,stride=663552,precision=4,order=4,Ns=4,Nc=3,TwistFlavour=1	# 182.53 Gflop/s, 547.60 GB/s, tuning took 0.048311 seconds at Wed May 26 03:12:19 2021
    0.354271	     0.11238	         512	 0.000691936	     24x48x24x24	15N4quda4blas9multiCdotIdfEE	policy_kernel,vol=663552,stride=663552,precision=4,order=4,Ns=4,Nc=3,TwistFlavour=1,nParity=1	# 460.31 Gflop/s, 920.62 GB/s, tuning took 3.323237 seconds at Wed May 26 03:12:32 2021
    0.348054	    0.110407	       53057	    6.56e-06	         4x4x2x2	N4quda12DslashCoarseIfssLi4ELi2ELi24ELi1ELb0ELb1ELb0ELNS_10DslashTypeE2EEE	policy_kernel,GPU-offline,vol=64,stride=64,precision=4,order=2,Ns=2,Nc=24,TwistFlavour=1,comm=0011,full,halo=00001111	# 178.89 Gflop/s, 97.40 GB/s, tuning took 0.035308 seconds at Wed May 26 03:08:18 2021
    0.345211	    0.109506	       17685	   1.952e-05	         4x4x2x2	89N4quda4blas9multiCdotIdfEE	policy_kernel,vol=64,stride=64,precision=4,order=2,Ns=2,Nc=24,TwistFlavour=1,nParity=1	# 90.65 Gflop/s, 101.98 GB/s, tuning took 0.046575 seconds at Wed May 26 03:11:26 2021
    0.332642	    0.105519	         234	  0.00142155	     24x48x24x24	N4quda27TwistedCloverPreconditionedINS_16TwistedCloverArgIfLi3ELi4EL21QudaReconstructType_s18EEEEE	policy_kernel=interior,comm=0011,commDim=0011,dagger	# 818.73 Gflop/s, 715.11 GB/s, tuning took 6.423653 seconds at Wed May 26 02:47:42 2021
    0.310337	   0.0984431	         234	  0.00132623	     24x48x24x24	N4quda6WilsonINS_9WilsonArgIfLi3ELi4EL21QudaReconstructType_s18EEEEE	policy_kernel=interior,comm=0011,commDim=0011,xpay,dagger	# 671.44 Gflop/s, 646.43 GB/s, tuning took 7.395968 seconds at Wed May 26 02:48:23 2021
    0.305867	   0.0970251	       20704	 1.47733e-05	        8x12x4x4	N4quda4blas18tripleCGReduction_IdfEE	vol=1536,stride=1536,precision=4,order=2,Ns=2,Nc=24,TwistFlavour=1,nParity=1	# 59.89 Gflop/s, 119.77 GB/s, tuning took 0.305455 seconds at Wed May 26 03:07:11 2021
    0.294136	    0.093304	         512	 0.000574485	     24x48x24x24	14N4quda4blas9multiCdotIdfEE	policy_kernel,vol=663552,stride=663552,precision=4,order=4,Ns=4,Nc=3,TwistFlavour=1,nParity=1	# 443.53 Gflop/s, 887.07 GB/s, tuning took 3.183603 seconds at Wed May 26 03:12:29 2021
    0.283622	   0.0899687	        6772	 4.18816e-05	     24x48x24x24	N4quda6WilsonINS_9WilsonArgIsLi3ELi4EL21QudaReconstructType_s18EEEEE	policy_kernel=exterior_all,commDim=0011,xpay,dagger	# 538.68 Gflop/s, 438.34 GB/s, tuning took 0.232944 seconds at Wed May 26 02:50:37 2021
    0.263341	   0.0835354	       17685	 1.48907e-05	        8x12x4x4	N4quda4blas9CdotNormAIdfEE	vol=1536,stride=1536,precision=4,order=2,Ns=2,Nc=24,TwistFlavour=1,nParity=1	# 59.42 Gflop/s, 79.22 GB/s, tuning took 0.296675 seconds at Wed May 26 03:11:26 2021
    0.258625	   0.0820394	       17685	  1.4624e-05	        8x12x4x4	N4quda4blas13cabxpyzaxnormIdfEE	vol=1536,stride=1536,precision=4,order=2,Ns=2,Nc=24,TwistFlavour=1,nParity=1	# 100.83 Gflop/s, 161.33 GB/s, tuning took 0.292338 seconds at Wed May 26 03:11:27 2021
    0.255951	    0.081191	        1024	 0.000249952	     24x48x24x24	11N4quda4blas9multiCdotIdfEE	policy_kernel,vol=663552,stride=663552,precision=4,order=4,Ns=4,Nc=3,TwistFlavour=1,nParity=1	# 254.85 Gflop/s, 509.71 GB/s, tuning took 2.863154 seconds at Wed May 26 03:12:19 2021
    0.235979	   0.0748556	         512	 0.000460896	     24x48x24x24	13N4quda4blas9multiCdotIdfEE	policy_kernel,vol=663552,stride=663552,precision=4,order=4,Ns=4,Nc=3,TwistFlavour=1,nParity=1	# 414.63 Gflop/s, 829.27 GB/s, tuning took 3.041229 seconds at Wed May 26 03:12:25 2021
    0.212575	   0.0674316	         606	 0.000350784	     24x48x24x24	N4quda15CopyColorSpinorILi4ENS_18CopyColorSpinorArgIfdLi4ELi3ENS_11colorspinor11FloatNOrderIfLi4ELi3ELi4ELb0ELb0EEENS3_IdLi4ELi3ELi2ELb0ELb0EEEEEEE	out_stride=663552,in_stride=663552,PreserveBasis	# 0.00 Gflop/s, 544.79 GB/s, tuning took 0.024375 seconds at Wed May 26 03:10:10 2021
    0.203207	   0.0644599	       33599	   6.048e-06	    bytes=589824	cudaMemsetAsync	zero,cuda_color_spinor_field.cpp,332	# 0.00 Gflop/s, 97.52 GB/s, tuning took 0.000036 seconds at Wed May 26 03:07:11 2021
    0.186086	    0.059029	         734	 0.000253523	     24x48x24x24	N4quda27TwistedCloverPreconditionedINS_16TwistedCloverArgIdLi3ELi4EL21QudaReconstructType_s18EEEEE	policy_kernel=exterior_all,commDim=0011	# 319.31 Gflop/s, 523.46 GB/s, tuning took 0.876748 seconds at Wed May 26 03:12:56 2021
     0.18254	    0.057904	         512	 0.000356523	     24x48x24x24	12N4quda4blas9multiCdotIdfEE	policy_kernel,vol=663552,stride=663552,precision=4,order=4,Ns=4,Nc=3,TwistFlavour=1,nParity=1	# 357.35 Gflop/s, 714.69 GB/s, tuning took 2.930306 seconds at Wed May 26 03:12:22 2021
    0.181573	   0.0575974	         306	 0.000593376	     24x48x24x24	N4quda11TwistCloverIfLi3EEE	vol=663552,stride=663552,precision=4,order=4,Ns=4,Nc=3,TwistFlavour=1,inverse	# 1180.89 Gflop/s, 536.77 GB/s, tuning took 0.238678 seconds at Wed May 26 02:45:20 2021
    0.146417	   0.0464454	           1	    0.146417	     48x48x24x24	N4quda10CalculateYIL19QudaFieldLocation_s2ELb0EfLi4ELi3ELi2ELi24ENS_13CalculateYArgIfLi4ELi2ELi3ELi24ENS_5gauge10FieldOrderIfLi48ELi2EL21QudaGaugeFieldOrder_s2ELb1EsEENS4_IfLi48ELi2ELS5_2ELb1EiEENS4_IfLi3ELi1ELS5_2ELb1EfEENS_11colorspinor12FieldOrderCBIfLi4ELi3ELi24EL16QudaFieldOrder_s2EssLb0ELb0EEESC_SC_NS_6clover10FieldOrderIfLi3ELi4EL22QudaCloverFieldOrder_s4EEEEEEE	GPU-offline,vol=1327104,stride=663552,precision=2,order=2,Ns=4,Nc=72,TwistFlavour=1,comm=0011,computeVUV,tile_size=4x2x1,dim=0,dir=back,bidirectional,GPU-device,coarse_vol=16x12x4x4	# 1002.39 Gflop/s, 502.74 GB/s, tuning took 11.995830 seconds at Wed May 26 02:58:16 2021
    0.146371	   0.0464308	           1	    0.146371	     48x48x24x24	N4quda10CalculateYIL19QudaFieldLocation_s2ELb0EfLi4ELi3ELi2ELi24ENS_13CalculateYArgIfLi4ELi2ELi3ELi24ENS_5gauge10FieldOrderIfLi48ELi2EL21QudaGaugeFieldOrder_s2ELb1EsEENS4_IfLi48ELi2ELS5_2ELb1EiEENS4_IfLi3ELi1ELS5_2ELb1EfEENS_11colorspinor12FieldOrderCBIfLi4ELi3ELi24EL16QudaFieldOrder_s2EssLb0ELb0EEESC_SC_NS_6clover10FieldOrderIfLi3ELi4EL22QudaCloverFieldOrder_s4EEEEEEE	GPU-offline,vol=1327104,stride=663552,precision=2,order=2,Ns=4,Nc=72,TwistFlavour=1,comm=0011,computeVUV,tile_size=4x2x1,dim=0,dir=fwd,bidirectional,GPU-device,coarse_vol=16x12x4x4	# 1002.71 Gflop/s, 502.90 GB/s, tuning took 12.299107 seconds at Wed May 26 02:56:45 2021
     0.14523	   0.0460689	           1	     0.14523	     48x48x24x24	N4quda10CalculateYIL19QudaFieldLocation_s2ELb0EfLi4ELi3ELi2ELi24ENS_13CalculateYArgIfLi4ELi2ELi3ELi24ENS_5gauge10FieldOrderIfLi48ELi2EL21QudaGaugeFieldOrder_s2ELb1EsEENS4_IfLi48ELi2ELS5_2ELb1EiEENS4_IfLi3ELi1ELS5_2ELb1EfEENS_11colorspinor12FieldOrderCBIfLi4ELi3ELi24EL16QudaFieldOrder_s2EssLb0ELb0EEESC_SC_NS_6clover10FieldOrderIfLi3ELi4EL22QudaCloverFieldOrder_s4EEEEEEE	GPU-offline,vol=1327104,stride=663552,precision=2,order=2,Ns=4,Nc=72,TwistFlavour=1,comm=0011,computeVUV,tile_size=4x2x1,dim=1,dir=back,bidirectional,GPU-device,coarse_vol=16x12x4x4	# 1010.58 Gflop/s, 506.85 GB/s, tuning took 11.850068 seconds at Wed May 26 02:58:38 2021
     0.14515	   0.0460435	           1	     0.14515	     48x48x24x24	N4quda10CalculateYIL19QudaFieldLocation_s2ELb0EfLi4ELi3ELi2ELi24ENS_13CalculateYArgIfLi4ELi2ELi3ELi24ENS_5gauge10FieldOrderIfLi48ELi2EL21QudaGaugeFieldOrder_s2ELb1EsEENS4_IfLi48ELi2ELS5_2ELb1EiEENS4_IfLi3ELi1ELS5_2ELb1EfEENS_11colorspinor12FieldOrderCBIfLi4ELi3ELi24EL16QudaFieldOrder_s2EssLb0ELb0EEESC_SC_NS_6clover10FieldOrderIfLi3ELi4EL22QudaCloverFieldOrder_s4EEEEEEE	GPU-offline,vol=1327104,stride=663552,precision=2,order=2,Ns=4,Nc=72,TwistFlavour=1,comm=0011,computeVUV,tile_size=4x2x1,dim=1,dir=fwd,bidirectional,GPU-device,coarse_vol=16x12x4x4	# 1011.14 Gflop/s, 507.13 GB/s, tuning took 12.156871 seconds at Wed May 26 02:57:09 2021
    0.145029	   0.0460051	           1	    0.145029	     48x48x24x24	N4quda10CalculateYIL19QudaFieldLocation_s2ELb0EfLi4ELi3ELi2ELi24ENS_13CalculateYArgIfLi4ELi2ELi3ELi24ENS_5gauge10FieldOrderIfLi48ELi2EL21QudaGaugeFieldOrder_s2ELb1EsEENS4_IfLi48ELi2ELS5_2ELb1EiEENS4_IfLi3ELi1ELS5_2ELb1EfEENS_11colorspinor12FieldOrderCBIfLi4ELi3ELi24EL16QudaFieldOrder_s2EssLb0ELb0EEESC_SC_NS_6clover10FieldOrderIfLi3ELi4EL22QudaCloverFieldOrder_s4EEEEEEE	GPU-offline,vol=1327104,stride=663552,precision=2,order=2,Ns=4,Nc=72,TwistFlavour=1,comm=0011,computeVUV,tile_size=4x2x1,dim=2,dir=back,bidirectional,GPU-device,coarse_vol=16x12x4x4	# 1011.98 Gflop/s, 507.55 GB/s, tuning took 11.364892 seconds at Wed May 26 02:59:00 2021
    0.144964	   0.0459844	           1	    0.144964	     48x48x24x24	N4quda10CalculateYIL19QudaFieldLocation_s2ELb0EfLi4ELi3ELi2ELi24ENS_13CalculateYArgIfLi4ELi2ELi3ELi24ENS_5gauge10FieldOrderIfLi48ELi2EL21QudaGaugeFieldOrder_s2ELb1EsEENS4_IfLi48ELi2ELS5_2ELb1EiEENS4_IfLi3ELi1ELS5_2ELb1EfEENS_11colorspinor12FieldOrderCBIfLi4ELi3ELi24EL16QudaFieldOrder_s2EssLb0ELb0EEESC_SC_NS_6clover10FieldOrderIfLi3ELi4EL22QudaCloverFieldOrder_s4EEEEEEE	GPU-offline,vol=1327104,stride=663552,precision=2,order=2,Ns=4,Nc=72,TwistFlavour=1,comm=0011,computeVUV,tile_size=4x2x1,dim=3,dir=back,bidirectional,GPU-device,coarse_vol=16x12x4x4	# 1012.44 Gflop/s, 507.78 GB/s, tuning took 11.565053 seconds at Wed May 26 02:59:22 2021
    0.144862	   0.0459523	           1	    0.144862	     48x48x24x24	N4quda10CalculateYIL19QudaFieldLocation_s2ELb0EfLi4ELi3ELi2ELi24ENS_13CalculateYArgIfLi4ELi2ELi3ELi24ENS_5gauge10FieldOrderIfLi48ELi2EL21QudaGaugeFieldOrder_s2ELb1EsEENS4_IfLi48ELi2ELS5_2ELb1EiEENS4_IfLi3ELi1ELS5_2ELb1EfEENS_11colorspinor12FieldOrderCBIfLi4ELi3ELi24EL16QudaFieldOrder_s2EssLb0ELb0EEESC_SC_NS_6clover10FieldOrderIfLi3ELi4EL22QudaCloverFieldOrder_s4EEEEEEE	GPU-offline,vol=1327104,stride=663552,precision=2,order=2,Ns=4,Nc=72,TwistFlavour=1,comm=0011,computeVUV,tile_size=4x2x1,dim=2,dir=fwd,bidirectional,GPU-device,coarse_vol=16x12x4x4	# 1013.15 Gflop/s, 508.14 GB/s, tuning took 11.623748 seconds at Wed May 26 02:57:31 2021
    0.144617	   0.0458743	           1	    0.144617	     48x48x24x24	N4quda10CalculateYIL19QudaFieldLocation_s2ELb0EfLi4ELi3ELi2ELi24ENS_13CalculateYArgIfLi4ELi2ELi3ELi24ENS_5gauge10FieldOrderIfLi48ELi2EL21QudaGaugeFieldOrder_s2ELb1EsEENS4_IfLi48ELi2ELS5_2ELb1EiEENS4_IfLi3ELi1ELS5_2ELb1EfEENS_11colorspinor12FieldOrderCBIfLi4ELi3ELi24EL16QudaFieldOrder_s2EssLb0ELb0EEESC_SC_NS_6clover10FieldOrderIfLi3ELi4EL22QudaCloverFieldOrder_s4EEEEEEE	GPU-offline,vol=1327104,stride=663552,precision=2,order=2,Ns=4,Nc=72,TwistFlavour=1,comm=0011,computeVUV,tile_size=4x2x1,dim=3,dir=fwd,bidirectional,GPU-device,coarse_vol=16x12x4x4	# 1014.87 Gflop/s, 509.00 GB/s, tuning took 11.873402 seconds at Wed May 26 02:57:53 2021
    0.135801	   0.0430779	       13544	 1.00267e-05	     24x48x24x24	N4quda4PackIsLi3ELb1EEE	policy_kernel,vol=663552,stride=663552,precision=2,order=4,Ns=4,Nc=3,TwistFlavour=1,comm=0011,topo=1124,order=0,dagger,nFace=1,device-device	# 66.18 Gflop/s, 441.19 GB/s, tuning took 0.343581 seconds at Wed May 26 02:50:06 2021
    0.133746	   0.0424259	       17685	 7.56267e-06	         4x4x2x2	81N4quda4blas11multicaxpy_IfEE	vol=64,stride=64,precision=4,order=2,Ns=2,Nc=24,TwistFlavour=1	# 26.00 Gflop/s, 32.50 GB/s, tuning took 0.007762 seconds at Wed May 26 03:11:26 2021
    0.124199	   0.0393975	         128	 0.000970304	     48x48x24x24	N4quda15CopyColorSpinorILi4ENS_18CopyColorSpinorArgIddLi4ELi3ENS_11colorspinor21SpaceSpinorColorOrderIdLi4ELi3EEENS2_11FloatNOrderIdLi4ELi3ELi2ELb0ELb0EEEEEEE	out_stride=663552,in_stride=663552,NonRelToChiralBasis	# 0.00 Gflop/s, 525.20 GB/s, tuning took 0.083404 seconds at Wed May 26 03:15:13 2021
     0.12329	   0.0391091	         128	   0.0009632	     48x48x24x24	N4quda15CopyColorSpinorILi4ENS_18CopyColorSpinorArgIddLi4ELi3ENS_11colorspinor11FloatNOrderIdLi4ELi3ELi2ELb0ELb0EEENS2_21SpaceSpinorColorOrderIdLi4ELi3EEEEEEE	out_stride=663552,in_stride=663552,ChiralToNonRelBasis	# 0.00 Gflop/s, 529.08 GB/s, tuning took 0.083581 seconds at Wed May 26 03:08:23 2021
    0.109691	   0.0347955	         734	 0.000149443	     24x48x24x24	N4quda27TwistedCloverPreconditionedINS_16TwistedCloverArgIdLi3ELi4EL21QudaReconstructType_s18EEEEE	policy_kernel=exterior_z,commDim=0011,xpay	# 279.73 Gflop/s, 444.02 GB/s, tuning took 0.515228 seconds at Wed May 26 03:13:58 2021
    0.106861	   0.0338977	         734	 0.000145587	     24x48x24x24	N4quda27TwistedCloverPreconditionedINS_16TwistedCloverArgIdLi3ELi4EL21QudaReconstructType_s18EEEEE	policy_kernel=exterior_t,commDim=0011,xpay	# 287.14 Gflop/s, 455.78 GB/s, tuning took 0.492195 seconds at Wed May 26 03:13:57 2021
     0.10649	   0.0337802	         276	 0.000385835	     48x48x24x24	N4quda4blas6caxpy_IfEE	vol=1327104,stride=663552,precision=2,order=4,Ns=4,Nc=3,TwistFlavour=1	# 330.20 Gflop/s, 495.30 GB/s, tuning took 0.051539 seconds at Wed May 26 02:52:21 2021
    0.105494	   0.0334642	       20350	   5.184e-06	        8x12x4x4	N4quda4blas15tripleCGUpdate_IfEE	vol=1536,stride=1536,precision=4,order=2,Ns=2,Nc=24,TwistFlavour=1	# 170.67 Gflop/s, 796.44 GB/s, tuning took 0.001113 seconds at Wed May 26 03:07:11 2021
      0.1013	   0.0321336	       17685	   5.728e-06	     bytes=24576	cudaMemsetAsync	zero,cuda_color_spinor_field.cpp,332	# 0.00 Gflop/s, 4.29 GB/s, tuning took 0.000026 seconds at Wed May 26 03:11:25 2021
    0.100135	    0.031764	          26	  0.00385133	48x48x24x24,16x12x4x4	N4quda16ProlongateLaunchIfsLi4ELi3ELi2ELi24ELi1EEE	vol=1327104,stride=663552,precision=4,order=2,Ns=4,Nc=3,TwistFlavour=1,vol=3072,stride=1536,precision=4,order=2,Ns=2,Nc=24,TwistFlavour=1	# 793.92 Gflop/s, 431.72 GB/s, tuning took 3.661351 seconds at Wed May 26 03:01:11 2021
   0.0902227	   0.0286198	         411	  0.00021952	 bytes=127401984	cudaMemsetAsync	zero,cuda_color_spinor_field.cpp,332	# 0.00 Gflop/s, 580.37 GB/s, tuning took 0.024270 seconds at Wed May 26 02:45:20 2021
   0.0854507	   0.0271061	         233	 0.000366741	     24x48x24x24	N4quda4blas11axpbyzNorm2IdfEE	vol=663552,stride=663552,precision=4,order=4,Ns=4,Nc=3,TwistFlavour=1,nParity=1	# 173.69 Gflop/s, 521.08 GB/s, tuning took 9.936172 seconds at Wed May 26 02:49:12 2021
   0.0803629	   0.0254922	        4811	  1.6704e-05	        8x12x4x4	12N4quda4blas9multiCdotIdfEE	policy_kernel,vol=1536,stride=1536,precision=4,order=2,Ns=2,Nc=24,TwistFlavour=1,nParity=1	# 70.62 Gflop/s, 141.24 GB/s, tuning took 0.048083 seconds at Wed May 26 03:11:24 2021
   0.0799626	   0.0253652	        4958	  1.6128e-05	        8x12x4x4	11N4quda4blas9multiCdotIdfEE	policy_kernel,vol=1536,stride=1536,precision=4,order=2,Ns=2,Nc=24,TwistFlavour=1,nParity=1	# 36.57 Gflop/s, 73.14 GB/s, tuning took 0.047310 seconds at Wed May 26 03:11:24 2021
   0.0792285	   0.0251323	           4	   0.0198071	 bytes=191102976	cudaMemcpyDefault	copy,cuda_gauge_field.cpp,596	# 0.00 Gflop/s, 9.65 GB/s, tuning took 0.039847 seconds at Wed May 26 02:44:49 2021
   0.0712353	   0.0225968	        5242	 1.35893e-05	        8x12x4x4	N4quda4blas5Norm2IdfEE	vol=1536,stride=1536,precision=4,order=2,Ns=2,Nc=24,TwistFlavour=1,nParity=1	# 21.70 Gflop/s, 43.40 GB/s, tuning took 0.271412 seconds at Wed May 26 03:01:50 2021
   0.0682331	   0.0216444	         276	 0.000247221	     48x48x24x24	N4quda4blas4CdotIdfEE	vol=1327104,stride=663552,precision=2,order=4,Ns=4,Nc=3,TwistFlavour=1,nParity=2	# 515.34 Gflop/s, 515.34 GB/s, tuning took 8.950745 seconds at Wed May 26 02:52:21 2021
   0.0653768	   0.0207384	         146	 0.000447787	     24x48x24x24	N4quda4blas9axpyZpbx_IfEE	vol=663552,stride=663552,precision=2,order=4,Ns=4,Nc=3,TwistFlavour=1,vol=663552,stride=663552,precision=4,order=4,Ns=4,Nc=3,TwistFlavour=1	# 142.26 Gflop/s, 497.90 GB/s, tuning took 0.029648 seconds at Wed May 26 02:51:19 2021
   0.0637483	   0.0202218	          48	  0.00132809	     24x48x24x24	N4quda6WilsonINS_9WilsonArgIfLi3ELi4EL21QudaReconstructType_s18EEEEE	policy_kernel=interior,comm=0011,commDim=0011,xpay	# 670.50 Gflop/s, 645.52 GB/s, tuning took 7.392187 seconds at Wed May 26 02:45:28 2021
   0.0628408	   0.0199339	         128	 0.000490944	     24x48x24x24	N4quda15CopyColorSpinorILi4ENS_18CopyColorSpinorArgIddLi4ELi3ENS_11colorspinor11FloatNOrderIdLi4ELi3ELi2ELb0ELb0EEES4_EEEE	out_stride=663552,in_stride=663552,PreserveBasis	# 0.00 Gflop/s, 519.01 GB/s, tuning took 0.028634 seconds at Wed May 26 03:10:10 2021
   0.0597469	   0.0189525	        1724	  3.4656e-05	     24x48x24x24	N4quda4PackIdLi3ELb1EEE	policy_kernel,vol=663552,stride=663552,precision=8,order=2,Ns=4,Nc=3,TwistFlavour=1,comm=0011,topo=1124,order=0,nFace=1,device-device	# 19.15 Gflop/s, 459.52 GB/s, tuning took 0.492227 seconds at Wed May 26 03:08:46 2021
   0.0582779	   0.0184865	         128	 0.000455296	 bytes=254803968	cudaMemsetAsync	zero,cuda_color_spinor_field.cpp,332	# 0.00 Gflop/s, 559.64 GB/s, tuning took 0.000935 seconds at Wed May 26 03:08:23 2021
   0.0575167	   0.0182451	         185	 0.000310901	     24x48x24x24	11N4quda4blas10multiaxpy_IfEE	vol=663552,stride=663552,precision=2,order=4,Ns=4,Nc=3,TwistFlavour=1,vol=663552,stride=663552,precision=4,order=4,Ns=4,Nc=3,TwistFlavour=1	# 102.45 Gflop/s, 512.23 GB/s, tuning took 0.041376 seconds at Wed May 26 02:51:08 2021
   0.0573796	   0.0182016	          94	 0.000610421	     24x48x24x24	11N4quda4blas11multicaxpy_IdEE	vol=663552,stride=663552,precision=4,order=4,Ns=4,Nc=3,TwistFlavour=1,vol=663552,stride=663552,precision=8,order=2,Ns=4,Nc=3,TwistFlavour=1	# 104.36 Gflop/s, 521.78 GB/s, tuning took 0.040327 seconds at Wed May 26 03:15:12 2021
   0.0570819	   0.0181071	         128	 0.000445952	     48x48x24x24	N4quda4blas5Norm2IddEE	vol=1327104,stride=663552,precision=8,order=2,Ns=4,Nc=3,TwistFlavour=1,nParity=2	# 142.84 Gflop/s, 571.37 GB/s, tuning took 22.498837 seconds at Wed May 26 03:08:45 2021
   0.0555786	   0.0176303	         128	 0.000434208	 bytes=254803968	cudaMemsetAsync	loadSpinorField,cuda_color_spinor_field.cpp,437	# 0.00 Gflop/s, 586.82 GB/s, tuning took 0.000972 seconds at Wed May 26 03:08:23 2021
   0.0478479	    0.015178	        2699	  1.7728e-05	        8x12x4x4	13N4quda4blas9multiCdotIdfEE	policy_kernel,vol=1536,stride=1536,precision=4,order=2,Ns=2,Nc=24,TwistFlavour=1,nParity=1	# 99.81 Gflop/s, 199.62 GB/s, tuning took 0.049807 seconds at Wed May 26 03:12:29 2021
   0.0457164	   0.0145018	        5214	   8.768e-06	        8x12x4x4	11N4quda4blas11multicaxpy_IfEE	vol=1536,stride=1536,precision=4,order=2,Ns=2,Nc=24,TwistFlavour=1	# 67.27 Gflop/s, 201.81 GB/s, tuning took 0.001539 seconds at Wed May 26 03:11:27 2021
   0.0427226	   0.0135522	        4814	 8.87467e-06	        8x12x4x4	31N4quda4blas11multicaxpy_IfEE	vol=1536,stride=1536,precision=4,order=2,Ns=2,Nc=24,TwistFlavour=1	# 199.38 Gflop/s, 332.31 GB/s, tuning took 0.001624 seconds at Wed May 26 03:12:22 2021
   0.0361317	   0.0114615	         185	 0.000195307	     24x48x24x24	N4quda4blas7axpbyz_IfEE	vol=663552,stride=663552,precision=2,order=4,Ns=4,Nc=3,TwistFlavour=1	# 244.62 Gflop/s, 489.24 GB/s, tuning took 0.026449 seconds at Wed May 26 02:51:13 2021
   0.0361278	   0.0114602	         185	 0.000195285	     24x48x24x24	N4quda4blas6caxpy_IfEE	vol=663552,stride=663552,precision=2,order=4,Ns=4,Nc=3,TwistFlavour=1	# 326.19 Gflop/s, 489.29 GB/s, tuning took 0.026982 seconds at Wed May 26 02:51:13 2021
   0.0333231	   0.0105705	         161	 0.000206976	     24x48x24x24	N4quda4blas11axpbyzNorm2IdfEE	vol=663552,stride=663552,precision=2,order=4,Ns=4,Nc=3,TwistFlavour=1,nParity=1	# 307.77 Gflop/s, 461.65 GB/s, tuning took 5.652292 seconds at Wed May 26 02:51:19 2021
   0.0332571	   0.0105496	         256	  0.00012991	     24x48x24x24	N4quda6WilsonINS_9WilsonArgIdLi3ELi4EL21QudaReconstructType_s18EEEEE	policy_kernel=exterior_all,commDim=0011,xpay	# 173.66 Gflop/s, 531.21 GB/s, tuning took 0.549374 seconds at Wed May 26 03:08:59 2021
   0.0290225	  0.00920631	           2	   0.0145112	     48x48x24x24	N4quda24GenericPackGhostLauncherIfLb0ELi4ELi2ELi72ELi2ENS_12PackGhostArgINS_11colorspinor12FieldOrderCBIfLi4ELi72ELi1EL16QudaFieldOrder_s2EssLb0ELb0EEEEEEE	GPU-offline,vol=1327104,stride=663552,precision=2,order=2,Ns=4,Nc=72,TwistFlavour=1,halo_prec=2,comm=0011,topo=1124,order=0,dest=00001111	# 0.00 Gflop/s, 8.78 GB/s, tuning took 185.493216 seconds at Wed May 26 02:55:32 2021
   0.0288932	   0.0091653	         128	 0.000225728	     24x48x24x24	N4quda4blas5Norm2IddEE	vol=663552,stride=663552,precision=8,order=2,Ns=4,Nc=3,TwistFlavour=1,nParity=1	# 141.10 Gflop/s, 564.40 GB/s, tuning took 11.335602 seconds at Wed May 26 03:10:10 2021
   0.0243134	  0.00771255	         185	 0.000131424	     24x48x24x24	N4quda4blas4CdotIdfEE	vol=663552,stride=663552,precision=2,order=4,Ns=4,Nc=3,TwistFlavour=1,nParity=1	# 484.70 Gflop/s, 484.70 GB/s, tuning took 4.559754 seconds at Wed May 26 02:51:13 2021
   0.0237224	  0.00752506	        2699	 8.78933e-06	        8x12x4x4	41N4quda4blas11multicaxpy_IfEE	vol=1536,stride=1536,precision=4,order=2,Ns=2,Nc=24,TwistFlavour=1	# 268.43 Gflop/s, 402.64 GB/s, tuning took 0.001603 seconds at Wed May 26 03:12:29 2021
   0.0214783	   0.0068132	           1	   0.0214783	     48x48x24x24	N4quda10CalculateYIL19QudaFieldLocation_s2ELb0EfLi4ELi3ELi2ELi24ENS_13CalculateYArgIfLi4ELi2ELi3ELi24ENS_5gauge10FieldOrderIfLi48ELi2EL21QudaGaugeFieldOrder_s2ELb1EsEENS4_IfLi48ELi2ELS5_2ELb1EiEENS4_IfLi3ELi1ELS5_2ELb1EfEENS_11colorspinor12FieldOrderCBIfLi4ELi3ELi24EL16QudaFieldOrder_s2EssLb0ELb0EEESC_SC_NS_6clover10FieldOrderIfLi3ELi4EL22QudaCloverFieldOrder_s4EEEEEEE	GPU-offline,vol=1327104,stride=663552,precision=2,order=2,Ns=4,Nc=72,TwistFlavour=1,comm=0011,computeTmcAV,Dynamic,GPU-device	# 1708.32 Gflop/s, 569.44 GB/s, tuning took 49.508794 seconds at Wed May 26 02:56:22 2021
   0.0188052	  0.00596527	          48	 0.000391776	     48x48x24x24	N4quda15CopyColorSpinorILi4ENS_18CopyColorSpinorArgIfsLi4ELi3ENS_11colorspinor11FloatNOrderIfLi4ELi3ELi4ELb0ELb0EEENS3_IsLi4ELi3ELi4ELb0ELb0EEEEEEE	out_stride=663552,in_stride=663552,NonRelBasis	# 0.00 Gflop/s, 501.34 GB/s, tuning took 0.039576 seconds at Wed May 26 02:45:20 2021
   0.0175309	  0.00556104	         234	 7.49184e-05	     24x48x24x24	N4quda27TwistedCloverPreconditionedINS_16TwistedCloverArgIfLi3ELi4EL21QudaReconstructType_s18EEEEE	policy_kernel=exterior_z,commDim=0011,dagger	# 540.28 Gflop/s, 442.85 GB/s, tuning took 0.335696 seconds at Wed May 26 02:47:43 2021
   0.0174935	  0.00554917	          48	 0.000364448	     48x48x24x24	N4quda15CopyColorSpinorILi4ENS_18CopyColorSpinorArgIsfLi4ELi3ENS_11colorspinor11FloatNOrderIsLi4ELi3ELi4ELb0ELb0EEENS3_IfLi4ELi3ELi4ELb0ELb0EEEEEEE	out_stride=663552,in_stride=663552,RelBasis	# 0.00 Gflop/s, 538.93 GB/s, tuning took 0.036853 seconds at Wed May 26 02:45:20 2021
    0.017247	  0.00547097	          24	 0.000718624	     48x48x24x24	N4quda4blas11axpbyzNorm2IdfEE	vol=1327104,stride=663552,precision=4,order=4,Ns=4,Nc=3,TwistFlavour=1,nParity=2	# 177.29 Gflop/s, 531.86 GB/s, tuning took 19.567994 seconds at Wed May 26 03:01:31 2021
   0.0168929	  0.00535866	         234	  7.2192e-05	     24x48x24x24	N4quda27TwistedCloverPreconditionedINS_16TwistedCloverArgIfLi3ELi4EL21QudaReconstructType_s18EEEEE	policy_kernel=exterior_t,commDim=0011,dagger	# 560.68 Gflop/s, 459.57 GB/s, tuning took 0.321564 seconds at Wed May 26 02:47:42 2021
   0.0165957	  0.00526438	          24	 0.000691488	     48x48x24x24	N4quda11SpinorNoiseIfLi4ELi3EL15QudaNoiseType_s1ENS_3ArgIfLi4ELi3EL16QudaFieldOrder_s4EEEEE	vol=1327104,stride=663552,precision=4,order=4,Ns=4,Nc=3,TwistFlavour=1,GPU	# 0.00 Gflop/s, 184.24 GB/s, tuning took 0.604946 seconds at Wed May 26 02:45:20 2021
   0.0160407	  0.00508833	           1	   0.0160407	     48x48x26x26	N4quda5FmunuIdLi3EL21QudaReconstructType_s18EEE	vol=1557504,stride=778752,precision=8,geometry=4,Nc=3,comm=0011	# 1224.12 Gflop/s, 1215.19 GB/s, tuning took 17.967158 seconds at Wed May 26 02:45:17 2021
   0.0129376	  0.00410398	          26	   0.0004976	     48x48x24x24	N4quda15CopyColorSpinorILi4ENS_18CopyColorSpinorArgIffLi4ELi3ENS_11colorspinor11FloatNOrderIfLi4ELi3ELi2ELb0ELb0EEENS3_IfLi4ELi3ELi4ELb0ELb0EEEEEEE	out_stride=663552,in_stride=663552,RelBasis	# 0.00 Gflop/s, 512.07 GB/s, tuning took 0.049536 seconds at Wed May 26 02:59:59 2021
   0.0128669	  0.00408154	          26	  0.00049488	     48x48x24x24	N4quda15CopyColorSpinorILi4ENS_18CopyColorSpinorArgIffLi4ELi3ENS_11colorspinor11FloatNOrderIfLi4ELi3ELi4ELb0ELb0EEENS3_IfLi4ELi3ELi2ELb0ELb0EEEEEEE	out_stride=663552,in_stride=663552,NonRelBasis	# 0.00 Gflop/s, 514.88 GB/s, tuning took 0.053132 seconds at Wed May 26 03:01:11 2021
  0.00932006	  0.00295645	         468	 1.99147e-05	     24x48x24x24	N4quda4PackIfLi3ELb1EEE	policy_kernel,vol=663552,stride=663552,precision=4,order=4,Ns=4,Nc=3,TwistFlavour=1,comm=0011,topo=1124,order=0,dagger,nFace=1,device-device	# 33.32 Gflop/s, 399.84 GB/s, tuning took 0.471774 seconds at Wed May 26 02:47:35 2021
   0.0092263	  0.00292671	           1	   0.0092263	       16x12x4x4	N4quda13CalculateYhatIL19QudaFieldLocation_s2ENS_16CalculateYhatArgIfNS_5gauge10FieldOrderIfLi48ELi1EL21QudaGaugeFieldOrder_s2ELb1EsEES6_S6_Li48ELi4ELi2EEEEE	GPU-offline,,comm=0011,GPU-device	# 2344.39 Gflop/s, 2503.95 GB/s, tuning took 14.675370 seconds at Wed May 26 02:59:59 2021
  0.00866287	  0.00274798	         234	 3.70208e-05	     24x48x24x24	N4quda6WilsonINS_9WilsonArgIfLi3ELi4EL21QudaReconstructType_s18EEEEE	policy_kernel=exterior_t,commDim=0011,xpay,dagger	# 304.70 Gflop/s, 466.02 GB/s, tuning took 0.195041 seconds at Wed May 26 02:48:23 2021
  0.00866212	  0.00274774	         234	 3.70176e-05	     24x48x24x24	N4quda6WilsonINS_9WilsonArgIfLi3ELi4EL21QudaReconstructType_s18EEEEE	policy_kernel=exterior_z,commDim=0011,xpay,dagger	# 304.73 Gflop/s, 466.06 GB/s, tuning took 0.195141 seconds at Wed May 26 02:48:24 2021
  0.00825485	  0.00261855	           1	  0.00825485	       16x12x4x4	N4quda13CalculateYhatIL19QudaFieldLocation_s2ENS_16CalculateYhatArgIfNS_5gauge10FieldOrderIfLi48ELi1EL21QudaGaugeFieldOrder_s2ELb1EsEES6_S6_Li48ELi4ELi2EEEEE	GPU-offline,,comm=0011,compute_max_only,GPU-device	# 2620.28 Gflop/s, 1481.63 GB/s, tuning took 12.962959 seconds at Wed May 26 02:59:44 2021
  0.00726998	  0.00230614	           1	  0.00726998	     48x48x24x24	N4quda10CalculateYIL19QudaFieldLocation_s2ELb0EfLi4ELi3ELi2ELi24ENS_13CalculateYArgIfLi4ELi2ELi3ELi24ENS_5gauge10FieldOrderIfLi48ELi2EL21QudaGaugeFieldOrder_s2ELb1EsEENS4_IfLi48ELi2ELS5_2ELb1EiEENS4_IfLi3ELi1ELS5_2ELb1EfEENS_11colorspinor12FieldOrderCBIfLi4ELi3ELi24EL16QudaFieldOrder_s2EssLb0ELb0EEESC_SC_NS_6clover10FieldOrderIfLi3ELi4EL22QudaCloverFieldOrder_s4EEEEEEE	GPU-offline,vol=1327104,stride=663552,precision=2,order=2,Ns=4,Nc=72,TwistFlavour=1,comm=0011,computeUV,tile_size=3x2x1,dim=1,dir=fwd,GPU-device	# 1261.76 Gflop/s, 736.02 GB/s, tuning took 10.519120 seconds at Wed May 26 02:56:56 2021
  0.00726474	  0.00230447	           1	  0.00726474	     48x48x24x24	N4quda10CalculateYIL19QudaFieldLocation_s2ELb0EfLi4ELi3ELi2ELi24ENS_13CalculateYArgIfLi4ELi2ELi3ELi24ENS_5gauge10FieldOrderIfLi48ELi2EL21QudaGaugeFieldOrder_s2ELb1EsEENS4_IfLi48ELi2ELS5_2ELb1EiEENS4_IfLi3ELi1ELS5_2ELb1EfEENS_11colorspinor12FieldOrderCBIfLi4ELi3ELi24EL16QudaFieldOrder_s2EssLb0ELb0EEESC_SC_NS_6clover10FieldOrderIfLi3ELi4EL22QudaCloverFieldOrder_s4EEEEEEE	GPU-offline,vol=1327104,stride=663552,precision=2,order=2,Ns=4,Nc=72,TwistFlavour=1,comm=0011,computeUV,tile_size=3x2x1,dim=1,dir=back,GPU-device	# 1262.67 Gflop/s, 736.56 GB/s, tuning took 10.509860 seconds at Wed May 26 02:58:27 2021
  0.00697472	  0.00221247	           1	  0.00697472	     48x48x24x24	N4quda10CalculateYIL19QudaFieldLocation_s2ELb0EfLi4ELi3ELi2ELi24ENS_13CalculateYArgIfLi4ELi2ELi3ELi24ENS_5gauge10FieldOrderIfLi48ELi2EL21QudaGaugeFieldOrder_s2ELb1EsEENS4_IfLi48ELi2ELS5_2ELb1EiEENS4_IfLi3ELi1ELS5_2ELb1EfEENS_11colorspinor12FieldOrderCBIfLi4ELi3ELi24EL16QudaFieldOrder_s2EssLb0ELb0EEESC_SC_NS_6clover10FieldOrderIfLi3ELi4EL22QudaCloverFieldOrder_s4EEEEEEE	GPU-offline,vol=1327104,stride=663552,precision=2,order=2,Ns=4,Nc=72,TwistFlavour=1,comm=0011,computeUV,tile_size=3x2x1,dim=0,dir=back,GPU-device	# 1315.17 Gflop/s, 767.18 GB/s, tuning took 10.367675 seconds at Wed May 26 02:58:04 2021
  0.00697085	  0.00221125	           1	  0.00697085	     48x48x24x24	N4quda10CalculateYIL19QudaFieldLocation_s2ELb0EfLi4ELi3ELi2ELi24ENS_13CalculateYArgIfLi4ELi2ELi3ELi24ENS_5gauge10FieldOrderIfLi48ELi2EL21QudaGaugeFieldOrder_s2ELb1EsEENS4_IfLi48ELi2ELS5_2ELb1EiEENS4_IfLi3ELi1ELS5_2ELb1EfEENS_11colorspinor12FieldOrderCBIfLi4ELi3ELi24EL16QudaFieldOrder_s2EssLb0ELb0EEESC_SC_NS_6clover10FieldOrderIfLi3ELi4EL22QudaCloverFieldOrder_s4EEEEEEE	GPU-offline,vol=1327104,stride=663552,precision=2,order=2,Ns=4,Nc=72,TwistFlavour=1,comm=0011,computeUV,tile_size=3x2x1,dim=0,dir=fwd,GPU-device	# 1315.90 Gflop/s, 767.61 GB/s, tuning took 10.369200 seconds at Wed May 26 02:56:33 2021
  0.00685738	  0.00217525	           1	  0.00685738	     48x48x24x24	N4quda10CalculateYIL19QudaFieldLocation_s2ELb0EfLi4ELi3ELi2ELi24ENS_13CalculateYArgIfLi4ELi2ELi3ELi24ENS_5gauge10FieldOrderIfLi48ELi2EL21QudaGaugeFieldOrder_s2ELb1EsEENS4_IfLi48ELi2ELS5_2ELb1EiEENS4_IfLi3ELi1ELS5_2ELb1EfEENS_11colorspinor12FieldOrderCBIfLi4ELi3ELi24EL16QudaFieldOrder_s2EssLb0ELb0EEESC_SC_NS_6clover10FieldOrderIfLi3ELi4EL22QudaCloverFieldOrder_s4EEEEEEE	GPU-offline,vol=1327104,stride=663552,precision=2,order=2,Ns=4,Nc=72,TwistFlavour=1,comm=0011,computeUV,tile_size=3x2x1,dim=2,dir=back,GPU-device	# 1337.68 Gflop/s, 780.31 GB/s, tuning took 10.278894 seconds at Wed May 26 02:58:49 2021
  0.00685331	  0.00217396	           1	  0.00685331	     48x48x24x24	N4quda10CalculateYIL19QudaFieldLocation_s2ELb0EfLi4ELi3ELi2ELi24ENS_13CalculateYArgIfLi4ELi2ELi3ELi24ENS_5gauge10FieldOrderIfLi48ELi2EL21QudaGaugeFieldOrder_s2ELb1EsEENS4_IfLi48ELi2ELS5_2ELb1EiEENS4_IfLi3ELi1ELS5_2ELb1EfEENS_11colorspinor12FieldOrderCBIfLi4ELi3ELi24EL16QudaFieldOrder_s2EssLb0ELb0EEESC_SC_NS_6clover10FieldOrderIfLi3ELi4EL22QudaCloverFieldOrder_s4EEEEEEE	GPU-offline,vol=1327104,stride=663552,precision=2,order=2,Ns=4,Nc=72,TwistFlavour=1,comm=0011,computeUV,tile_size=3x2x1,dim=3,dir=fwd,GPU-device	# 1338.47 Gflop/s, 780.77 GB/s, tuning took 10.266976 seconds at Wed May 26 02:57:41 2021
  0.00685315	  0.00217391	           1	  0.00685315	     48x48x24x24	N4quda10CalculateYIL19QudaFieldLocation_s2ELb0EfLi4ELi3ELi2ELi24ENS_13CalculateYArgIfLi4ELi2ELi3ELi24ENS_5gauge10FieldOrderIfLi48ELi2EL21QudaGaugeFieldOrder_s2ELb1EsEENS4_IfLi48ELi2ELS5_2ELb1EiEENS4_IfLi3ELi1ELS5_2ELb1EfEENS_11colorspinor12FieldOrderCBIfLi4ELi3ELi24EL16QudaFieldOrder_s2EssLb0ELb0EEESC_SC_NS_6clover10FieldOrderIfLi3ELi4EL22QudaCloverFieldOrder_s4EEEEEEE	GPU-offline,vol=1327104,stride=663552,precision=2,order=2,Ns=4,Nc=72,TwistFlavour=1,comm=0011,computeUV,tile_size=3x2x1,dim=2,dir=fwd,GPU-device	# 1338.50 Gflop/s, 780.79 GB/s, tuning took 10.274496 seconds at Wed May 26 02:57:19 2021
  0.00683696	  0.00216877	           1	  0.00683696	     48x48x24x24	N4quda10CalculateYIL19QudaFieldLocation_s2ELb0EfLi4ELi3ELi2ELi24ENS_13CalculateYArgIfLi4ELi2ELi3ELi24ENS_5gauge10FieldOrderIfLi48ELi2EL21QudaGaugeFieldOrder_s2ELb1EsEENS4_IfLi48ELi2ELS5_2ELb1EiEENS4_IfLi3ELi1ELS5_2ELb1EfEENS_11colorspinor12FieldOrderCBIfLi4ELi3ELi24EL16QudaFieldOrder_s2EssLb0ELb0EEESC_SC_NS_6clover10FieldOrderIfLi3ELi4EL22QudaCloverFieldOrder_s4EEEEEEE	GPU-offline,vol=1327104,stride=663552,precision=2,order=2,Ns=4,Nc=72,TwistFlavour=1,comm=0011,computeUV,tile_size=3x2x1,dim=3,dir=back,GPU-device	# 1341.67 Gflop/s, 782.64 GB/s, tuning took 10.257739 seconds at Wed May 26 02:59:11 2021
  0.00653286	  0.00207231	          24	 0.000272203	     48x48x24x24	N4quda4blas3ax_IfEE	vol=1327104,stride=663552,precision=2,order=4,Ns=4,Nc=3,TwistFlavour=1	# 117.01 Gflop/s, 468.04 GB/s, tuning took 0.036432 seconds at Wed May 26 02:52:12 2021
  0.00603179	  0.00191336	         422	 1.42933e-05	        8x12x4x4	N4quda4blas11axpbyzNorm2IdfEE	vol=1536,stride=1536,precision=4,order=2,Ns=2,Nc=24,TwistFlavour=1,nParity=1	# 41.27 Gflop/s, 123.80 GB/s, tuning took 0.283941 seconds at Wed May 26 03:01:50 2021
  0.00543718	  0.00172475	          24	 0.000226549	     48x48x24x24	N4quda4blas5Norm2IdfEE	vol=1327104,stride=663552,precision=4,order=4,Ns=4,Nc=3,TwistFlavour=1,nParity=2	# 281.18 Gflop/s, 562.36 GB/s, tuning took 11.923585 seconds at Wed May 26 03:01:43 2021
  0.00543693	  0.00172467	          24	 0.000226539	     24x48x24x24	N4quda4blas23HeavyQuarkResidualNorm_IdfEE	vol=663552,stride=663552,precision=4,order=4,Ns=4,Nc=3,TwistFlavour=1,nParity=1	# 281.19 Gflop/s, 562.39 GB/s, tuning took 7.107764 seconds at Wed May 26 02:51:28 2021
  0.00515936	  0.00163662	           2	  0.00257968	bytes=1528823808	cudaMemsetAsync	zero,cuda_color_spinor_field.cpp,332	# 0.00 Gflop/s, 592.64 GB/s, tuning took 0.005183 seconds at Wed May 26 02:52:26 2021
  0.00423995	  0.00134497	         277	 1.53067e-05	       16x12x4x4	N4quda4blas4CdotIdfEE	vol=3072,stride=1536,precision=4,order=2,Ns=2,Nc=24,TwistFlavour=1,nParity=2	# 77.07 Gflop/s, 154.14 GB/s, tuning took 0.332417 seconds at Wed May 26 03:07:57 2021
  0.00418976	  0.00132905	           2	  0.00209488	     48x48x24x24	N4quda10CopyCloverIfdLi72ENS_6clover11FloatNOrderIfLi72ELi4ELb0ELb0EEENS2_IdLi72ELi2ELb0ELb0EEEEE	out_stride=663552,in_stride=663552	# 0.00 Gflop/s, 547.34 GB/s, tuning took 1.024574 seconds at Wed May 26 02:45:18 2021
  0.00415667	  0.00131855	           2	  0.00207834	     48x48x24x24	N4quda9CopyGaugeIfdLi18ENS_12CopyGaugeArgINS_5gauge11FloatNOrderIfLi18ELi2ELi18EL20QudaStaggeredPhase_s0ELb1EL19QudaGhostExchange_sn2147483648ELb0EEENS3_IdLi18ELi2ELi18ELS4_0ELb1ELS5_n2147483648ELb0EEEEEEE	GPU-offline,out:vol=1327104,stride=691200,precision=4,geometry=4,Nc=3,in:vol=1327104,stride=691200,precision=8,geometry=4,Nc=3	# 0.00 Gflop/s, 551.70 GB/s, tuning took 2.134088 seconds at Wed May 26 02:44:55 2021
  0.00352698	   0.0011188	           2	  0.00176349	     48x48x24x24	N4quda10CopyCloverIsdLi72ENS_6clover11FloatNOrderIsLi72ELi4ELb0ELb0EEENS2_IdLi72ELi2ELb0ELb0EEEEE	out_stride=663552,in_stride=663552	# 0.00 Gflop/s, 547.85 GB/s, tuning took 0.945738 seconds at Wed May 26 02:45:19 2021
   0.0034839	  0.00110514	           2	  0.00174195	     48x48x24x24	N4quda9CopyGaugeIsdLi18ENS_12CopyGaugeArgINS_5gauge11FloatNOrderIsLi18ELi2ELi18EL20QudaStaggeredPhase_s0ELb1EL19QudaGhostExchange_sn2147483648ELb0EEENS3_IdLi18ELi2ELi18ELS4_0ELb1ELS5_n2147483648ELb0EEEEEEE	GPU-offline,out:vol=1327104,stride=691200,precision=2,geometry=4,Nc=3,in:vol=1327104,stride=691200,precision=8,geometry=4,Nc=3	# 0.00 Gflop/s, 548.53 GB/s, tuning took 1.791532 seconds at Wed May 26 02:44:57 2021
  0.00337149	  0.00106948	           1	  0.00337149	     48x48x24x24	N4quda13CloverComputeIdEE	threads=663552,stride=663552,prec=8	# 188.94 Gflop/s, 566.82 GB/s, tuning took 0.082227 seconds at Wed May 26 02:45:17 2021
   0.0032855	  0.00104221	          24	 0.000136896	     24x48x24x24	N4quda15CopyColorSpinorILi4ENS_18CopyColorSpinorArgIssLi4ELi3ENS_11colorspinor11FloatNOrderIsLi4ELi3ELi4ELb0ELb0EEES4_EEEE	out_stride=663552,in_stride=663552,PreserveBasis	# 0.00 Gflop/s, 504.10 GB/s, tuning took 0.009825 seconds at Wed May 26 02:49:12 2021
  0.00328335	  0.00104152	          48	 6.84032e-05	     24x48x24x24	N4quda6WilsonINS_9WilsonArgIfLi3ELi4EL21QudaReconstructType_s18EEEEE	policy_kernel=exterior_all,commDim=0011,xpay	# 329.82 Gflop/s, 504.43 GB/s, tuning took 0.339257 seconds at Wed May 26 02:45:29 2021
  0.00312294	 0.000990639	          24	 0.000130123	     48x48x24x24	N4quda4blas5Norm2IdfEE	vol=1327104,stride=663552,precision=2,order=4,Ns=4,Nc=3,TwistFlavour=1,nParity=2	# 489.55 Gflop/s, 489.55 GB/s, tuning took 4.366333 seconds at Wed May 26 02:52:12 2021
  0.00297014	 0.000942169	           1	  0.00297014	     48x48x26x26	N4quda11CopyGaugeExIddLi18ENS_5gauge11FloatNOrderIdLi18ELi2ELi18EL20QudaStaggeredPhase_s0ELb1EL19QudaGhostExchange_sn2147483648ELb0EEES5_EE	out_stride=778752,in_stride=691200,geometry=4	# 0.00 Gflop/s, 514.73 GB/s, tuning took 1.258521 seconds at Wed May 26 02:44:58 2021
  0.00289869	 0.000919502	          26	 0.000111488	8x4x2x2,16x12x4x4	N4quda14RestrictLaunchIfsLi2ELi24ELi2ELi24ELi2EEE	GPU-offline,vol=128,stride=64,precision=4,order=2,Ns=2,Nc=24,TwistFlavour=1,vol=3072,stride=1536,precision=4,order=2,Ns=2,Nc=24,TwistFlavour=1	# 253.94 Gflop/s, 138.10 GB/s, tuning took 1.917650 seconds at Wed May 26 03:08:17 2021
  0.00289536	 0.000918446	          24	  0.00012064	     24x48x24x24	N4quda4blas5Norm2IdfEE	vol=663552,stride=663552,precision=4,order=4,Ns=4,Nc=3,TwistFlavour=1,nParity=1	# 264.01 Gflop/s, 528.03 GB/s, tuning took 6.046603 seconds at Wed May 26 02:46:12 2021
   0.0028847	 0.000915066	         199	  1.4496e-05	        8x12x4x4	N4quda4blas4CdotIdfEE	vol=1536,stride=1536,precision=4,order=2,Ns=2,Nc=24,TwistFlavour=1,nParity=1	# 40.69 Gflop/s, 81.38 GB/s, tuning took 0.289340 seconds at Wed May 26 03:07:11 2021
  0.00286106	 0.000907565	           1	  0.00286106	     48x48x24x24	N4quda9CopyGaugeIddLi18ENS_12CopyGaugeArgINS_5gauge11FloatNOrderIdLi18ELi2ELi18EL20QudaStaggeredPhase_s0ELb1EL19QudaGhostExchange_sn2147483648ELb0EEENS2_8QDPOrderIdLi18EEEEEEE	GPU-offline,out:vol=1327104,stride=691200,precision=8,geometry=4,Nc=3,in:vol=1327104,stride=663552,precision=8,geometry=4,Nc=3	# 0.00 Gflop/s, 534.36 GB/s, tuning took 2.957690 seconds at Wed May 26 02:44:52 2021
  0.00279318	 0.000886033	           1	  0.00279318	     48x48x24x24	N4quda13TwistedCloverINS_15WilsonCloverArgIfLi3ELi4EL21QudaReconstructType_s18ELb1EEEEE	policy_kernel=interior,comm=0011,commDim=0011,xpay	# 899.88 Gflop/s, 750.70 GB/s, tuning took 24.582453 seconds at Wed May 26 03:02:23 2021
  0.00278949	 0.000884863	           1	  0.00278949	     48x48x24x24	N4quda13TwistedCloverINS_15WilsonCloverArgIfLi3ELi4EL21QudaReconstructType_s18ELb1EEEEE	policy_kernel=interior,comm=0011,commDim=0011,xpay,dagger	# 901.07 Gflop/s, 751.69 GB/s, tuning took 24.538369 seconds at Wed May 26 03:04:52 2021
  0.00274022	 0.000869235	         192	  1.4272e-05	       16x12x4x4	N4quda10CopySpinorIffLi2ELi24ENS_11colorspinor12FieldOrderCBIfLi2ELi24ELi1EL16QudaFieldOrder_s2EffLb0ELb0EEES4_EE	vol=3072,stride=1536,precision=4,order=2,Ns=2,Nc=24,TwistFlavour=1	# 0.00 Gflop/s, 165.31 GB/s, tuning took 0.001390 seconds at Wed May 26 03:07:09 2021
   0.0019191	 0.000608765	           1	   0.0019191	       16x12x4x4	N4quda10BlockOrthoIdsfLi2ELi1ELi24ELi2ELi24EEE	GPU-offline,vol=3072,stride=1536,precision=2,order=2,Ns=2,Nc=576,TwistFlavour=1,block_size=2x3x2x2,n_block_ortho=1	# 339.54 Gflop/s, 106.96 GB/s, tuning took 0.155997 seconds at Wed May 26 03:07:57 2021
  0.00171072	 0.000542663	         198	    8.64e-06	        8x12x4x4	11N4quda4blas10multiaxpy_IfEE	vol=1536,stride=1536,precision=4,order=2,Ns=2,Nc=24,TwistFlavour=1	# 34.13 Gflop/s, 204.80 GB/s, tuning took 0.001536 seconds at Wed May 26 03:07:11 2021
  0.00151194	 0.000479606	           8	 0.000188992	         6220800	N4quda15TransformReduceIdNS_7complexIfEEiNS_5gauge4abs_IffEENS_7maximumIfEEEE	batch_size=2	# 0.00 Gflop/s, 526.65 GB/s, tuning took 0.093896 seconds at Wed May 26 02:56:22 2021
  0.00144317	 0.000457792	           9	 0.000160352	       16x12x4x4	N4quda10CalculateYIL19QudaFieldLocation_s2ELb0EfLi4ELi3ELi2ELi24ENS_13CalculateYArgIfLi4ELi2ELi3ELi24ENS_5gauge10FieldOrderIfLi48ELi2EL21QudaGaugeFieldOrder_s2ELb1EsEENS4_IfLi48ELi2ELS5_2ELb1EiEENS4_IfLi3ELi1ELS5_2ELb1EfEENS_11colorspinor12FieldOrderCBIfLi4ELi3ELi24EL16QudaFieldOrder_s2EssLb0ELb0EEESC_SC_NS_6clover10FieldOrderIfLi3ELi4EL22QudaCloverFieldOrder_s4EEEEEEE	GPU-offline,vol=1327104,stride=663552,precision=2,order=2,Ns=4,Nc=72,TwistFlavour=1,comm=0011,computeConvert,GPU-device	# 0.00 Gflop/s, 529.68 GB/s, tuning took 0.491348 seconds at Wed May 26 02:56:46 2021
  0.00144102	 0.000457112	          26	  5.5424e-05	16x12x4x4,8x4x2x2	N4quda16ProlongateLaunchIfsLi2ELi24ELi2ELi24ELi1EEE	vol=3072,stride=1536,precision=4,order=2,Ns=2,Nc=24,TwistFlavour=1,vol=128,stride=64,precision=4,order=2,Ns=2,Nc=24,TwistFlavour=1	# 510.82 Gflop/s, 277.80 GB/s, tuning took 0.082829 seconds at Wed May 26 03:08:17 2021
  0.00138534	 0.000439449	           2	 0.000692672	       16x12x4x4	N4quda12DslashCoarseIfssLi4ELi2ELi24ELi1ELb1ELb1ELb0ELNS_10DslashTypeE2EEE	policy_kernel,GPU-offline,vol=3072,stride=1536,precision=4,order=2,Ns=2,Nc=24,TwistFlavour=1,comm=0011,full,halo=00001111	# 735.29 Gflop/s, 384.89 GB/s, tuning took 4.076354 seconds at Wed May 26 03:01:48 2021
  0.00129424	  0.00041055	           1	  0.00129424	     48x48x24x24	N4quda10CalculateYIL19QudaFieldLocation_s2ELb0EfLi4ELi3ELi2ELi24ENS_13CalculateYArgIfLi4ELi2ELi3ELi24ENS_5gauge10FieldOrderIfLi48ELi2EL21QudaGaugeFieldOrder_s2ELb1EsEENS4_IfLi48ELi2ELS5_2ELb1EiEENS4_IfLi3ELi1ELS5_2ELb1EfEENS_11colorspinor12FieldOrderCBIfLi4ELi3ELi24EL16QudaFieldOrder_s2EssLb0ELb0EEESC_SC_NS_6clover10FieldOrderIfLi3ELi4EL22QudaCloverFieldOrder_s4EEEEEEE	GPU-offline,vol=1327104,stride=663552,precision=2,order=2,Ns=4,Nc=72,TwistFlavour=1,comm=0011,computeTwistedCloverInverseMax,Dynamic,GPU-device	# 0.00 Gflop/s, 295.31 GB/s, tuning took 0.760033 seconds at Wed May 26 02:55:33 2021
  0.00128947	 0.000409038	         276	   4.672e-06	       16x12x4x4	N4quda4blas6caxpy_IfEE	vol=3072,stride=1536,precision=4,order=2,Ns=2,Nc=24,TwistFlavour=1	# 252.49 Gflop/s, 757.48 GB/s, tuning took 0.001039 seconds at Wed May 26 03:07:57 2021
  0.00114746	 0.000363988	           2	 0.000573728	 bytes=339738624	cudaMemset	cudaGaugeField,cuda_gauge_field.cpp,54	# 0.00 Gflop/s, 592.16 GB/s, tuning took 0.001169 seconds at Wed May 26 02:52:26 2021
  0.00104883	 0.000332703	           8	 0.000131104	         5308416	N4quda15TransformReduceIdNS_7complexIsEEiNS_5gauge4abs_IfsEENS_7maximumIfEEEE	batch_size=2	# 0.00 Gflop/s, 323.92 GB/s, tuning took 0.076242 seconds at Wed May 26 03:07:59 2021
  0.00104774	 0.000332358	           9	 0.000116416	         3538944	N4quda15TransformReduceIdNS_7complexIiEEiNS_5gauge4abs_IfiEENS_7maximumIfEEEE	batch_size=2	# 0.00 Gflop/s, 486.39 GB/s, tuning took 0.203165 seconds at Wed May 26 02:56:45 2021
  0.00099968	 0.000317112	          10	  9.9968e-05	  bytes=56623104	cudaMemset	zero,cuda_gauge_field.cpp,748	# 0.00 Gflop/s, 566.41 GB/s, tuning took 0.021743 seconds at Wed May 26 02:56:22 2021
  0.00082368	 0.000261282	         198	    4.16e-06	        8x12x4x4	N4quda4blas6caxpy_IfEE	vol=1536,stride=1536,precision=4,order=2,Ns=2,Nc=24,TwistFlavour=1	# 141.78 Gflop/s, 425.35 GB/s, tuning took 0.000935 seconds at Wed May 26 03:07:11 2021
  0.00073168	 0.000232099	          51	 1.43467e-05	       16x12x4x4	N4quda4blas5Norm2IdfEE	vol=3072,stride=1536,precision=4,order=2,Ns=2,Nc=24,TwistFlavour=1,nParity=2	# 41.11 Gflop/s, 82.22 GB/s, tuning took 0.301648 seconds at Wed May 26 03:01:44 2021
 0.000709952	 0.000225206	           1	 0.000709952	       16x12x4x4	N4quda9CopyGaugeIffLi4608ENS_12CopyGaugeArgINS_5gauge10FieldOrderIfLi48ELi1EL21QudaGaugeFieldOrder_s13ELb1EfEENS3_IfLi48ELi1ELS4_2ELb1EsEEEEEE	GPU-offline,out:vol=3072,stride=1536,precision=4,geometry=1,Nc=48,in:vol=3072,stride=1536,precision=2,geometry=1,Nc=48,fine-grained	# 0.00 Gflop/s, 735033.56 GB/s, tuning took 5.023214 seconds at Wed May 26 02:59:28 2021
 0.000705536	 0.000223805	         156	 4.52267e-06	        8x12x4x4	N4quda4blas9axpyZpbx_IfEE	vol=1536,stride=1536,precision=4,order=2,Ns=2,Nc=24,TwistFlavour=1	# 130.42 Gflop/s, 652.08 GB/s, tuning took 0.001025 seconds at Wed May 26 03:07:11 2021
 0.000689888	 0.000218842	           1	 0.000689888	       16x12x4x4	N4quda12DslashCoarseIfssLi4ELi2ELi24ELi1ELb1ELb1ELb1ELNS_10DslashTypeE2EEE	policy_kernel,GPU-offline,vol=3072,stride=1536,precision=4,order=2,Ns=2,Nc=24,TwistFlavour=1,comm=0011,full,halo=00001111	# 738.25 Gflop/s, 386.44 GB/s, tuning took 4.125110 seconds at Wed May 26 03:08:23 2021
 0.000566208	 0.000179609	           1	 0.000566208	       16x12x4x4	N4quda10CalculateYIL19QudaFieldLocation_s2ELb1EfLi2ELi24ELi2ELi24ENS_13CalculateYArgIfLi2ELi2ELi24ELi24ENS_5gauge10FieldOrderIfLi48ELi2EL21QudaGaugeFieldOrder_s2ELb1EsEENS4_IfLi48ELi2ELS5_2ELb1EiEES6_NS_11colorspinor12FieldOrderCBIfLi2ELi24ELi24EL16QudaFieldOrder_s2EssLb0ELb0EEENS9_IfLi4ELi24ELi24ELSA_2EssLb0ELb0EEESB_S6_EEEE	GPU-offline,vol=3072,stride=1536,precision=2,order=2,Ns=2,Nc=576,TwistFlavour=1,comm=0011,computeVUV,tile_size=3x2x1,dim=2,dir=back,bidirectional,GPU-device,coarse_vol=8x4x2x2	# 2400.10 Gflop/s, 1816.74 GB/s, tuning took 0.662654 seconds at Wed May 26 03:08:12 2021
 0.000565344	 0.000179335	           1	 0.000565344	       16x12x4x4	N4quda10CalculateYIL19QudaFieldLocation_s2ELb1EfLi2ELi24ELi2ELi24ENS_13CalculateYArgIfLi2ELi2ELi24ELi24ENS_5gauge10FieldOrderIfLi48ELi2EL21QudaGaugeFieldOrder_s2ELb1EsEENS4_IfLi48ELi2ELS5_2ELb1EiEES6_NS_11colorspinor12FieldOrderCBIfLi2ELi24ELi24EL16QudaFieldOrder_s2EssLb0ELb0EEENS9_IfLi4ELi24ELi24ELSA_2EssLb0ELb0EEESB_S6_EEEE	GPU-offline,vol=3072,stride=1536,precision=2,order=2,Ns=2,Nc=576,TwistFlavour=1,comm=0011,computeVUV,tile_size=3x2x1,dim=2,dir=fwd,bidirectional,GPU-device,coarse_vol=8x4x2x2	# 2403.77 Gflop/s, 1819.52 GB/s, tuning took 0.662192 seconds at Wed May 26 03:08:05 2021
 0.000562592	 0.000178462	           1	 0.000562592	       16x12x4x4	N4quda10CalculateYIL19QudaFieldLocation_s2ELb1EfLi2ELi24ELi2ELi24ENS_13CalculateYArgIfLi2ELi2ELi24ELi24ENS_5gauge10FieldOrderIfLi48ELi2EL21QudaGaugeFieldOrder_s2ELb1EsEENS4_IfLi48ELi2ELS5_2ELb1EiEES6_NS_11colorspinor12FieldOrderCBIfLi2ELi24ELi24EL16QudaFieldOrder_s2EssLb0ELb0EEENS9_IfLi4ELi24ELi24ELSA_2EssLb0ELb0EEESB_S6_EEEE	GPU-offline,vol=3072,stride=1536,precision=2,order=2,Ns=2,Nc=576,TwistFlavour=1,comm=0011,computeVUV,tile_size=3x2x1,dim=0,dir=fwd,bidirectional,GPU-device,coarse_vol=8x4x2x2	# 2415.52 Gflop/s, 1828.42 GB/s, tuning took 0.672508 seconds at Wed May 26 03:08:01 2021
 0.000561952	 0.000178259	           1	 0.000561952	       16x12x4x4	N4quda10CalculateYIL19QudaFieldLocation_s2ELb1EfLi2ELi24ELi2ELi24ENS_13CalculateYArgIfLi2ELi2ELi24ELi24ENS_5gauge10FieldOrderIfLi48ELi2EL21QudaGaugeFieldOrder_s2ELb1EsEENS4_IfLi48ELi2ELS5_2ELb1EiEES6_NS_11colorspinor12FieldOrderCBIfLi2ELi24ELi24EL16QudaFieldOrder_s2EssLb0ELb0EEENS9_IfLi4ELi24ELi24ELSA_2EssLb0ELb0EEESB_S6_EEEE	GPU-offline,vol=3072,stride=1536,precision=2,order=2,Ns=2,Nc=576,TwistFlavour=1,comm=0011,computeVUV,tile_size=3x2x1,dim=0,dir=back,bidirectional,GPU-device,coarse_vol=8x4x2x2	# 2418.27 Gflop/s, 1830.50 GB/s, tuning took 0.671345 seconds at Wed May 26 03:08:08 2021
  0.00056128	 0.000178045	           1	  0.00056128	       16x12x4x4	N4quda10CalculateYIL19QudaFieldLocation_s2ELb1EfLi2ELi24ELi2ELi24ENS_13CalculateYArgIfLi2ELi2ELi24ELi24ENS_5gauge10FieldOrderIfLi48ELi2EL21QudaGaugeFieldOrder_s2ELb1EsEENS4_IfLi48ELi2ELS5_2ELb1EiEES6_NS_11colorspinor12FieldOrderCBIfLi2ELi24ELi24EL16QudaFieldOrder_s2EssLb0ELb0EEENS9_IfLi4ELi24ELi24ELSA_2EssLb0ELb0EEESB_S6_EEEE	GPU-offline,vol=3072,stride=1536,precision=2,order=2,Ns=2,Nc=576,TwistFlavour=1,comm=0011,computeVUV,tile_size=3x2x1,dim=3,dir=fwd,bidirectional,GPU-device,coarse_vol=8x4x2x2	# 2421.17 Gflop/s, 1832.69 GB/s, tuning took 0.663444 seconds at Wed May 26 03:08:07 2021
 0.000559712	 0.000177548	           1	 0.000559712	       16x12x4x4	N4quda10CalculateYIL19QudaFieldLocation_s2ELb1EfLi2ELi24ELi2ELi24ENS_13CalculateYArgIfLi2ELi2ELi24ELi24ENS_5gauge10FieldOrderIfLi48ELi2EL21QudaGaugeFieldOrder_s2ELb1EsEENS4_IfLi48ELi2ELS5_2ELb1EiEES6_NS_11colorspinor12FieldOrderCBIfLi2ELi24ELi24EL16QudaFieldOrder_s2EssLb0ELb0EEENS9_IfLi4ELi24ELi24ELSA_2EssLb0ELb0EEESB_S6_EEEE	GPU-offline,vol=3072,stride=1536,precision=2,order=2,Ns=2,Nc=576,TwistFlavour=1,comm=0011,computeVUV,tile_size=3x2x1,dim=3,dir=back,bidirectional,GPU-device,coarse_vol=8x4x2x2	# 2427.95 Gflop/s, 1837.83 GB/s, tuning took 0.659150 seconds at Wed May 26 03:08:14 2021
 0.000556896	 0.000176655	           1	 0.000556896	       16x12x4x4	N4quda10CalculateYIL19QudaFieldLocation_s2ELb1EfLi2ELi24ELi2ELi24ENS_13CalculateYArgIfLi2ELi2ELi24ELi24ENS_5gauge10FieldOrderIfLi48ELi2EL21QudaGaugeFieldOrder_s2ELb1EsEENS4_IfLi48ELi2ELS5_2ELb1EiEES6_NS_11colorspinor12FieldOrderCBIfLi2ELi24ELi24EL16QudaFieldOrder_s2EssLb0ELb0EEENS9_IfLi4ELi24ELi24ELSA_2EssLb0ELb0EEESB_S6_EEEE	GPU-offline,vol=3072,stride=1536,precision=2,order=2,Ns=2,Nc=576,TwistFlavour=1,comm=0011,computeVUV,tile_size=3x2x1,dim=1,dir=back,bidirectional,GPU-device,coarse_vol=8x4x2x2	# 2440.23 Gflop/s, 1847.12 GB/s, tuning took 0.674725 seconds at Wed May 26 03:08:10 2021
 0.000556576	 0.000176553	           1	 0.000556576	       16x12x4x4	N4quda10CalculateYIL19QudaFieldLocation_s2ELb1EfLi2ELi24ELi2ELi24ENS_13CalculateYArgIfLi2ELi2ELi24ELi24ENS_5gauge10FieldOrderIfLi48ELi2EL21QudaGaugeFieldOrder_s2ELb1EsEENS4_IfLi48ELi2ELS5_2ELb1EiEES6_NS_11colorspinor12FieldOrderCBIfLi2ELi24ELi24EL16QudaFieldOrder_s2EssLb0ELb0EEENS9_IfLi4ELi24ELi24ELSA_2EssLb0ELb0EEESB_S6_EEEE	GPU-offline,vol=3072,stride=1536,precision=2,order=2,Ns=2,Nc=576,TwistFlavour=1,comm=0011,computeVUV,tile_size=3x2x1,dim=1,dir=fwd,bidirectional,GPU-device,coarse_vol=8x4x2x2	# 2441.63 Gflop/s, 1848.18 GB/s, tuning took 0.678151 seconds at Wed May 26 03:08:03 2021
 0.000479392	 0.000152069	           1	 0.000479392	       16x12x4x4	N4quda10CalculateYIL19QudaFieldLocation_s2ELb1EfLi2ELi24ELi2ELi24ENS_13CalculateYArgIfLi2ELi2ELi24ELi24ENS_5gauge10FieldOrderIfLi48ELi2EL21QudaGaugeFieldOrder_s2ELb1EsEENS4_IfLi48ELi2ELS5_2ELb1EiEES6_NS_11colorspinor12FieldOrderCBIfLi2ELi24ELi24EL16QudaFieldOrder_s2EssLb0ELb0EEENS9_IfLi4ELi24ELi24ELSA_2EssLb0ELb0EEESB_S6_EEEE	GPU-offline,vol=3072,stride=1536,precision=2,order=2,Ns=2,Nc=576,TwistFlavour=1,comm=0011,computeUV,tile_size=4x2x1,dim=1,dir=back,GPU-device	# 2834.75 Gflop/s, 1505.96 GB/s, tuning took 1.148456 seconds at Wed May 26 03:08:10 2021
  0.00047744	  0.00015145	           1	  0.00047744	       16x12x4x4	N4quda10CalculateYIL19QudaFieldLocation_s2ELb1EfLi2ELi24ELi2ELi24ENS_13CalculateYArgIfLi2ELi2ELi24ELi24ENS_5gauge10FieldOrderIfLi48ELi2EL21QudaGaugeFieldOrder_s2ELb1EsEENS4_IfLi48ELi2ELS5_2ELb1EiEES6_NS_11colorspinor12FieldOrderCBIfLi2ELi24ELi24EL16QudaFieldOrder_s2EssLb0ELb0EEENS9_IfLi4ELi24ELi24ELSA_2EssLb0ELb0EEESB_S6_EEEE	GPU-offline,vol=3072,stride=1536,precision=2,order=2,Ns=2,Nc=576,TwistFlavour=1,comm=0011,computeUV,tile_size=4x2x1,dim=3,dir=back,GPU-device	# 2846.34 Gflop/s, 1512.12 GB/s, tuning took 1.147303 seconds at Wed May 26 03:08:13 2021
 0.000477184	 0.000151369	           1	 0.000477184	       16x12x4x4	N4quda10CalculateYIL19QudaFieldLocation_s2ELb1EfLi2ELi24ELi2ELi24ENS_13CalculateYArgIfLi2ELi2ELi24ELi24ENS_5gauge10FieldOrderIfLi48ELi2EL21QudaGaugeFieldOrder_s2ELb1EsEENS4_IfLi48ELi2ELS5_2ELb1EiEES6_NS_11colorspinor12FieldOrderCBIfLi2ELi24ELi24EL16QudaFieldOrder_s2EssLb0ELb0EEENS9_IfLi4ELi24ELi24ELSA_2EssLb0ELb0EEESB_S6_EEEE	GPU-offline,vol=3072,stride=1536,precision=2,order=2,Ns=2,Nc=576,TwistFlavour=1,comm=0011,computeUV,tile_size=4x2x1,dim=3,dir=fwd,GPU-device	# 2847.86 Gflop/s, 1512.93 GB/s, tuning took 1.157628 seconds at Wed May 26 03:08:06 2021
 0.000476896	 0.000151278	           1	 0.000476896	       16x12x4x4	N4quda10CalculateYIL19QudaFieldLocation_s2ELb1EfLi2ELi24ELi2ELi24ENS_13CalculateYArgIfLi2ELi2ELi24ELi24ENS_5gauge10FieldOrderIfLi48ELi2EL21QudaGaugeFieldOrder_s2ELb1EsEENS4_IfLi48ELi2ELS5_2ELb1EiEES6_NS_11colorspinor12FieldOrderCBIfLi2ELi24ELi24EL16QudaFieldOrder_s2EssLb0ELb0EEENS9_IfLi4ELi24ELi24ELSA_2EssLb0ELb0EEESB_S6_EEEE	GPU-offline,vol=3072,stride=1536,precision=2,order=2,Ns=2,Nc=576,TwistFlavour=1,comm=0011,computeUV,tile_size=4x2x1,dim=2,dir=back,GPU-device	# 2849.58 Gflop/s, 1513.84 GB/s, tuning took 1.147834 seconds at Wed May 26 03:08:11 2021
 0.000476544	 0.000151166	           1	 0.000476544	       16x12x4x4	N4quda10CalculateYIL19QudaFieldLocation_s2ELb1EfLi2ELi24ELi2ELi24ENS_13CalculateYArgIfLi2ELi2ELi24ELi24ENS_5gauge10FieldOrderIfLi48ELi2EL21QudaGaugeFieldOrder_s2ELb1EsEENS4_IfLi48ELi2ELS5_2ELb1EiEES6_NS_11colorspinor12FieldOrderCBIfLi2ELi24ELi24EL16QudaFieldOrder_s2EssLb0ELb0EEENS9_IfLi4ELi24ELi24ELSA_2EssLb0ELb0EEESB_S6_EEEE	GPU-offline,vol=3072,stride=1536,precision=2,order=2,Ns=2,Nc=576,TwistFlavour=1,comm=0011,computeUV,tile_size=4x2x1,dim=1,dir=fwd,GPU-device	# 2851.69 Gflop/s, 1514.96 GB/s, tuning took 1.156545 seconds at Wed May 26 03:08:02 2021
 0.000470272	 0.000149177	           4	 0.000117568	       16x12x4x4	N4quda12ExtractGhostILi4ENS_15ExtractGhostArgIfLi48ENS_5gauge10FieldOrderIfLi48ELi1EL21QudaGaugeFieldOrder_s2ELb0EsEELi4EEEEE	fine-grained	# 0.00 Gflop/s, 477767.06 GB/s, tuning took 0.418658 seconds at Wed May 26 02:59:31 2021
 0.000469952	 0.000149075	           1	 0.000469952	       16x12x4x4	N4quda10CalculateYIL19QudaFieldLocation_s2ELb1EfLi2ELi24ELi2ELi24ENS_13CalculateYArgIfLi2ELi2ELi24ELi24ENS_5gauge10FieldOrderIfLi48ELi2EL21QudaGaugeFieldOrder_s2ELb1EsEENS4_IfLi48ELi2ELS5_2ELb1EiEES6_NS_11colorspinor12FieldOrderCBIfLi2ELi24ELi24EL16QudaFieldOrder_s2EssLb0ELb0EEENS9_IfLi4ELi24ELi24ELSA_2EssLb0ELb0EEESB_S6_EEEE	GPU-offline,vol=3072,stride=1536,precision=2,order=2,Ns=2,Nc=576,TwistFlavour=1,comm=0011,computeUV,tile_size=4x2x1,dim=2,dir=fwd,GPU-device	# 2891.69 Gflop/s, 1536.21 GB/s, tuning took 1.150625 seconds at Wed May 26 03:08:04 2021
 0.000469024	 0.000148781	           1	 0.000469024	       16x12x4x4	N4quda10CalculateYIL19QudaFieldLocation_s2ELb1EfLi2ELi24ELi2ELi24ENS_13CalculateYArgIfLi2ELi2ELi24ELi24ENS_5gauge10FieldOrderIfLi48ELi2EL21QudaGaugeFieldOrder_s2ELb1EsEENS4_IfLi48ELi2ELS5_2ELb1EiEES6_NS_11colorspinor12FieldOrderCBIfLi2ELi24ELi24EL16QudaFieldOrder_s2EssLb0ELb0EEENS9_IfLi4ELi24ELi24ELSA_2EssLb0ELb0EEESB_S6_EEEE	GPU-offline,vol=3072,stride=1536,precision=2,order=2,Ns=2,Nc=576,TwistFlavour=1,comm=0011,computeUV,tile_size=4x2x1,dim=0,dir=fwd,GPU-device	# 2897.41 Gflop/s, 1539.25 GB/s, tuning took 1.140106 seconds at Wed May 26 03:08:00 2021
 0.000465536	 0.000147674	           1	 0.000465536	       16x12x4x4	N4quda10CalculateYIL19QudaFieldLocation_s2ELb1EfLi2ELi24ELi2ELi24ENS_13CalculateYArgIfLi2ELi2ELi24ELi24ENS_5gauge10FieldOrderIfLi48ELi2EL21QudaGaugeFieldOrder_s2ELb1EsEENS4_IfLi48ELi2ELS5_2ELb1EiEES6_NS_11colorspinor12FieldOrderCBIfLi2ELi24ELi24EL16QudaFieldOrder_s2EssLb0ELb0EEENS9_IfLi4ELi24ELi24ELSA_2EssLb0ELb0EEESB_S6_EEEE	GPU-offline,vol=3072,stride=1536,precision=2,order=2,Ns=2,Nc=576,TwistFlavour=1,comm=0011,computeUV,tile_size=4x2x1,dim=0,dir=back,GPU-device	# 2919.12 Gflop/s, 1550.78 GB/s, tuning took 1.149911 seconds at Wed May 26 03:08:08 2021
  0.00046016	 0.000145969	           1	  0.00046016	   bytes=5308416	cudaMemcpyHostToDevice	createGeoMap,transfer.cpp,308	# 0.00 Gflop/s, 11.54 GB/s, tuning took 0.000964 seconds at Wed May 26 02:52:21 2021
 0.000460128	 0.000145959	           1	 0.000460128	   bytes=5308416	cudaMemcpyHostToDevice	createGeoMap,transfer.cpp,307	# 0.00 Gflop/s, 11.54 GB/s, tuning took 0.001006 seconds at Wed May 26 02:52:21 2021
 0.000447339	 0.000141902	           1	 0.000447339	     48x48x24x24	N4quda4blas4CdotIdfEE	vol=1327104,stride=663552,precision=4,order=4,Ns=4,Nc=3,TwistFlavour=1,nParity=2	# 284.80 Gflop/s, 569.60 GB/s, tuning took 15.329138 seconds at Wed May 26 03:07:09 2021
    0.000416	 0.000131961	          26	     1.6e-05	       16x12x4x4	N4quda11SpinorNoiseIfLi2ELi24EL15QudaNoiseType_s1ENS_3ArgIfLi2ELi24EL16QudaFieldOrder_s2EEEEE	vol=3072,stride=1536,precision=4,order=2,Ns=2,Nc=24,TwistFlavour=1,GPU	# 0.00 Gflop/s, 73.73 GB/s, tuning took 0.024076 seconds at Wed May 26 03:01:43 2021
 0.000414688	 0.000131545	           1	 0.000414688	       16x12x4x4	N4quda9CopyGaugeIffLi4608ENS_12CopyGaugeArgINS_5gauge10FieldOrderIfLi48ELi1EL21QudaGaugeFieldOrder_s2ELb1EsEENS3_IfLi48ELi1ELS4_13ELb1EfEEEEEE	GPU-offline,out:vol=3072,stride=1536,precision=2,geometry=1,Nc=48,in:vol=3072,stride=1536,precision=4,geometry=1,Nc=48,fine-grained	# 0.00 Gflop/s, 1258388.38 GB/s, tuning took 2.253097 seconds at Wed May 26 02:59:30 2021
 0.000401856	 0.000127474	          26	  1.5456e-05	       16x12x4x4	N4quda4blas11axpbyzNorm2IdfEE	vol=3072,stride=1536,precision=4,order=2,Ns=2,Nc=24,TwistFlavour=1,nParity=2	# 76.32 Gflop/s, 228.97 GB/s, tuning took 0.328580 seconds at Wed May 26 03:01:44 2021
 0.000354016	 0.000112299	           1	 0.000354016	         8x4x2x2	N4quda13CalculateYhatIL19QudaFieldLocation_s2ENS_16CalculateYhatArgIfNS_5gauge10FieldOrderIfLi48ELi1EL21QudaGaugeFieldOrder_s2ELb1EsEES6_S6_Li48ELi4ELi2EEEEE	GPU-offline,,comm=0011,GPU-device	# 2545.79 Gflop/s, 2719.07 GB/s, tuning took 0.370600 seconds at Wed May 26 03:08:15 2021
 0.000345216	 0.000109507	          58	   5.952e-06	   bytes=1179648	cudaMemsetAsync	zero,cuda_color_spinor_field.cpp,332	# 0.00 Gflop/s, 198.19 GB/s, tuning took 0.430808 seconds at Wed May 26 02:52:26 2021
  0.00031472	 9.98334e-05	           1	  0.00031472	         8x4x2x2	N4quda13CalculateYhatIL19QudaFieldLocation_s2ENS_16CalculateYhatArgIfNS_5gauge10FieldOrderIfLi48ELi1EL21QudaGaugeFieldOrder_s2ELb1EsEES6_S6_Li48ELi4ELi2EEEEE	GPU-offline,,comm=0011,compute_max_only,GPU-device	# 2863.66 Gflop/s, 1619.24 GB/s, tuning took 0.341291 seconds at Wed May 26 03:08:15 2021
  0.00026976	 8.55714e-05	           1	  0.00026976	     48x48x26x26	N4quda14ExtractGhostExIdLi18ELi4ELi3ENS_5gauge11FloatNOrderIdLi18ELi2ELi18EL20QudaStaggeredPhase_s0ELb1EL19QudaGhostExchange_sn2147483648ELb0EEEEE	prec=8,stride=778752,extract=0,dimension=3,geometry=4	# 0.00 Gflop/s, 1023.27 GB/s, tuning took 0.130848 seconds at Wed May 26 02:44:59 2021
 0.000269632	 8.55308e-05	           1	 0.000269632	     48x48x26x26	N4quda14ExtractGhostExIdLi18ELi4ELi3ENS_5gauge11FloatNOrderIdLi18ELi2ELi18EL20QudaStaggeredPhase_s0ELb1EL19QudaGhostExchange_sn2147483648ELb0EEEEE	prec=8,stride=778752,extract=1,dimension=3,geometry=4	# 0.00 Gflop/s, 1023.76 GB/s, tuning took 0.125673 seconds at Wed May 26 02:44:59 2021
 0.000257184	 8.15822e-05	           3	  8.5728e-05	       16x12x4x4	N4quda9CopyGaugeIffLi4608ENS_12CopyGaugeArgINS_5gauge10FieldOrderIfLi48ELi1EL21QudaGaugeFieldOrder_s2ELb1EsEENS3_IfLi48ELi1ELS4_2ELb0EsEEEEEE	GPU-offline,out:vol=3072,stride=2304,precision=2,geometry=8,Nc=48,in:vol=3072,stride=2304,precision=2,geometry=8,Nc=48,fine-grained,ghost	# 0.00 Gflop/s, 655213.25 GB/s, tuning took 0.270755 seconds at Wed May 26 02:59:31 2021
 0.000252384	 8.00595e-05	           1	 0.000252384	     48x48x26x26	N4quda14ExtractGhostExIdLi18ELi4ELi2ENS_5gauge11FloatNOrderIdLi18ELi2ELi18EL20QudaStaggeredPhase_s0ELb1EL19QudaGhostExchange_sn2147483648ELb0EEEEE	prec=8,stride=778752,extract=0,dimension=2,geometry=4	# 0.00 Gflop/s, 1009.59 GB/s, tuning took 0.123102 seconds at Wed May 26 02:44:58 2021
 0.000247136	 7.83948e-05	           1	 0.000247136	     48x48x26x26	N4quda14ExtractGhostExIdLi18ELi4ELi2ENS_5gauge11FloatNOrderIdLi18ELi2ELi18EL20QudaStaggeredPhase_s0ELb1EL19QudaGhostExchange_sn2147483648ELb0EEEEE	prec=8,stride=778752,extract=1,dimension=2,geometry=4	# 0.00 Gflop/s, 1031.03 GB/s, tuning took 0.115238 seconds at Wed May 26 02:44:58 2021
 0.000243136	  7.7126e-05	           2	 0.000121568	  bytes=69009408	cudaMemsetAsync	exchangeExtendedGhost,cuda_gauge_field.cpp,424	# 0.00 Gflop/s, 567.66 GB/s, tuning took 0.000308 seconds at Wed May 26 02:44:58 2021
 0.000233792	 7.41619e-05	           2	 0.000116896	         3538944	N4quda15TransformReduceIdNS_7complexIfEEiNS_5gauge4abs_IffEENS_7maximumIfEEEE	batch_size=2	# 0.00 Gflop/s, 484.39 GB/s, tuning took 0.055648 seconds at Wed May 26 02:59:28 2021
 0.000225867	 7.16479e-05	           1	 0.000225867	     24x48x24x24	N4quda4blas4CdotIdfEE	vol=663552,stride=663552,precision=4,order=4,Ns=4,Nc=3,TwistFlavour=1,nParity=1	# 282.03 Gflop/s, 564.06 GB/s, tuning took 7.756963 seconds at Wed May 26 03:01:58 2021
  0.00019968	 6.33411e-05	          32	    6.24e-06	     bytes=49152	cudaMemsetAsync	zero,cuda_color_spinor_field.cpp,332	# 0.00 Gflop/s, 7.88 GB/s, tuning took 0.001936 seconds at Wed May 26 03:07:57 2021
 0.000189216	 6.00218e-05	           9	  2.1024e-05	          147456	N4quda15TransformReduceIdNS_7complexIiEEiNS_5gauge4abs_IfiEENS_7maximumIfEEEE	batch_size=2	# 0.00 Gflop/s, 112.22 GB/s, tuning took 0.007146 seconds at Wed May 26 03:08:01 2021
  0.00016752	 5.31396e-05	           1	  0.00016752	       16x12x4x4	N4quda24GenericPackGhostLauncherIfLb0ELi2ELi2ELi576ELi2ENS_12PackGhostArgINS_11colorspinor12FieldOrderCBIfLi2ELi576ELi1EL16QudaFieldOrder_s2EssLb0ELb0EEEEEEE	GPU-offline,vol=3072,stride=1536,precision=2,order=2,Ns=2,Nc=576,TwistFlavour=1,halo_prec=2,comm=0011,topo=1124,order=0,dest=00001111	# 0.00 Gflop/s, 42.25 GB/s, tuning took 2.171272 seconds at Wed May 26 03:07:59 2021
  0.00014016	 4.44606e-05	           2	   7.008e-05	     48x48x24x24	N4quda9CopyGaugeIfdLi18ENS_12CopyGaugeArgINS_5gauge11FloatNOrderIfLi18ELi2ELi18EL20QudaStaggeredPhase_s0ELb1EL19QudaGhostExchange_sn2147483648ELb0EEENS3_IdLi18ELi2ELi18ELS4_0ELb1ELS5_n2147483648ELb0EEEEEEE	GPU-offline,out:vol=1327104,stride=691200,precision=4,geometry=4,Nc=3,in:vol=1327104,stride=691200,precision=8,geometry=4,Nc=3,ghost	# 0.00 Gflop/s, 511.30 GB/s, tuning took 0.079779 seconds at Wed May 26 02:44:55 2021
 0.000132736	 4.21056e-05	           4	  3.3184e-05	         8x4x2x2	N4quda12ExtractGhostILi4ENS_15ExtractGhostArgIfLi48ENS_5gauge10FieldOrderIfLi48ELi1EL21QudaGaugeFieldOrder_s2ELb0EsEELi4EEEEE	fine-grained	# 0.00 Gflop/s, 6256.57 GB/s, tuning took 0.105251 seconds at Wed May 26 03:08:14 2021
     0.00012	 3.80656e-05	           2	       6e-05	     48x48x24x24	N4quda9CopyGaugeIsdLi18ENS_12CopyGaugeArgINS_5gauge11FloatNOrderIsLi18ELi2ELi18EL20QudaStaggeredPhase_s0ELb1EL19QudaGhostExchange_sn2147483648ELb0EEENS3_IdLi18ELi2ELi18ELS4_0ELb1ELS5_n2147483648ELb0EEEEEEE	GPU-offline,out:vol=1327104,stride=691200,precision=2,geometry=4,Nc=3,in:vol=1327104,stride=691200,precision=8,geometry=4,Nc=3,ghost	# 0.00 Gflop/s, 497.66 GB/s, tuning took 0.069282 seconds at Wed May 26 02:44:57 2021
 0.000116448	 3.69388e-05	           1	 0.000116448	     48x48x24x24	N4quda12ExtractGhostILi4ENS_15ExtractGhostArgIdLi3ENS_5gauge11FloatNOrderIdLi18ELi2ELi18EL20QudaStaggeredPhase_s0ELb1EL19QudaGhostExchange_sn2147483648ELb0EEELi4EEEEE	stride=691200	# 0.00 Gflop/s, 410.28 GB/s, tuning took 0.147081 seconds at Wed May 26 02:44:53 2021
  0.00011328	 3.59339e-05	           1	  0.00011328	  bytes=63700992	cudaMemset	AllocateRNG,random.cu,124	# 0.00 Gflop/s, 562.33 GB/s, tuning took 0.000252 seconds at Wed May 26 02:45:19 2021
 0.000104704	 3.32135e-05	           2	  5.2352e-05	  bytes=28311552	cudaMemset	cudaGaugeField,cuda_gauge_field.cpp,54	# 0.00 Gflop/s, 540.79 GB/s, tuning took 0.000461 seconds at Wed May 26 02:52:26 2021
 0.000100096	 3.17518e-05	          24	 4.17067e-06	       16x12x4x4	N4quda4blas3ax_IfEE	vol=3072,stride=1536,precision=4,order=2,Ns=2,Nc=24,TwistFlavour=1	# 70.71 Gflop/s, 565.69 GB/s, tuning took 0.000950 seconds at Wed May 26 03:07:56 2021
  9.4912e-05	 3.01073e-05	           1	  9.4912e-05	     48x48x24x24	N4quda9CopyGaugeIddLi18ENS_12CopyGaugeArgINS_5gauge11FloatNOrderIdLi18ELi2ELi18EL20QudaStaggeredPhase_s0ELb1EL19QudaGhostExchange_sn2147483648ELb0EEES6_EEEE	GPU-offline,out:vol=1327104,stride=691200,precision=8,geometry=4,Nc=3,in:vol=1327104,stride=691200,precision=8,geometry=4,Nc=3,ghost	# 0.00 Gflop/s, 503.37 GB/s, tuning took 0.103069 seconds at Wed May 26 02:44:53 2021
  8.2592e-05	 2.61993e-05	           1	  8.2592e-05	       16x12x4x4	N4quda9CopyGaugeIffLi4608ENS_12CopyGaugeArgINS_5gauge10FieldOrderIfLi48ELi1EL21QudaGaugeFieldOrder_s2ELb0EsEENS3_IfLi48ELi1ELS4_2ELb1EsEEEEEE	GPU-offline,out:vol=3072,stride=2304,precision=2,geometry=8,Nc=48,in:vol=3072,stride=2304,precision=2,geometry=8,Nc=48,fine-grained,ghost	# 0.00 Gflop/s, 680091.50 GB/s, tuning took 0.265371 seconds at Wed May 26 02:59:59 2021
   7.968e-05	 2.52756e-05	           3	   2.656e-05	         8x4x2x2	N4quda9CopyGaugeIffLi4608ENS_12CopyGaugeArgINS_5gauge10FieldOrderIfLi48ELi1EL21QudaGaugeFieldOrder_s2ELb1EsEENS3_IfLi48ELi1ELS4_2ELb0EsEEEEEE	GPU-offline,out:vol=128,stride=128,precision=2,geometry=8,Nc=48,in:vol=128,stride=128,precision=2,geometry=8,Nc=48,fine-grained,ghost	# 0.00 Gflop/s, 7816.94 GB/s, tuning took 0.088006 seconds at Wed May 26 03:08:14 2021
   7.648e-05	 2.42605e-05	          10	   7.648e-06	   bytes=2359296	cudaMemset	zero,cuda_gauge_field.cpp,748	# 0.00 Gflop/s, 308.49 GB/s, tuning took 0.001226 seconds at Wed May 26 03:07:59 2021
  7.4176e-05	 2.35296e-05	           2	  3.7088e-05	  bytes=18874368	cudaMemset	cudaGaugeField,cuda_gauge_field.cpp,54	# 0.00 Gflop/s, 508.91 GB/s, tuning took 0.000096 seconds at Wed May 26 03:07:57 2021
  7.3728e-05	 2.33875e-05	           9	   8.192e-06	         8x4x2x2	N4quda10CalculateYIL19QudaFieldLocation_s2ELb1EfLi2ELi24ELi2ELi24ENS_13CalculateYArgIfLi2ELi2ELi24ELi24ENS_5gauge10FieldOrderIfLi48ELi2EL21QudaGaugeFieldOrder_s2ELb1EsEENS4_IfLi48ELi2ELS5_2ELb1EiEES6_NS_11colorspinor12FieldOrderCBIfLi2ELi24ELi24EL16QudaFieldOrder_s2EssLb0ELb0EEENS9_IfLi4ELi24ELi24ELSA_2EssLb0ELb0EEESB_S6_EEEE	GPU-offline,vol=3072,stride=1536,precision=2,order=2,Ns=2,Nc=576,TwistFlavour=1,comm=0011,computeConvert,GPU-device	# 0.00 Gflop/s, 432.00 GB/s, tuning took 0.038766 seconds at Wed May 26 03:08:01 2021
 6.93216e-05	 2.19897e-05	           1	 6.93216e-05	     48x48x24x24	N4quda13TwistedCloverINS_15WilsonCloverArgIfLi3ELi4EL21QudaReconstructType_s18ELb1EEEEE	policy_kernel=exterior_z,commDim=0011,xpay	# 325.45 Gflop/s, 497.75 GB/s, tuning took 0.529023 seconds at Wed May 26 03:02:25 2021
 6.91168e-05	 2.19248e-05	           1	 6.91168e-05	     48x48x24x24	N4quda13TwistedCloverINS_15WilsonCloverArgIfLi3ELi4EL21QudaReconstructType_s18ELb1EEEEE	policy_kernel=exterior_t,commDim=0011,xpay	# 326.42 Gflop/s, 499.22 GB/s, tuning took 0.529628 seconds at Wed May 26 03:02:24 2021
 6.88416e-05	 2.18375e-05	           1	 6.88416e-05	     48x48x24x24	N4quda13TwistedCloverINS_15WilsonCloverArgIfLi3ELi4EL21QudaReconstructType_s18ELb1EEEEE	policy_kernel=exterior_z,commDim=0011,xpay,dagger	# 327.72 Gflop/s, 501.22 GB/s, tuning took 0.525817 seconds at Wed May 26 03:04:53 2021
 6.81632e-05	 2.16223e-05	           1	 6.81632e-05	     48x48x24x24	N4quda13TwistedCloverINS_15WilsonCloverArgIfLi3ELi4EL21QudaReconstructType_s18ELb1EEEEE	policy_kernel=exterior_t,commDim=0011,xpay,dagger	# 330.98 Gflop/s, 506.21 GB/s, tuning took 0.525036 seconds at Wed May 26 03:04:52 2021
 6.43733e-05	 2.04201e-05	           5	 1.28747e-05	         8x4x2x2	N4quda4blas5Norm2IdfEE	vol=128,stride=64,precision=4,order=2,Ns=2,Nc=24,TwistFlavour=1,nParity=2	# 1.91 Gflop/s, 3.82 GB/s, tuning took 0.244015 seconds at Wed May 26 03:08:18 2021
   5.488e-05	 1.74087e-05	           3	 1.82933e-05	        8x12x4x4	14N4quda4blas9multiCdotIdfEE	policy_kernel,vol=1536,stride=1536,precision=4,order=2,Ns=2,Nc=24,TwistFlavour=1,nParity=1	# 128.97 Gflop/s, 257.94 GB/s, tuning took 0.050192 seconds at Wed May 26 03:17:42 2021
  5.2448e-05	 1.66372e-05	           1	  5.2448e-05	  bytes=28311552	cudaMemsetAsync	zero,cuda_color_spinor_field.cpp,332	# 0.00 Gflop/s, 539.80 GB/s, tuning took 0.000125 seconds at Wed May 26 03:07:57 2021
  5.0688e-05	 1.60789e-05	           3	  1.6896e-05	       16x12x4x4	N4quda24GenericPackGhostLauncherIfLb1ELi2ELi2ELi24ELi2ENS_12PackGhostArgINS_11colorspinor12FieldOrderCBIfLi2ELi24ELi1EL16QudaFieldOrder_s2EfsLb0ELb0EEEEEEE	GPU-offline,vol=3072,stride=1536,precision=4,order=2,Ns=2,Nc=24,TwistFlavour=1,halo_prec=2,comm=0011,topo=1124,order=0,dest=00001111	# 0.00 Gflop/s, 26.18 GB/s, tuning took 0.051445 seconds at Wed May 26 03:01:44 2021
 5.04747e-05	 1.60112e-05	           4	 1.26187e-05	         4x4x2x2	N4quda4blas5Norm2IdfEE	vol=64,stride=64,precision=4,order=2,Ns=2,Nc=24,TwistFlavour=1,nParity=1	# 0.97 Gflop/s, 1.95 GB/s, tuning took 0.242630 seconds at Wed May 26 03:08:18 2021
  4.1216e-05	 1.30743e-05	           2	  2.0608e-05	   bytes=3981312	cudaMemcpyDeviceToDevice	exchangeGhost,cuda_gauge_field.cpp,178	# 0.00 Gflop/s, 386.39 GB/s, tuning took 0.000757 seconds at Wed May 26 02:44:53 2021
  4.0384e-05	 1.28103e-05	           2	  2.0192e-05	          147456	N4quda15TransformReduceIdNS_7complexIfEEiNS_5gauge4abs_IffEENS_7maximumIfEEEE	batch_size=2	# 0.00 Gflop/s, 116.84 GB/s, tuning took 0.006282 seconds at Wed May 26 03:08:14 2021
  3.9168e-05	 1.24246e-05	           1	  3.9168e-05	         8x4x2x2	N4quda12DslashCoarseIfssLi4ELi2ELi24ELi1ELb1ELb1ELb0ELNS_10DslashTypeE2EEE	policy_kernel,GPU-offline,vol=128,stride=64,precision=4,order=2,Ns=2,Nc=24,TwistFlavour=1,comm=0011,full,halo=00001111	# 541.80 Gflop/s, 283.61 GB/s, tuning took 0.268038 seconds at Wed May 26 03:08:18 2021
  3.8112e-05	 1.20896e-05	           3	  1.2704e-05	   bytes=2359296	cudaMemcpyDeviceToDevice	exchangeGhost,cuda_gauge_field.cpp,178	# 0.00 Gflop/s, 371.43 GB/s, tuning took 0.000067 seconds at Wed May 26 02:59:31 2021
 3.51253e-05	 1.11422e-05	           1	 3.51253e-05	     48x48x24x24	N4quda4PackIfLi3ELb1EEE	policy_kernel,vol=1327104,stride=663552,precision=4,order=4,Ns=4,Nc=3,TwistFlavour=1,comm=0011,topo=1124,order=0,nFace=1,device-device	# 37.78 Gflop/s, 453.38 GB/s, tuning took 1.015427 seconds at Wed May 26 03:01:59 2021
 3.49867e-05	 1.10982e-05	           1	 3.49867e-05	     48x48x24x24	N4quda4PackIfLi3ELb1EEE	policy_kernel,vol=1327104,stride=663552,precision=4,order=4,Ns=4,Nc=3,TwistFlavour=1,comm=0011,topo=1124,order=0,dagger,nFace=1,device-device	# 37.93 Gflop/s, 455.18 GB/s, tuning took 1.014390 seconds at Wed May 26 03:04:27 2021
  3.0528e-05	 9.68389e-06	           2	  1.5264e-05	         8x4x2x2	N4quda11SpinorNoiseIfLi2ELi24EL15QudaNoiseType_s1ENS_3ArgIfLi2ELi24EL16QudaFieldOrder_s2EEEEE	vol=128,stride=64,precision=4,order=2,Ns=2,Nc=24,TwistFlavour=1,GPU	# 0.00 Gflop/s, 3.22 GB/s, tuning took 0.013343 seconds at Wed May 26 03:08:17 2021
  2.7488e-05	 8.71956e-06	           1	  2.7488e-05	         1327104	N4quda15TransformReduceIfKfiNS_8identityIfEENS_7maximumIfEEEE	batch_size=1	# 0.00 Gflop/s, 193.12 GB/s, tuning took 0.017757 seconds at Wed May 26 02:55:33 2021
    2.72e-05	  8.6282e-06	           2	    1.36e-05	   bytes=5308416	cudaMemsetAsync	zero,cuda_color_spinor_field.cpp,334	# 0.00 Gflop/s, 390.32 GB/s, tuning took 0.002662 seconds at Wed May 26 02:52:26 2021
  2.6688e-05	 8.46579e-06	           3	   8.896e-06	    bytes=294912	cudaMemcpyDeviceToDevice	exchangeGhost,cuda_gauge_field.cpp,178	# 0.00 Gflop/s, 66.30 GB/s, tuning took 0.000051 seconds at Wed May 26 03:08:14 2021
 2.65813e-05	 8.43195e-06	           2	 1.32907e-05	         8x4x2x2	N4quda4blas11axpbyzNorm2IdfEE	vol=128,stride=64,precision=4,order=2,Ns=2,Nc=24,TwistFlavour=1,nParity=2	# 3.70 Gflop/s, 11.09 GB/s, tuning took 0.247675 seconds at Wed May 26 03:08:17 2021
 2.62827e-05	 8.33721e-06	           2	 1.31413e-05	         4x4x2x2	N4quda4blas11axpbyzNorm2IdfEE	vol=64,stride=64,precision=4,order=2,Ns=2,Nc=24,TwistFlavour=1,nParity=1	# 1.87 Gflop/s, 5.61 GB/s, tuning took 0.247442 seconds at Wed May 26 03:08:19 2021
  2.1856e-05	 6.93301e-06	           1	  2.1856e-05	         8x4x2x2	N4quda9CopyGaugeIffLi4608ENS_12CopyGaugeArgINS_5gauge10FieldOrderIfLi48ELi1EL21QudaGaugeFieldOrder_s13ELb1EfEENS3_IfLi48ELi1ELS4_2ELb1EsEEEEEE	GPU-offline,out:vol=128,stride=64,precision=4,geometry=1,Nc=48,in:vol=128,stride=64,precision=2,geometry=1,Nc=48,fine-grained	# 0.00 Gflop/s, 41451.76 GB/s, tuning took 0.058957 seconds at Wed May 26 03:08:14 2021
    2.16e-05	 6.85181e-06	           3	     7.2e-06	   bytes=1769472	cudaMemcpyDeviceToDevice	exchangeGhost,cuda_gauge_field.cpp,178	# 0.00 Gflop/s, 491.52 GB/s, tuning took 0.000909 seconds at Wed May 26 02:59:31 2021
  2.0352e-05	 6.45592e-06	           3	   6.784e-06	    bytes=147456	cudaMemcpyDeviceToDevice	exchangeGhost,cuda_gauge_field.cpp,178	# 0.00 Gflop/s, 43.47 GB/s, tuning took 0.000087 seconds at Wed May 26 03:08:14 2021
  1.7312e-05	  5.4916e-06	           1	  1.7312e-05	     bytes=49152	cudaMemcpyHostToDevice	BatchInvertMatrix,blas_lapack_cublas.cpp,113	# 0.00 Gflop/s, 2.84 GB/s, tuning took 0.000063 seconds at Wed May 26 02:59:28 2021
  1.6768e-05	 5.31903e-06	           1	  1.6768e-05	         8x4x2x2	N4quda9CopyGaugeIffLi4608ENS_12CopyGaugeArgINS_5gauge10FieldOrderIfLi48ELi1EL21QudaGaugeFieldOrder_s2ELb0EsEENS3_IfLi48ELi1ELS4_2ELb1EsEEEEEE	GPU-offline,out:vol=128,stride=128,precision=2,geometry=8,Nc=48,in:vol=128,stride=128,precision=2,geometry=8,Nc=48,fine-grained,ghost	# 0.00 Gflop/s, 12381.80 GB/s, tuning took 0.059723 seconds at Wed May 26 03:08:15 2021
  1.6736e-05	 5.30888e-06	           1	  1.6736e-05	     bytes=12288	cudaMemcpyHostToDevice	createGeoMap,transfer.cpp,307	# 0.00 Gflop/s, 0.73 GB/s, tuning took 0.000053 seconds at Wed May 26 03:07:57 2021
  1.6224e-05	 5.14647e-06	           1	  1.6224e-05	      bytes=2048	cudaMemcpyHostToDevice	BatchInvertMatrix,blas_lapack_cublas.cpp,113	# 0.00 Gflop/s, 0.13 GB/s, tuning took 0.000049 seconds at Wed May 26 03:08:14 2021
   1.472e-05	 4.66938e-06	           1	   1.472e-05	       16x12x4x4	N4quda10CalculateYIL19QudaFieldLocation_s2ELb0EfLi4ELi3ELi2ELi24ENS_13CalculateYArgIfLi4ELi2ELi3ELi24ENS_5gauge10FieldOrderIfLi48ELi2EL21QudaGaugeFieldOrder_s2ELb1EsEENS4_IfLi48ELi2ELS5_2ELb1EiEENS4_IfLi3ELi1ELS5_2ELb1EfEENS_11colorspinor12FieldOrderCBIfLi4ELi3ELi24EL16QudaFieldOrder_s2EssLb0ELb0EEESC_SC_NS_6clover10FieldOrderIfLi3ELi4EL22QudaCloverFieldOrder_s4EEEEEEE	GPU-offline,vol=1327104,stride=663552,precision=2,order=2,Ns=4,Nc=72,TwistFlavour=1,comm=0011,computeCoarseDiagonal,GPU-device	# 10.02 Gflop/s, 3846.68 GB/s, tuning took 0.013014 seconds at Wed May 26 02:59:23 2021
  1.4528e-05	 4.60847e-06	           1	  1.4528e-05	         8x4x2x2	N4quda10CalculateYIL19QudaFieldLocation_s2ELb1EfLi2ELi24ELi2ELi24ENS_13CalculateYArgIfLi2ELi2ELi24ELi24ENS_5gauge10FieldOrderIfLi48ELi2EL21QudaGaugeFieldOrder_s2ELb1EsEENS4_IfLi48ELi2ELS5_2ELb1EiEES6_NS_11colorspinor12FieldOrderCBIfLi2ELi24ELi24EL16QudaFieldOrder_s2EssLb0ELb0EEENS9_IfLi4ELi24ELi24ELSA_2EssLb0ELb0EEESB_S6_EEEE	GPU-offline,vol=3072,stride=1536,precision=2,order=2,Ns=2,Nc=576,TwistFlavour=1,comm=0011,computeCoarseTmDiagonal,GPU-device	# 0.42 Gflop/s, 162.40 GB/s, tuning took 0.012520 seconds at Wed May 26 03:08:14 2021
  1.4528e-05	 4.60847e-06	           1	  1.4528e-05	         8x4x2x2	N4quda10CalculateYIL19QudaFieldLocation_s2ELb1EfLi2ELi24ELi2ELi24ENS_13CalculateYArgIfLi2ELi2ELi24ELi24ENS_5gauge10FieldOrderIfLi48ELi2EL21QudaGaugeFieldOrder_s2ELb1EsEENS4_IfLi48ELi2ELS5_2ELb1EiEES6_NS_11colorspinor12FieldOrderCBIfLi2ELi24ELi24EL16QudaFieldOrder_s2EssLb0ELb0EEENS9_IfLi4ELi24ELi24ELSA_2EssLb0ELb0EEESB_S6_EEEE	GPU-offline,vol=3072,stride=1536,precision=2,order=2,Ns=2,Nc=576,TwistFlavour=1,comm=0011,computeCoarseDiagonal,GPU-device	# 0.42 Gflop/s, 162.40 GB/s, tuning took 0.012506 seconds at Wed May 26 03:08:14 2021
  1.3856e-05	 4.39531e-06	           1	  1.3856e-05	     bytes=12288	cudaMemcpyHostToDevice	createGeoMap,transfer.cpp,308	# 0.00 Gflop/s, 0.89 GB/s, tuning took 0.000040 seconds at Wed May 26 03:07:57 2021
  1.2576e-05	 3.98927e-06	           1	  1.2576e-05	         8x4x2x2	N4quda9CopyGaugeIffLi4608ENS_12CopyGaugeArgINS_5gauge10FieldOrderIfLi48ELi1EL21QudaGaugeFieldOrder_s2ELb1EsEENS3_IfLi48ELi1ELS4_13ELb1EfEEEEEE	GPU-offline,out:vol=128,stride=64,precision=2,geometry=1,Nc=48,in:vol=128,stride=64,precision=4,geometry=1,Nc=48,fine-grained	# 0.00 Gflop/s, 72039.57 GB/s, tuning took 0.038487 seconds at Wed May 26 03:08:14 2021
  1.1968e-05	 3.79641e-06	           2	   5.984e-06	   bytes=1179648	cudaMemset	cudaGaugeField,cuda_gauge_field.cpp,54	# 0.00 Gflop/s, 197.13 GB/s, tuning took 0.000030 seconds at Wed May 26 03:07:57 2021
  1.1808e-05	 3.74565e-06	           1	  1.1808e-05	       bytes=512	cudaMemcpyDeviceToHost	BatchInvertMatrix,blas_lapack_cublas.cpp,137	# 0.00 Gflop/s, 0.04 GB/s, tuning took 0.000235 seconds at Wed May 26 03:08:14 2021
  1.1744e-05	 3.72535e-06	           1	  1.1744e-05	     bytes=12288	cudaMemcpyDeviceToHost	BatchInvertMatrix,blas_lapack_cublas.cpp,121	# 0.00 Gflop/s, 1.05 GB/s, tuning took 0.002260 seconds at Wed May 26 02:59:28 2021
  1.1584e-05	  3.6746e-06	           1	  1.1584e-05	       bytes=512	cudaMemcpyDeviceToHost	BatchInvertMatrix,blas_lapack_cublas.cpp,121	# 0.00 Gflop/s, 0.04 GB/s, tuning took 0.000249 seconds at Wed May 26 03:08:14 2021
  1.0944e-05	 3.47158e-06	           1	  1.0944e-05	     bytes=12288	cudaMemcpyDeviceToHost	BatchInvertMatrix,blas_lapack_cublas.cpp,137	# 0.00 Gflop/s, 1.12 GB/s, tuning took 0.002316 seconds at Wed May 26 02:59:28 2021
     9.6e-06	 3.04525e-06	           2	     4.8e-06	         bytes=4	cudaMemsetAsync	Launch,coarse_op_preconditioned.cu,38	# 0.00 Gflop/s, 0.00 GB/s, tuning took 0.000049 seconds at Wed May 26 02:59:44 2021
   6.464e-06	 2.05047e-06	           1	   6.464e-06	         8x4x2x2	N4quda24GenericPackGhostLauncherIfLb1ELi2ELi2ELi24ELi2ENS_12PackGhostArgINS_11colorspinor12FieldOrderCBIfLi2ELi24ELi1EL16QudaFieldOrder_s2EfsLb0ELb0EEEEEEE	GPU-offline,vol=128,stride=64,precision=4,order=2,Ns=2,Nc=24,TwistFlavour=1,halo_prec=2,comm=0011,topo=1124,order=0,dest=00001111	# 0.00 Gflop/s, 5.70 GB/s, tuning took 0.023653 seconds at Wed May 26 03:08:18 2021
    4.96e-06	 1.57338e-06	           1	    4.96e-06	    bytes=147456	cudaMemset	AllocateRNG,random.cu,124	# 0.00 Gflop/s, 29.73 GB/s, tuning took 0.000036 seconds at Wed May 26 03:07:09 2021
     4.8e-06	 1.52262e-06	           1	     4.8e-06	      bytes=6144	cudaMemset	AllocateRNG,random.cu,124	# 0.00 Gflop/s, 1.28 GB/s, tuning took 0.000028 seconds at Wed May 26 03:08:23 2021
   4.672e-06	 1.48202e-06	           1	   4.672e-06	     bytes=12288	cudaMemsetAsync	zero,cuda_color_spinor_field.cpp,334	# 0.00 Gflop/s, 2.63 GB/s, tuning took 0.000072 seconds at Wed May 26 03:07:57 2021

# Total time spent in kernels = 315.245 seconds
